EESchema Schematic File Version 2
LIBS:74LVT
LIBS:74xgxx
LIBS:74xx
LIBS:ac-dc
LIBS:actel
LIBS:adc-dac
LIBS:ADC-DeltaSigma
LIBS:ADC-SAR
LIBS:Altera
LIBS:analog_devices
LIBS:AnalogMuxDemux
LIBS:analog_switches
LIBS:AopAudio
LIBS:AopComparador
LIBS:AopPrecision
LIBS:AopRailToRailPG
LIBS:atmel
LIBS:audio
LIBS:battery_management
LIBS:bbd
LIBS:BJT-GeneralPurpose 
LIBS:BOR-SIL
LIBS:BridgeUSB
LIBS:brooktre
LIBS:CapAluminioSMD
LIBS:CapCeramicoHVC
LIBS:CapCeramicos
LIBS:CapCer_THT
LIBS:CapElectroliticos
LIBS:CapPoly_THT
LIBS:CapTantalio
LIBS:Ccer_SMD
LIBS:cmos4000
LIBS:cmos_ieee
LIBS:CommonModeChoke 
LIBS:CompuertasLogicas
LIBS:CON-DIL_F
LIBS:CON-DIL_M
LIBS:Conectores
LIBS:ConectoresDB
LIBS:conn
LIBS:CON-SIL_F
LIBS:CON-SIL_M
LIBS:contrib
LIBS:CON-USB
LIBS:Cristal
LIBS:cypress
LIBS:dc-dc
LIBS:device
LIBS:digital-audio
LIBS:diode
LIBS:DiodoPequeñaSeñal
LIBS:DiodoRectificador
LIBS:DiodoSchottkyRect
LIBS:DiodosSupresorTransitorios
LIBS:DiodosZener
LIBS:display
LIBS:dsp
LIBS:EEpromSerie
LIBS:EIA232
LIBS:EIA485
LIBS:elec-unifil
LIBS:ESD_Protection
LIBS: EsdProtectionDiode
LIBS:FerriteBead
LIBS:FotoDiodos
LIBS:ftdi
LIBS:Fusibles
LIBS:gennum
LIBS:graphic
LIBS:hc11
LIBS:Inductor
LIBS:intel
LIBS:interface
LIBS:ir
LIBS:IRF-MOSFET
LIBS:jumpers
LIBS:Lattice
LIBS:LDR_THT
LIBS:LEDs
LIBS:linear
LIBS:LoadGeneric
LIBS:Logic-MOSFET
LIBS:logo
LIBS:LPC17xx
LIBS:LPC43xx
LIBS:MagneticsProtection
LIBS:maxim
LIBS:memory
LIBS:microchip
LIBS:microchip_dspic33dsc
LIBS:microchip_pic10mcu
LIBS:microchip_pic12mcu
LIBS:microchip_pic16mcu
LIBS:microchip_pic18mcu
LIBS:microchip_pic32mcu
LIBS:microcontrollers
LIBS:motor_drivers
LIBS:motorola
LIBS:msp430
LIBS:nordicsemi
LIBS:NTR-MOSFET
LIBS:nxp_armmcu
LIBS:onsemi
LIBS:opto
LIBS:OptoTransistor
LIBS:OptoTriac
LIBS:Oscillators
LIBS:philips
LIBS:PicoFusePTC
LIBS:Pilas
LIBS:Potenciometro
LIBS:power
LIBS:PowerDistributionSwitch
LIBS:powerint
LIBS:Power_Management
LIBS:pspice
LIBS:Puentes
LIBS:R
LIBS:references
LIBS:RegLinealPositivos
LIBS:regul
LIBS:ReguladorLDO
LIBS:ReguladorSwitcher
LIBS:relays
LIBS:rfcom
LIBS:RMII_Ethernet
LIBS:R_SMD
LIBS:R_ThruHole
LIBS:R_THT
LIBS:SensorCurrent
LIBS:sensors
LIBS:SensorTemperatura
LIBS:ShifterLevel
LIBS:silabs
LIBS:siliconi
LIBS:SourceCurrent
LIBS:StickLPC
LIBS:stm8
LIBS:stm32
LIBS:supertex
LIBS:switches
LIBS:TactSwitch
LIBS:TestPoint
LIBS:texas
LIBS:TrafoReductor
LIBS:TransceiverCAN
LIBS:transf
LIBS:TransistorArrays
LIBS:transistors
LIBS:Triac
LIBS:ttl_ieee
LIBS:valves
LIBS:Varistor
LIBS:video
LIBS:VoltageReference
LIBS:Worldsemi
LIBS:Xicor
LIBS:xilinx
LIBS:xtal
LIBS:Zilog
LIBS:MemoryZock
LIBS:BoardMicro-cache
EELAYER 25 0
EELAYER END
$Descr A4 11693 8268
encoding utf-8
Sheet 7 21
Title "BoardWithStick1300revD"
Date "12-05-2017"
Rev "v1.10b"
Comp "J.E.L"
Comment1 "\\n Luccioni, Jesus Emanuel"
Comment2 ""
Comment3 ""
Comment4 ""
$EndDescr
$Comp
L 100nF_25V_X7R C38
U 1 1 579BA27F
P 9650 2500
F 0 "C38" H 9700 2050 50  0000 C CNN
F 1 "100nF_25V_X7R" H 9200 2050 50  0000 C CNN
F 2 "CapacitorCeramicSMD:CcSMD_0805_HandSold" H 9350 2500 50  0001 C CNN
F 3 "" H 9650 2500 60  0000 C CNN
	1    9650 2500
	1    0    0    1   
$EndComp
Text HLabel 7850 1800 2    60   Output ~ 0
AnalogInp.1
$Sheet
S 3150 4000 1500 350 
U 57A98E98
F0 "MedicionPila" 60
F1 "MedicionPila.sch" 60
F2 "MedPila" O R 4650 4200 60 
$EndSheet
Text HLabel 7850 4300 2    60   Output ~ 0
AnalogInp.3
Text HLabel 7850 3050 2    60   Output ~ 0
AnalogInp.2
$Comp
L GNDA #PWR058
U 1 1 57BA71B8
P 10050 2900
F 0 "#PWR058" H 10050 2650 50  0001 C CNN
F 1 "GNDA" H 10050 2750 50  0000 C CNN
F 2 "" H 10050 2900 50  0000 C CNN
F 3 "" H 10050 2900 50  0000 C CNN
	1    10050 2900
	1    0    0    -1  
$EndComp
$Comp
L GNDA #PWR059
U 1 1 57BA76B6
P 2600 1800
F 0 "#PWR059" H 2600 1550 50  0001 C CNN
F 1 "GNDA" H 2600 1650 50  0000 C CNN
F 2 "" H 2600 1800 50  0000 C CNN
F 3 "" H 2600 1800 50  0000 C CNN
	1    2600 1800
	1    0    0    -1  
$EndComp
$Comp
L GNDA #PWR060
U 1 1 57BA7738
P 6900 2250
F 0 "#PWR060" H 6900 2000 50  0001 C CNN
F 1 "GNDA" H 6900 2100 50  0000 C CNN
F 2 "" H 6900 2250 50  0000 C CNN
F 3 "" H 6900 2250 50  0000 C CNN
	1    6900 2250
	1    0    0    -1  
$EndComp
$Comp
L GNDA #PWR061
U 1 1 57BA77ED
P 6900 3500
F 0 "#PWR061" H 6900 3250 50  0001 C CNN
F 1 "GNDA" H 6900 3350 50  0000 C CNN
F 2 "" H 6900 3500 50  0000 C CNN
F 3 "" H 6900 3500 50  0000 C CNN
	1    6900 3500
	1    0    0    -1  
$EndComp
$Comp
L 220R_125mW_5% R29
U 1 1 579BE22B
P 6350 1800
F 0 "R29" V 6450 1800 50  0000 C CNN
F 1 "220R_125mW_5%" V 6150 1850 50  0000 C CNN
F 2 "ResistorChipSMD:RchipSMD_0805_HandSold" V 6249 1800 50  0001 C CNN
F 3 "" H 6350 1800 30  0000 C CNN
	1    6350 1800
	0    -1   1    0   
$EndComp
$Comp
L 220R_125mW_5% R30
U 1 1 57B91C02
P 6350 3050
F 0 "R30" V 6450 3050 50  0000 C CNN
F 1 "220R_125mW_5%" V 6158 3050 50  0000 C CNN
F 2 "ResistorChipSMD:RchipSMD_0805_HandSold" V 6249 3050 50  0001 C CNN
F 3 "" H 6350 3050 30  0000 C CNN
	1    6350 3050
	0    -1   1    0   
$EndComp
$Comp
L +5V #PWR062
U 1 1 57D211D3
P 9250 3850
F 0 "#PWR062" H 9250 3700 50  0001 C CNN
F 1 "+5V" H 9250 3990 50  0000 C CNN
F 2 "" H 9250 3850 50  0000 C CNN
F 3 "" H 9250 3850 50  0000 C CNN
	1    9250 3850
	1    0    0    -1  
$EndComp
$Comp
L +5VA #PWR063
U 1 1 57D21209
P 10050 3850
F 0 "#PWR063" H 10050 3700 50  0001 C CNN
F 1 "+5VA" H 10050 3990 50  0000 C CNN
F 2 "" H 10050 3850 50  0000 C CNN
F 3 "" H 10050 3850 50  0000 C CNN
	1    10050 3850
	1    0    0    -1  
$EndComp
$Comp
L MMZ1608B601C FB5
U 1 1 57D21E93
P 9550 4000
F 0 "FB5" V 9450 4000 50  0000 C CNN
F 1 "MMZ1608B601C" V 9650 4000 50  0000 C CNN
F 2 "CapacitoresSMD:C_0603-HandSold" V 9750 4000 50  0001 C CNN
F 3 "" H 9550 4000 30  0000 C CNN
	1    9550 4000
	0    1    1    0   
$EndComp
$Comp
L GND #PWR064
U 1 1 57D21EAC
P 10050 4400
F 0 "#PWR064" H 10050 4150 50  0001 C CNN
F 1 "GND" H 10055 4227 50  0000 C CNN
F 2 "" H 10050 4400 50  0000 C CNN
F 3 "" H 10050 4400 50  0000 C CNN
	1    10050 4400
	1    0    0    -1  
$EndComp
$Comp
L TestPoint TP7
U 1 1 57D22C0A
P 10550 3900
F 0 "TP7" H 10700 3900 50  0000 C CNN
F 1 "TP_+5VA" H 10550 4100 50  0000 C CNN
F 2 "TestPoint:TEST-POINT_0.5x2mm" H 10550 3700 50  0001 C CNN
F 3 "" H 10550 3600 60  0000 C CNN
	1    10550 3900
	1    0    0    -1  
$EndComp
$Comp
L +5VA #PWR065
U 1 1 57D23783
P 10050 2050
F 0 "#PWR065" H 10050 1900 50  0001 C CNN
F 1 "+5VA" H 10050 2190 50  0000 C CNN
F 2 "" H 10050 2050 50  0000 C CNN
F 3 "" H 10050 2050 50  0000 C CNN
	1    10050 2050
	1    0    0    -1  
$EndComp
$Comp
L PWR_FLAG #FLG066
U 1 1 57D2396B
P 1600 7250
F 0 "#FLG066" H 1600 7345 50  0001 C CNN
F 1 "PWR_FLAG" H 1600 7430 50  0000 C CNN
F 2 "" H 1600 7250 50  0000 C CNN
F 3 "" H 1600 7250 50  0000 C CNN
	1    1600 7250
	-1   0    0    1   
$EndComp
$Comp
L 100R_125mW_5% R34
U 1 1 57D25BA3
P 7350 3050
F 0 "R34" V 7550 3050 50  0000 C CNN
F 1 "100R_125mW_5%" V 7450 3050 50  0000 C CNN
F 2 "ResistorChipSMD:RchipSMD_0805_HandSold" H 7600 2975 50  0001 C CNN
F 3 "" H 7350 3050 30  0000 C CNN
	1    7350 3050
	0    -1   -1   0   
$EndComp
$Comp
L 100nF_25V_X7R C33
U 1 1 57D26380
P 7650 3250
F 0 "C33" H 7850 3250 50  0000 C CNN
F 1 "100nF_25V_X7R" H 8050 3150 50  0000 C CNN
F 2 "CapacitorCeramicSMD:CcSMD_0805_HandSold" H 7900 3100 50  0001 C CNN
F 3 "" H 7650 3250 60  0000 C CNN
	1    7650 3250
	1    0    0    -1  
$EndComp
$Comp
L 100R_125mW_5% R33
U 1 1 57D272C9
P 7350 1800
F 0 "R33" V 7550 1800 50  0000 C CNN
F 1 "100R_125mW_5%" V 7450 1800 50  0000 C CNN
F 2 "ResistorChipSMD:RchipSMD_0805_HandSold" H 7600 1725 50  0001 C CNN
F 3 "" H 7350 1800 30  0000 C CNN
	1    7350 1800
	0    -1   -1   0   
$EndComp
$Comp
L 100nF_25V_X7R C32
U 1 1 57D272CF
P 7650 2000
F 0 "C32" H 7850 2000 50  0000 C CNN
F 1 "100nF_25V_X7R" H 8000 1850 50  0000 C CNN
F 2 "CapacitorCeramicSMD:CcSMD_0805_HandSold" H 7900 1850 50  0001 C CNN
F 3 "" H 7650 2000 60  0000 C CNN
	1    7650 2000
	1    0    0    -1  
$EndComp
$Comp
L GNDA #PWR067
U 1 1 57D27549
P 7650 2200
F 0 "#PWR067" H 7650 1950 50  0001 C CNN
F 1 "GNDA" H 7650 2050 50  0000 C CNN
F 2 "" H 7650 2200 50  0000 C CNN
F 3 "" H 7650 2200 50  0000 C CNN
	1    7650 2200
	1    0    0    -1  
$EndComp
$Comp
L 1nF_25V_X7R C30
U 1 1 57D2990E
P 3100 1950
F 0 "C30" H 2900 1950 50  0000 C CNN
F 1 "1nF_25V_X7R" H 3100 2300 50  0000 C CNN
F 2 "CapacitorCeramicSMD:CcSMD_0805_HandSold" H 3350 1800 50  0001 C CNN
F 3 "" H 3100 1950 60  0000 C CNN
	1    3100 1950
	-1   0    0    -1  
$EndComp
$Comp
L SMBJ5.0A D13
U 1 1 57D29914
P 3600 2000
F 0 "D13" H 3800 2000 50  0000 C CNN
F 1 "SMBJ5.0A" H 3900 1900 50  0000 C CNN
F 2 "DiodosSMD:SMB-Handsold" V 3600 1950 60  0001 C CNN
F 3 "" V 3600 1950 60  0000 C CNN
	1    3600 2000
	1    0    0    -1  
$EndComp
$Comp
L MMZ1608B601C FB6
U 1 1 57D2991A
P 4100 1700
F 0 "FB6" V 4000 1700 50  0000 C CNN
F 1 "MMZ1608B601C" V 4200 1700 50  0000 C CNN
F 2 "FerriteBeadSMD:FbSMD_0603_HandSold" V 4300 1700 50  0001 C CNN
F 3 "" H 4100 1700 30  0000 C CNN
	1    4100 1700
	0    -1   -1   0   
$EndComp
$Comp
L 470pF_10V_X7R C31
U 1 1 57D29920
P 4500 1850
F 0 "C31" H 4700 1850 50  0000 C CNN
F 1 "470pF_10V_X7R" H 4850 1750 50  0000 C CNN
F 2 "CapacitorCeramicSMD:CcSMD_0805_HandSold" H 4750 1700 50  0001 C CNN
F 3 "" H 4500 1850 60  0000 C CNN
	1    4500 1850
	1    0    0    -1  
$EndComp
$Comp
L 4.7R_125mW_5% R28
U 1 1 57D29926
P 4500 2200
F 0 "R28" H 4650 2200 50  0000 C CNN
F 1 "4.7R_125mW_5%" H 4900 2300 50  0000 C CNN
F 2 "ResistorChipSMD:RchipSMD_0805_HandSold" V 4430 2200 30  0001 C CNN
F 3 "" H 4500 2200 30  0000 C CNN
	1    4500 2200
	1    0    0    -1  
$EndComp
$Comp
L GNDA #PWR068
U 1 1 57D29936
P 4500 2400
F 0 "#PWR068" H 4500 2150 50  0001 C CNN
F 1 "GNDA" H 4500 2250 50  0000 C CNN
F 2 "" H 4500 2400 50  0000 C CNN
F 3 "" H 4500 2400 50  0000 C CNN
	1    4500 2400
	1    0    0    -1  
$EndComp
$Comp
L GNDA #PWR069
U 1 1 57D2993C
P 3600 2250
F 0 "#PWR069" H 3600 2000 50  0001 C CNN
F 1 "GNDA" H 3600 2100 50  0000 C CNN
F 2 "" H 3600 2250 50  0000 C CNN
F 3 "" H 3600 2250 50  0000 C CNN
	1    3600 2250
	1    0    0    -1  
$EndComp
$Comp
L GNDA #PWR070
U 1 1 57D29942
P 3100 2200
F 0 "#PWR070" H 3100 1950 50  0001 C CNN
F 1 "GNDA" H 3100 2050 50  0000 C CNN
F 2 "" H 3100 2200 50  0000 C CNN
F 3 "" H 3100 2200 50  0000 C CNN
	1    3100 2200
	1    0    0    -1  
$EndComp
Wire Wire Line
	10050 2800 10050 2900
Wire Wire Line
	9650 2600 9650 2850
Wire Wire Line
	9400 2850 10050 2850
Connection ~ 10050 2850
Wire Wire Line
	10050 2050 10050 2200
Wire Wire Line
	9650 2400 9650 2150
Wire Wire Line
	9400 2150 10050 2150
Connection ~ 10050 2150
Wire Wire Line
	9400 2400 9400 2150
Connection ~ 9650 2150
Wire Wire Line
	9400 2600 9400 2850
Connection ~ 9650 2850
Wire Wire Line
	6900 1800 6900 1850
Connection ~ 6650 1800
Connection ~ 6900 1800
Wire Wire Line
	5300 3150 5350 3150
Wire Wire Line
	5300 3350 6650 3350
Wire Wire Line
	5300 3350 5300 3150
Wire Wire Line
	6650 3350 6650 3050
Wire Wire Line
	6900 3050 6900 3100
Connection ~ 6650 3050
Connection ~ 6900 3050
Wire Wire Line
	6650 2100 5300 2100
Wire Wire Line
	5300 1900 5350 1900
Wire Wire Line
	5300 2100 5300 1900
Wire Wire Line
	9350 4000 9250 4000
Wire Wire Line
	9250 4000 9250 3850
Wire Wire Line
	10050 3850 10050 4150
Wire Wire Line
	9750 4000 10550 4000
Connection ~ 10050 4000
Wire Wire Line
	7650 3150 7650 3050
Connection ~ 7650 3050
Wire Wire Line
	7650 3350 7650 3450
Wire Wire Line
	6550 3050 7150 3050
Wire Wire Line
	7650 1900 7650 1800
Connection ~ 7650 1800
Wire Wire Line
	7650 2100 7650 2200
Wire Wire Line
	6550 1800 7150 1800
Wire Wire Line
	2500 1700 3900 1700
Wire Wire Line
	3100 1850 3100 1700
Connection ~ 3100 1700
Wire Wire Line
	3600 1750 3600 1700
Connection ~ 3600 1700
Wire Wire Line
	3100 2050 3100 2200
Wire Wire Line
	4300 1700 5350 1700
Wire Wire Line
	4500 2000 4500 1950
Connection ~ 4500 1700
Wire Wire Line
	7550 1800 7850 1800
Wire Wire Line
	7550 3050 7850 3050
Text HLabel 7850 5150 2    60   Output ~ 0
AnalogInp.4
$Comp
L GNDA #PWR071
U 1 1 58228911
P 7650 3450
F 0 "#PWR071" H 7650 3200 50  0001 C CNN
F 1 "GNDA" H 7650 3300 50  0000 C CNN
F 2 "" H 7650 3450 50  0000 C CNN
F 3 "" H 7650 3450 50  0000 C CNN
	1    7650 3450
	1    0    0    -1  
$EndComp
$Comp
L +5VA #PWR072
U 1 1 582E9B63
P 2600 1400
F 0 "#PWR072" H 2600 1250 50  0001 C CNN
F 1 "+5VA" H 2600 1540 50  0000 C CNN
F 2 "" H 2600 1400 50  0000 C CNN
F 3 "" H 2600 1400 50  0000 C CNN
	1    2600 1400
	1    0    0    -1  
$EndComp
Wire Wire Line
	2500 1500 2600 1500
Wire Wire Line
	2600 1600 2500 1600
$Comp
L GNDA #PWR073
U 1 1 590474DC
P 6900 4750
F 0 "#PWR073" H 6900 4500 50  0001 C CNN
F 1 "GNDA" H 6900 4600 50  0000 C CNN
F 2 "" H 6900 4750 50  0000 C CNN
F 3 "" H 6900 4750 50  0000 C CNN
	1    6900 4750
	1    0    0    -1  
$EndComp
$Comp
L 220R_125mW_5% R31
U 1 1 590474E2
P 6350 4300
F 0 "R31" V 6450 4300 50  0000 C CNN
F 1 "220R_125mW_5%" V 6158 4300 50  0000 C CNN
F 2 "ResistorChipSMD:RchipSMD_0805_HandSold" V 6249 4300 50  0001 C CNN
F 3 "" H 6350 4300 30  0000 C CNN
	1    6350 4300
	0    -1   1    0   
$EndComp
$Comp
L 100R_125mW_5% R35
U 1 1 590474F0
P 7350 4300
F 0 "R35" V 7550 4300 50  0000 C CNN
F 1 "100R_125mW_5%" V 7450 4300 50  0000 C CNN
F 2 "ResistorChipSMD:RchipSMD_0805_HandSold" H 7600 4225 50  0001 C CNN
F 3 "" H 7350 4300 30  0000 C CNN
	1    7350 4300
	0    -1   -1   0   
$EndComp
$Comp
L 100nF_25V_X7R C34
U 1 1 590474F7
P 7650 4500
F 0 "C34" H 7850 4500 50  0000 C CNN
F 1 "100nF_25V_X7R" H 8050 4400 50  0000 C CNN
F 2 "CapacitorCeramicSMD:CcSMD_0805_HandSold" H 7900 4350 50  0001 C CNN
F 3 "" H 7650 4500 60  0000 C CNN
	1    7650 4500
	1    0    0    -1  
$EndComp
$Comp
L GNDA #PWR074
U 1 1 590474FE
P 7650 4700
F 0 "#PWR074" H 7650 4450 50  0001 C CNN
F 1 "GNDA" H 7650 4550 50  0000 C CNN
F 2 "" H 7650 4700 50  0000 C CNN
F 3 "" H 7650 4700 50  0000 C CNN
	1    7650 4700
	1    0    0    -1  
$EndComp
Wire Wire Line
	5300 4400 5350 4400
Wire Wire Line
	5300 4600 6650 4600
Wire Wire Line
	5300 4600 5300 4400
Wire Wire Line
	6650 4600 6650 4300
Wire Wire Line
	6900 4300 6900 4350
Connection ~ 6650 4300
Connection ~ 6900 4300
Wire Wire Line
	7650 4400 7650 4300
Connection ~ 7650 4300
Wire Wire Line
	7650 4600 7650 4700
Wire Wire Line
	6550 4300 7150 4300
Wire Wire Line
	7550 4300 7850 4300
Wire Wire Line
	7550 5150 7850 5150
$Comp
L GNDA #PWR075
U 1 1 59048335
P 6900 5600
F 0 "#PWR075" H 6900 5350 50  0001 C CNN
F 1 "GNDA" H 6900 5450 50  0000 C CNN
F 2 "" H 6900 5600 50  0000 C CNN
F 3 "" H 6900 5600 50  0000 C CNN
	1    6900 5600
	1    0    0    -1  
$EndComp
$Comp
L 220R_125mW_5% R32
U 1 1 5904833B
P 6350 5150
F 0 "R32" V 6450 5150 50  0000 C CNN
F 1 "220R_125mW_5%" V 6158 5150 50  0000 C CNN
F 2 "ResistorChipSMD:RchipSMD_0805_HandSold" V 6249 5150 50  0001 C CNN
F 3 "" H 6350 5150 30  0000 C CNN
	1    6350 5150
	0    -1   1    0   
$EndComp
$Comp
L 100R_125mW_5% R36
U 1 1 59048349
P 7350 5150
F 0 "R36" V 7550 5150 50  0000 C CNN
F 1 "100R_125mW_5%" V 7450 5150 50  0000 C CNN
F 2 "ResistorChipSMD:RchipSMD_0805_HandSold" H 7600 5075 50  0001 C CNN
F 3 "" H 7350 5150 30  0000 C CNN
	1    7350 5150
	0    -1   -1   0   
$EndComp
$Comp
L 100nF_25V_X7R C35
U 1 1 59048350
P 7650 5350
F 0 "C35" H 7850 5350 50  0000 C CNN
F 1 "100nF_25V_X7R" H 8000 5200 50  0000 C CNN
F 2 "CapacitorCeramicSMD:CcSMD_0805_HandSold" H 7900 5200 50  0001 C CNN
F 3 "" H 7650 5350 60  0000 C CNN
	1    7650 5350
	1    0    0    -1  
$EndComp
$Comp
L GNDA #PWR076
U 1 1 59048357
P 7650 5550
F 0 "#PWR076" H 7650 5300 50  0001 C CNN
F 1 "GNDA" H 7650 5400 50  0000 C CNN
F 2 "" H 7650 5550 50  0000 C CNN
F 3 "" H 7650 5550 50  0000 C CNN
	1    7650 5550
	1    0    0    -1  
$EndComp
Wire Wire Line
	6650 5450 6650 5150
Wire Wire Line
	6900 5150 6900 5200
Connection ~ 6650 5150
Connection ~ 6900 5150
Wire Wire Line
	5300 5450 6650 5450
Wire Wire Line
	5300 5250 5350 5250
Wire Wire Line
	5300 5450 5300 5250
Wire Wire Line
	7650 5250 7650 5150
Connection ~ 7650 5150
Wire Wire Line
	7650 5450 7650 5550
Wire Wire Line
	6550 5150 7150 5150
Wire Wire Line
	5350 4200 4650 4200
Wire Wire Line
	5350 5050 4650 5050
Wire Wire Line
	2600 1600 2600 1800
Wire Wire Line
	2600 1500 2600 1400
$Sheet
S 3150 2850 1500 350 
U 5905AB09
F0 "BrightnessSensing" 60
F1 "BrightnessSensing.sch" 60
F2 "LightSense" O R 4650 2950 60 
F3 "LDRin" I L 3150 2950 60 
F4 "LDRou" I L 3150 3050 60 
$EndSheet
Wire Wire Line
	3150 2950 2800 2950
Wire Wire Line
	2800 3050 3150 3050
Wire Wire Line
	5350 2950 4650 2950
$Comp
L GNDA #PWR077
U 1 1 5904748B
P 10450 5050
F 0 "#PWR077" H 10450 4800 50  0001 C CNN
F 1 "GNDA" H 10455 4877 50  0000 C CNN
F 2 "" H 10450 5050 50  0000 C CNN
F 3 "" H 10450 5050 50  0000 C CNN
	1    10450 5050
	1    0    0    -1  
$EndComp
$Comp
L MMZ1608B601C FB4
U 1 1 59047491
P 10050 4850
F 0 "FB4" V 9950 4850 50  0000 C CNN
F 1 "MMZ1608B601C" V 10150 4850 50  0000 C CNN
F 2 "CapacitoresSMD:C_0603-HandSold" V 10250 4850 50  0001 C CNN
F 3 "" H 10050 4850 30  0000 C CNN
	1    10050 4850
	0    1    1    0   
$EndComp
$Comp
L GND #PWR078
U 1 1 59047498
P 9700 5050
F 0 "#PWR078" H 9700 4800 50  0001 C CNN
F 1 "GND" H 9705 4877 50  0000 C CNN
F 2 "" H 9700 5050 50  0000 C CNN
F 3 "" H 9700 5050 50  0000 C CNN
	1    9700 5050
	1    0    0    -1  
$EndComp
Wire Wire Line
	9850 4850 9700 4850
Wire Wire Line
	9700 4850 9700 5050
Wire Wire Line
	10250 4850 10450 4850
Wire Wire Line
	10450 4850 10450 5050
$Comp
L GNDA #PWR079
U 1 1 59049018
P 1050 7250
F 0 "#PWR079" H 1050 7000 50  0001 C CNN
F 1 "GNDA" H 1055 7077 50  0000 C CNN
F 2 "" H 1050 7250 50  0000 C CNN
F 3 "" H 1050 7250 50  0000 C CNN
	1    1050 7250
	1    0    0    -1  
$EndComp
$Comp
L PWR_FLAG #FLG080
U 1 1 5904901E
P 1050 7150
F 0 "#FLG080" H 1050 7245 50  0001 C CNN
F 1 "PWR_FLAG" H 1050 7330 50  0000 C CNN
F 2 "" H 1050 7150 50  0000 C CNN
F 3 "" H 1050 7150 50  0000 C CNN
	1    1050 7150
	1    0    0    -1  
$EndComp
Wire Wire Line
	1050 7150 1050 7250
$Comp
L +5VA #PWR081
U 1 1 5904912D
P 1600 7100
F 0 "#PWR081" H 1600 6950 50  0001 C CNN
F 1 "+5VA" H 1600 7240 50  0000 C CNN
F 2 "" H 1600 7100 50  0000 C CNN
F 3 "" H 1600 7100 50  0000 C CNN
	1    1600 7100
	1    0    0    -1  
$EndComp
Wire Wire Line
	10550 4000 10550 3900
Wire Wire Line
	1600 7250 1600 7100
Wire Notes Line
	700  6700 2000 6700
Wire Notes Line
	2000 6700 2000 7600
Wire Notes Line
	2000 7600 700  7600
Wire Notes Line
	700  7600 700  6700
Text Notes 3250 7250 0    60   ~ 0
LM358/LM2904 <=> MCP6022\nLM324/LM2902V <=> MCP6024 y Resistencias al 2~~1 %
$Comp
L LM2902V U2
U 1 1 590599FB
P 5750 1800
F 0 "U2" H 5750 2150 60  0000 C CNN
F 1 "LM2902V" H 5750 2050 60  0000 C CNN
F 2 "SOIC:SOIC14_3.9x8.7mm_HandSold" H 5700 1400 60  0001 C CNN
F 3 "" H 5750 1800 60  0000 C CNN
	1    5750 1800
	1    0    0    -1  
$EndComp
$Comp
L LM2902V U2
U 2 1 59059A9C
P 5750 5150
F 0 "U2" H 5750 5500 60  0000 C CNN
F 1 "LM2902V" H 5750 5400 60  0000 C CNN
F 2 "SOIC:SOIC14_3.9x8.7mm_HandSold" H 5700 4750 60  0001 C CNN
F 3 "" H 5750 5150 60  0000 C CNN
	2    5750 5150
	1    0    0    -1  
$EndComp
$Comp
L LM2902V U2
U 3 1 59059DC1
P 10050 2500
F 0 "U2" H 10350 2550 60  0000 C CNN
F 1 "LM2902V" H 10450 2400 60  0000 C CNN
F 2 "SOIC:SOIC14_3.9x8.7mm_HandSold" H 10000 2100 60  0001 C CNN
F 3 "" H 10050 2500 60  0000 C CNN
	3    10050 2500
	1    0    0    -1  
$EndComp
$Comp
L LM2902V U2
U 4 1 59059EAE
P 5750 3050
F 0 "U2" H 5750 3400 60  0000 C CNN
F 1 "LM2902V" H 5750 3300 60  0000 C CNN
F 2 "SOIC:SOIC14_3.9x8.7mm_HandSold" H 5700 2650 60  0001 C CNN
F 3 "" H 5750 3050 60  0000 C CNN
	4    5750 3050
	1    0    0    -1  
$EndComp
$Comp
L LM2902V U2
U 5 1 59059F77
P 5750 4300
F 0 "U2" H 5750 4650 60  0000 C CNN
F 1 "LM2902V" H 5750 4550 60  0000 C CNN
F 2 "SOIC:SOIC14_3.9x8.7mm_HandSold" H 5700 3900 60  0001 C CNN
F 3 "" H 5750 4300 60  0000 C CNN
	5    5750 4300
	1    0    0    -1  
$EndComp
$Comp
L 10uF_10V_T491 C29
U 1 1 590A28FB
P 10050 4250
F 0 "C29" H 10300 4350 50  0000 C CNN
F 1 "10uF_10V_T491" H 10500 4250 50  0000 C CNN
F 2 "CapacitorTantalumSMD:CtanlumSMD_Case-A_Hand" H 10450 4150 50  0001 C CNN
F 3 "" H 10250 4350 60  0000 C CNN
	1    10050 4250
	1    0    0    -1  
$EndComp
Wire Wire Line
	10050 4400 10050 4350
$Comp
L 10uF_10V_T491 C36
U 1 1 590A424E
P 9400 2500
F 0 "C36" H 9600 2600 50  0000 C CNN
F 1 "10uF_10V_T491" H 9850 2500 50  0000 C CNN
F 2 "CapacitorTantalumSMD:CtanlumSMD_Case-A_Hand" H 9800 2400 50  0001 C CNN
F 3 "" H 9600 2600 60  0000 C CNN
	1    9400 2500
	-1   0    0    -1  
$EndComp
$Comp
L SIL-M01x03PITCH2.54 CN5
U 1 1 590C12EB
P 2350 1600
F 0 "CN5" H 2350 1850 61  0000 C CNN
F 1 "AnalogInp-1" H 1750 1525 61  0000 C CNN
F 2 "CON-SIL-Male:SIL-M_1x03PITCH2.54" H 2325 1350 61  0001 C CNN
F 3 "" H 2300 1350 60  0001 C CNN
F 4 "AnalogInp-1" H 1800 1675 60  0001 C CNN "Name"
	1    2350 1600
	1    0    0    -1  
$EndComp
$Comp
L BZT52C3V3 D14
U 1 1 590A71EC
P 6900 2050
F 0 "D14" H 7100 2100 50  0000 C CNN
F 1 "BZT52C3V3" H 7250 2000 50  0000 C CNN
F 2 "DiodosSMD:SOD123-HandSold" H 7150 1900 50  0001 C CNN
F 3 "" V 6900 2050 60  0000 C CNN
	1    6900 2050
	1    0    0    -1  
$EndComp
$Comp
L BZT52C3V3 D15
U 1 1 590A7DAF
P 6900 3300
F 0 "D15" H 7100 3350 50  0000 C CNN
F 1 "BZT52C3V3" H 7250 3250 50  0000 C CNN
F 2 "DiodosSMD:SOD123-HandSold" H 7150 3150 50  0001 C CNN
F 3 "" V 6900 3300 60  0000 C CNN
	1    6900 3300
	1    0    0    -1  
$EndComp
$Comp
L BZT52C3V3 D16
U 1 1 590A8022
P 6900 4550
F 0 "D16" H 7100 4600 50  0000 C CNN
F 1 "BZT52C3V3" H 7250 4500 50  0000 C CNN
F 2 "DiodosSMD:SOD123-HandSold" H 7150 4400 50  0001 C CNN
F 3 "" V 6900 4550 60  0000 C CNN
	1    6900 4550
	1    0    0    -1  
$EndComp
$Comp
L BZT52C3V3 D17
U 1 1 590A8220
P 6900 5400
F 0 "D17" H 7100 5450 50  0000 C CNN
F 1 "BZT52C3V3" H 7250 5350 50  0000 C CNN
F 2 "DiodosSMD:SOD123-HandSold" H 7150 5250 50  0001 C CNN
F 3 "" V 6900 5400 60  0000 C CNN
	1    6900 5400
	1    0    0    -1  
$EndComp
$Sheet
S 3100 4850 1550 400 
U 5903F0B9
F0 "InstrSenseCurrent" 60
F1 "InstrSenseCurrent.sch" 60
F2 "SenseCurrent" O R 4650 5050 60 
F3 "CurrentIp+" I L 3100 4950 60 
F4 "CurrentIp-" O L 3100 5150 60 
$EndSheet
$Comp
L BORx02-PITCH5mm CN4
U 1 1 590B08A6
P 2400 5050
F 0 "CN4" H 2400 5300 50  0000 C CNN
F 1 "CurrentSense" H 2400 4800 50  0000 C CNN
F 2 "Connectors_Phoenix:PhoenixContact_MCV-G_02x3.81mm_Vertical" H 2450 4700 50  0001 C CNN
F 3 "" H 2450 4750 60  0001 C CNN
F 4 "CurrentSense" H 2400 4700 60  0001 C CNN "Name"
	1    2400 5050
	1    0    0    -1  
$EndComp
Wire Wire Line
	2700 4950 3100 4950
Wire Wire Line
	2700 5150 3100 5150
$Comp
L SIL-M01x02PITCH2.54 CN6
U 1 1 590A8357
P 2650 3000
F 0 "CN6" H 2650 3200 61  0000 C CNN
F 1 "LDR" H 2450 3000 61  0000 C CNN
F 2 "Connectors_JST:JST_EH_B02B-EH-A_02x2.50mm_Straight" H 2650 2800 61  0001 C CNN
F 3 "" H 2600 2700 60  0001 C CNN
F 4 "LDR" H 2050 3050 60  0001 C CNN "Name"
	1    2650 3000
	1    0    0    -1  
$EndComp
Wire Wire Line
	6650 2100 6650 1800
Wire Wire Line
	4500 1750 4500 1700
Text Notes 3250 6900 0    60   ~ 0
 @ note : p/ Incremento performance
Wire Notes Line
	3200 6750 3200 7550
Wire Notes Line
	3200 7550 5950 7550
Wire Notes Line
	5950 7550 5950 6750
Wire Notes Line
	5950 6750 3200 6750
Wire Notes Line
	3200 6950 5950 6950
$EndSCHEMATC
