EESchema Schematic File Version 2
LIBS:74LVT
LIBS:74xgxx
LIBS:74xx
LIBS:ac-dc
LIBS:actel
LIBS:adc-dac
LIBS:ADC-DeltaSigma
LIBS:ADC-SAR
LIBS:Altera
LIBS:analog_devices
LIBS:AnalogMuxDemux
LIBS:analog_switches
LIBS:AopAudio
LIBS:AopComparador
LIBS:AopPrecision
LIBS:AopRailToRailPG
LIBS:atmel
LIBS:audio
LIBS:battery_management
LIBS:bbd
LIBS:BJT-GeneralPurpose 
LIBS:BOR-SIL
LIBS:BridgeUSB
LIBS:brooktre
LIBS:CapAluminioSMD
LIBS:CapCeramicoHVC
LIBS:CapCeramicos
LIBS:CapCer_THT
LIBS:CapElectroliticos
LIBS:CapPoly_THT
LIBS:CapTantalio
LIBS:Ccer_SMD
LIBS:cmos4000
LIBS:cmos_ieee
LIBS:CommonModeChoke 
LIBS:CompuertasLogicas
LIBS:CON-DIL_F
LIBS:CON-DIL_M
LIBS:Conectores
LIBS:ConectoresDB
LIBS:conn
LIBS:CON-SIL_F
LIBS:CON-SIL_M
LIBS:contrib
LIBS:CON-USB
LIBS:Cristal
LIBS:cypress
LIBS:dc-dc
LIBS:device
LIBS:digital-audio
LIBS:diode
LIBS:DiodoPequeñaSeñal
LIBS:DiodoRectificador
LIBS:DiodoSchottkyRect
LIBS:DiodosSupresorTransitorios
LIBS:DiodosZener
LIBS:display
LIBS:dsp
LIBS:EEpromSerie
LIBS:EIA232
LIBS:EIA485
LIBS:elec-unifil
LIBS:ESD_Protection
LIBS: EsdProtectionDiode
LIBS:FerriteBead
LIBS:FotoDiodos
LIBS:ftdi
LIBS:Fusibles
LIBS:gennum
LIBS:graphic
LIBS:hc11
LIBS:Inductor
LIBS:intel
LIBS:interface
LIBS:ir
LIBS:IRF-MOSFET
LIBS:jumpers
LIBS:Lattice
LIBS:LDR_THT
LIBS:LEDs
LIBS:linear
LIBS:LoadGeneric
LIBS:Logic-MOSFET
LIBS:logo
LIBS:LPC17xx
LIBS:LPC43xx
LIBS:MagneticsProtection
LIBS:maxim
LIBS:memory
LIBS:microchip
LIBS:microchip_dspic33dsc
LIBS:microchip_pic10mcu
LIBS:microchip_pic12mcu
LIBS:microchip_pic16mcu
LIBS:microchip_pic18mcu
LIBS:microchip_pic32mcu
LIBS:microcontrollers
LIBS:motor_drivers
LIBS:motorola
LIBS:msp430
LIBS:nordicsemi
LIBS:NTR-MOSFET
LIBS:nxp_armmcu
LIBS:onsemi
LIBS:opto
LIBS:OptoTransistor
LIBS:OptoTriac
LIBS:Oscillators
LIBS:philips
LIBS:PicoFusePTC
LIBS:Pilas
LIBS:Potenciometro
LIBS:power
LIBS:PowerDistributionSwitch
LIBS:powerint
LIBS:Power_Management
LIBS:pspice
LIBS:Puentes
LIBS:R
LIBS:references
LIBS:RegLinealPositivos
LIBS:regul
LIBS:ReguladorLDO
LIBS:ReguladorSwitcher
LIBS:relays
LIBS:rfcom
LIBS:RMII_Ethernet
LIBS:R_SMD
LIBS:R_ThruHole
LIBS:R_THT
LIBS:SensorCurrent
LIBS:sensors
LIBS:SensorTemperatura
LIBS:ShifterLevel
LIBS:silabs
LIBS:siliconi
LIBS:SourceCurrent
LIBS:StickLPC
LIBS:stm8
LIBS:stm32
LIBS:supertex
LIBS:switches
LIBS:TactSwitch
LIBS:TestPoint
LIBS:texas
LIBS:TrafoReductor
LIBS:TransceiverCAN
LIBS:transf
LIBS:TransistorArrays
LIBS:transistors
LIBS:Triac
LIBS:ttl_ieee
LIBS:valves
LIBS:Varistor
LIBS:video
LIBS:VoltageReference
LIBS:Worldsemi
LIBS:Xicor
LIBS:xilinx
LIBS:xtal
LIBS:Zilog
LIBS:MemoryZock
LIBS:BoardMicro-cache
EELAYER 25 0
EELAYER END
$Descr A4 11693 8268
encoding utf-8
Sheet 5 21
Title "BoardWithStick1300revD"
Date "12-05-2017"
Rev "v1.10b"
Comp "J.E.L"
Comment1 "\\n Luccioni, Jesus Emanuel"
Comment2 ""
Comment3 ""
Comment4 ""
$EndDescr
$Comp
L GND #PWR040
U 1 1 56FF5619
P 10350 4100
F 0 "#PWR040" H 10350 3850 50  0001 C CNN
F 1 "GND" H 10350 3950 50  0000 C CNN
F 2 "" H 10350 4100 50  0000 C CNN
F 3 "" H 10350 4100 50  0000 C CNN
	1    10350 4100
	-1   0    0    -1  
$EndComp
$Comp
L GND #PWR041
U 1 1 56FF563E
P 9200 3550
F 0 "#PWR041" H 9200 3300 50  0001 C CNN
F 1 "GND" H 9200 3400 50  0000 C CNN
F 2 "" H 9200 3550 50  0000 C CNN
F 3 "" H 9200 3550 50  0000 C CNN
	1    9200 3550
	-1   0    0    -1  
$EndComp
$Comp
L FT231XS-U U1
U 1 1 56FDE382
P 4950 3200
AR Path="/56FDE382" Ref="U1"  Part="1" 
AR Path="/56FEA0A3/56FDE382" Ref="U1"  Part="1" 
F 0 "U1" H 5300 4100 70  0000 C CNN
F 1 "FT231XS-U" H 4750 4100 70  0000 C CNN
F 2 "SSOP:SSOP20_4.65x8.66mm-HandSold" H 4950 2300 60  0001 C CNN
F 3 "" H 4950 2900 60  0000 C CNN
	1    4950 3200
	-1   0    0    -1  
$EndComp
$Comp
L MMZ1608B601C FB2
U 1 1 56FE0437
P 9450 2950
F 0 "FB2" V 9200 2950 50  0000 C CNN
F 1 "MMZ1608B601C" V 9350 2950 50  0000 C CNN
F 2 "FerriteBeadSMD:FbSMD_0805_HandSold" V 9250 2950 61  0001 C CNN
F 3 "" H 9450 2950 30  0000 C CNN
	1    9450 2950
	0    -1   1    0   
$EndComp
$Comp
L GND #PWR042
U 1 1 56FE1FB1
P 8250 4100
F 0 "#PWR042" H 8250 3850 50  0001 C CNN
F 1 "GND" H 8250 3950 50  0000 C CNN
F 2 "" H 8250 4100 50  0000 C CNN
F 3 "" H 8250 4100 50  0000 C CNN
	1    8250 4100
	-1   0    0    -1  
$EndComp
$Comp
L 4.7uF_6V3_X5R C21
U 1 1 56FE47CE
P 6200 3300
F 0 "C21" H 5950 3300 50  0000 L CNN
F 1 "4.7uF_6V3_X5R" H 5850 3200 50  0000 C CNN
F 2 "CapacitorCeramicSMD:CcSMD_0805_HandSold" H 6238 3150 61  0001 C CNN
F 3 "" H 6200 3300 60  0000 C CNN
	1    6200 3300
	-1   0    0    -1  
$EndComp
$Comp
L 100nF_25V_X7R C24
U 1 1 56FE5181
P 8250 4000
F 0 "C24" H 8050 4000 50  0000 C CNN
F 1 "100nF_25V_X7R" H 8000 3650 50  0000 C CNN
F 2 "CapacitorCeramicSMD:CcSMD_0805_HandSold" H 7950 3900 61  0001 C CNN
F 3 "" H 8250 4000 60  0000 C CNN
	1    8250 4000
	-1   0    0    -1  
$EndComp
$Comp
L 100nF_25V_X7R C19
U 1 1 56FE640A
P 5900 3300
F 0 "C19" H 5800 3550 50  0000 C CNN
F 1 "100nF_25V_X7R" H 6300 3550 50  0000 C CNN
F 2 "CapacitorCeramicSMD:CcSMD_0805_HandSold" H 5938 3150 61  0001 C CNN
F 3 "" H 5900 3300 60  0000 C CNN
	1    5900 3300
	1    0    0    -1  
$EndComp
$Comp
L 100nF_25V_X7R C20
U 1 1 56FE654E
P 5900 3650
F 0 "C20" H 6100 3650 50  0000 C CNN
F 1 "100nF_25V_X7R" H 6300 3450 50  0000 C CNN
F 2 "CapacitorCeramicSMD:CcSMD_0805_HandSold" H 6700 3750 61  0001 C CNN
F 3 "" H 5900 3650 60  0000 C CNN
	1    5900 3650
	1    0    0    -1  
$EndComp
$Comp
L GND #PWR043
U 1 1 56FE67FC
P 6400 3500
F 0 "#PWR043" H 6400 3250 50  0001 C CNN
F 1 "GND" H 6400 3350 50  0000 C CNN
F 2 "" H 6400 3500 50  0000 C CNN
F 3 "" H 6400 3500 50  0000 C CNN
	1    6400 3500
	1    0    0    -1  
$EndComp
$Comp
L +5V #PWR044
U 1 1 56FE68DA
P 5900 2500
F 0 "#PWR044" H 5900 2350 50  0001 C CNN
F 1 "+5V" H 5900 2650 39  0000 C CNN
F 2 "" H 5900 2500 50  0000 C CNN
F 3 "" H 5900 2500 50  0000 C CNN
	1    5900 2500
	1    0    0    -1  
$EndComp
$Comp
L 33R_125mW_5% R19
U 1 1 56FE6F4D
P 8300 3050
F 0 "R19" V 8400 3400 50  0000 C CNN
F 1 "33R_125mW_5%" V 8400 3000 50  0000 C CNN
F 2 "ResistorChipSMD:RchipSMD_0805_HandSold" V 8500 3050 61  0001 C CNN
F 3 "" H 8300 3050 30  0000 C CNN
	1    8300 3050
	0    1    -1   0   
$EndComp
$Comp
L 33R_125mW_5% R20
U 1 1 56FE7161
P 8300 3150
F 0 "R20" V 8400 3500 50  0000 C CNN
F 1 "33R_125mW_5%" V 8400 3100 50  0000 C CNN
F 2 "ResistorChipSMD:RchipSMD_0805_HandSold" V 8230 3150 61  0001 C CNN
F 3 "" H 8300 3150 30  0000 C CNN
	1    8300 3150
	0    1    1    0   
$EndComp
$Comp
L 47pF_50V_COG C23
U 1 1 56FE7A34
P 9000 3350
F 0 "C23" H 9000 3050 50  0000 C CNN
F 1 "47pF_50V_COG" V 9000 2650 50  0000 C CNN
F 2 "CapacitorCeramicSMD:CcSMD_0603_HandSold" H 8700 3350 61  0001 C CNN
F 3 "" H 9000 3350 60  0000 C CNN
	1    9000 3350
	1    0    0    -1  
$EndComp
$Comp
L 47pF_50V_COG C25
U 1 1 56FE7D29
P 9400 3350
F 0 "C25" H 9400 3050 50  0000 C CNN
F 1 "47pF_50V_COG" V 9400 2650 50  0000 C CNN
F 2 "CapacitorCeramicSMD:CcSMD_0603_HandSold" H 9438 3200 61  0001 C CNN
F 3 "" H 9400 3350 60  0000 C CNN
	1    9400 3350
	1    0    0    -1  
$EndComp
$Comp
L GND #PWR045
U 1 1 56FE8A69
P 4100 3400
F 0 "#PWR045" H 4100 3150 50  0001 C CNN
F 1 "GND" H 4100 3250 50  0000 C CNN
F 2 "" H 4100 3400 50  0000 C CNN
F 3 "" H 4100 3400 50  0000 C CNN
	1    4100 3400
	0    1    1    0   
$EndComp
$Comp
L 15K_125mW_5% R18
U 1 1 56FE8B92
P 7650 4000
F 0 "R18" H 7500 4000 50  0000 C CNN
F 1 "15K_125mW_5%" H 7500 3650 50  0000 C CNN
F 2 "ResistorChipSMD:RchipSMD_0805_HandSold" H 7300 3850 61  0001 C CNN
F 3 "" H 7650 4000 30  0000 C CNN
	1    7650 4000
	-1   0    0    -1  
$EndComp
$Comp
L 10K_125mW_5% R21
U 1 1 56FE8C28
P 7950 3700
F 0 "R21" V 7750 3700 50  0000 C CNN
F 1 "10K_125mW_5%" V 7850 3700 50  0000 C CNN
F 2 "ResistorChipSMD:RchipSMD_0805_HandSold" V 7850 3700 61  0001 C CNN
F 3 "" H 7950 3700 30  0000 C CNN
	1    7950 3700
	0    1    1    0   
$EndComp
$Comp
L 10nF_25V_X7R C22
U 1 1 56FE92EE
P 7250 4000
F 0 "C22" H 6900 4000 50  0000 C CNN
F 1 "10nF_25V_X7R" H 6900 3900 50  0000 C CNN
F 2 "CapacitorCeramicSMD:CcSMD_0805_HandSold" H 6900 3800 61  0001 C CNN
F 3 "" H 7250 4000 60  0000 C CNN
	1    7250 4000
	1    0    0    -1  
$EndComp
$Comp
L GND #PWR046
U 1 1 56FE9445
P 7250 4300
F 0 "#PWR046" H 7250 4050 50  0001 C CNN
F 1 "GND" H 7250 4150 50  0000 C CNN
F 2 "" H 7250 4300 50  0000 C CNN
F 3 "" H 7250 4300 50  0000 C CNN
	1    7250 4300
	-1   0    0    -1  
$EndComp
NoConn ~ 4200 3600
NoConn ~ 4200 3900
NoConn ~ 4200 3200
NoConn ~ 4200 2800
NoConn ~ 4200 2900
Text HLabel 4050 2600 0    60   Input ~ 0
BridgeUSB.RxD
Text HLabel 4050 2500 0    60   Output ~ 0
BridgeUSB.TxD
$Comp
L 470R_125mW_5% R13
U 1 1 57021B82
P 2750 2750
F 0 "R13" H 2900 2750 50  0000 C CNN
F 1 "470R_125mW_5%" H 3150 2650 50  0000 C CNN
F 2 "ResistorChipSMD:RchipSMD_0805_HandSold" H 3000 2650 61  0001 C CNN
F 3 "" H 2750 2750 30  0000 C CNN
	1    2750 2750
	1    0    0    -1  
$EndComp
$Comp
L 470R_125mW_5% R12
U 1 1 57021E13
P 2450 2750
F 0 "R12" H 2600 2750 50  0000 C CNN
F 1 "470R_125mW_5%" H 2850 2600 50  0000 C CNN
F 2 "ResistorChipSMD:RchipSMD_0805_HandSold" H 2700 2650 61  0001 C CNN
F 3 "" H 2450 2750 30  0000 C CNN
	1    2450 2750
	-1   0    0    -1  
$EndComp
$Comp
L +3V3 #PWR047
U 1 1 57021F64
P 2600 2300
F 0 "#PWR047" H 2600 2150 50  0001 C CNN
F 1 "+3V3" H 2600 2450 39  0000 C CNN
F 2 "" H 2600 2300 50  0000 C CNN
F 3 "" H 2600 2300 50  0000 C CNN
	1    2600 2300
	1    0    0    -1  
$EndComp
Text GLabel 8600 2600 0    60   Output ~ 0
+5V_USB_BRIDGE
$Comp
L BLM18KG221SN1B FB3
U 1 1 579EA1CC
P 10350 3900
F 0 "FB3" H 10500 3850 50  0000 C CNN
F 1 "BLM18KG221SN1B" H 10750 3750 50  0000 C CNN
F 2 "FerriteBeadSMD:FbSMD_0603_HandSold" H 10850 3850 50  0001 C CNN
F 3 "" H 10350 3900 30  0000 C CNN
	1    10350 3900
	1    0    0    -1  
$EndComp
$Comp
L GND #PWR048
U 1 1 579EABC8
P 9750 3650
F 0 "#PWR048" H 9750 3400 50  0001 C CNN
F 1 "GND" H 9750 3500 50  0000 C CNN
F 2 "" H 9750 3650 50  0000 C CNN
F 3 "" H 9750 3650 50  0000 C CNN
	1    9750 3650
	-1   0    0    -1  
$EndComp
NoConn ~ 4200 3000
$Comp
L LTST-C191KGKT D11
U 1 1 57E543FA
P 2750 3250
F 0 "D11" H 2900 3400 50  0000 C CNN
F 1 "LTST-C191KGKT" H 3150 3300 50  0000 C CNN
F 2 "LedSMD:LED_0805-HandSold" H 3050 3100 50  0001 C CNN
F 3 "" H 2950 3250 60  0001 C CNN
F 4 "GREEN" H 2950 3200 50  0000 C CNN "Colour"
	1    2750 3250
	1    0    0    -1  
$EndComp
$Comp
L LTST-C191KGKT D8
U 1 1 57E5489F
P 2450 3250
F 0 "D8" H 2600 3400 50  0000 C CNN
F 1 "LTST-C191KGKT" H 2850 3300 50  0000 C CNN
F 2 "LedSMD:LED_0805-HandSold" H 2750 3100 50  0001 C CNN
F 3 "" H 2650 3250 60  0001 C CNN
F 4 "GREEN" H 2650 3200 50  0000 C CNN "Colour"
	1    2450 3250
	-1   0    0    -1  
$EndComp
$Comp
L PWR_FLAG #FLG049
U 1 1 581A4803
P 8800 2400
F 0 "#FLG049" H 8800 2495 50  0001 C CNN
F 1 "PWR_FLAG" H 8800 2580 50  0000 C CNN
F 2 "" H 8800 2400 50  0000 C CNN
F 3 "" H 8800 2400 50  0000 C CNN
	1    8800 2400
	1    0    0    -1  
$EndComp
$Comp
L MiniUSB CN3
U 1 1 58FB87A5
P 10250 3150
F 0 "CN3" H 9750 3150 60  0000 C CNN
F 1 "MiniUSB" V 9950 3150 60  0000 C CNN
F 2 "Conectores:CN_USB-Mini-B-HandSold" H 11915 3360 60  0001 C CNN
F 3 "" H 11915 3360 60  0001 C CNN
F 4 "Name" V 9850 3150 60  0001 C CNN "Name"
	1    10250 3150
	-1   0    0    -1  
$EndComp
NoConn ~ 9900 3250
NoConn ~ 4200 2700
NoConn ~ 4200 3100
Text Notes 4550 1700 0    62   ~ 0
For Update FT230
Text Notes 1850 7250 0    60   ~ 0
Configuraciones por defecto, memoria interna del dispositivo.\nLas configuraciones del Bus CBUS[0..3]\nPor defecto del Bridge FT231\nson :\n # CBUS.0 : TXDEN, P/RS485 (Enable)\n # CBUS.1 : nRXLED, Led con Pull-Up\n # CBUS.2 : nTXLED, Led con Pull-Up\n # CBUS.3 : nSLEEP, con un '0' indica dicho estado p/el dispositivo
Text Notes 1900 6350 0    60   ~ 0
@ note :  pag 33 data sheet
Wire Wire Line
	8250 3700 8250 3900
Wire Wire Line
	9900 2950 9650 2950
Wire Wire Line
	7450 3050 8100 3050
Wire Wire Line
	7350 3150 8100 3150
Wire Wire Line
	8500 3050 9900 3050
Wire Wire Line
	8500 3150 9900 3150
Wire Wire Line
	5700 2900 7250 2900
Wire Wire Line
	5900 2500 5900 3200
Wire Wire Line
	5700 3500 6400 3500
Wire Wire Line
	5900 3400 5900 3550
Connection ~ 5900 3500
Wire Wire Line
	5900 3900 5700 3900
Wire Wire Line
	5900 3750 5900 3900
Wire Wire Line
	5700 3800 5900 3800
Connection ~ 5900 3800
Wire Wire Line
	6200 3500 6200 3400
Wire Wire Line
	6200 3100 6200 3200
Connection ~ 5900 3100
Connection ~ 6200 3500
Wire Wire Line
	4200 3400 4100 3400
Wire Wire Line
	7650 4200 7650 4250
Wire Wire Line
	7650 4250 7250 4250
Connection ~ 7250 4250
Wire Wire Line
	7250 2900 7250 3900
Wire Wire Line
	7250 4100 7250 4300
Wire Wire Line
	2750 3700 2750 3450
Wire Wire Line
	2450 3450 2450 3800
Wire Wire Line
	2450 3050 2450 2950
Wire Wire Line
	2750 3050 2750 2950
Wire Wire Line
	2450 2400 2450 2550
Wire Wire Line
	2750 2400 2750 2550
Wire Wire Line
	2600 2300 2600 2400
Wire Wire Line
	7650 3800 7650 3700
Wire Wire Line
	2750 3700 4200 3700
Wire Wire Line
	9750 3350 9750 3650
Wire Wire Line
	5700 2600 7350 2600
Wire Wire Line
	5700 2700 7450 2700
Wire Wire Line
	7450 2700 7450 3050
Wire Wire Line
	7350 2600 7350 3150
Wire Wire Line
	4200 2500 4050 2500
Wire Wire Line
	4050 2600 4200 2600
Wire Wire Line
	2450 3800 4200 3800
Wire Wire Line
	2450 2400 2750 2400
Connection ~ 2600 2400
Wire Wire Line
	9900 3350 9750 3350
Wire Wire Line
	9000 3450 9000 3500
Wire Wire Line
	9000 3500 9400 3500
Wire Wire Line
	9200 3500 9200 3550
Wire Wire Line
	9400 3500 9400 3450
Connection ~ 9200 3500
Wire Wire Line
	9000 3250 9000 3050
Connection ~ 9000 3050
Wire Wire Line
	9400 3250 9400 3150
Connection ~ 9400 3150
Wire Wire Line
	5700 3100 6200 3100
Wire Wire Line
	7250 3700 7750 3700
Connection ~ 7650 3700
Connection ~ 7250 3700
Wire Wire Line
	8800 2950 9250 2950
Wire Wire Line
	8800 3700 8800 2400
Wire Wire Line
	8150 3700 8800 3700
Connection ~ 8250 3700
Connection ~ 8800 2950
Wire Wire Line
	8600 2600 8800 2600
Connection ~ 8800 2600
Wire Wire Line
	10350 2700 10350 2600
Wire Wire Line
	10350 2600 10600 2600
Wire Wire Line
	10600 2600 10600 3650
Wire Wire Line
	10600 3650 10350 3650
Wire Wire Line
	10350 3600 10350 3700
Connection ~ 10350 3650
Wire Notes Line
	1800 6200 1800 7400
Wire Notes Line
	1800 7400 5200 7400
Wire Notes Line
	5200 7400 5200 6200
Wire Notes Line
	5200 6200 1800 6200
Wire Notes Line
	1800 6400 5200 6400
Wire Notes Line
	4950 1750 4950 2150
Wire Notes Line
	4900 1800 4950 1750
Wire Notes Line
	4950 1750 5000 1800
Wire Notes Line
	4500 1650 4500 1750
Wire Notes Line
	4500 1750 5400 1750
Wire Notes Line
	5400 1750 5400 1650
Wire Notes Line
	4150 2150 4150 4050
Wire Notes Line
	4150 4050 5750 4050
Wire Notes Line
	5750 4050 5750 2150
Wire Notes Line
	5750 2150 4150 2150
$EndSCHEMATC
