EESchema Schematic File Version 2
LIBS:74LVT
LIBS:74xgxx
LIBS:74xx
LIBS:ac-dc
LIBS:actel
LIBS:adc-dac
LIBS:ADC-DeltaSigma
LIBS:ADC-SAR
LIBS:Altera
LIBS:analog_devices
LIBS:AnalogMuxDemux
LIBS:analog_switches
LIBS:AopAudio
LIBS:AopComparador
LIBS:AopPrecision
LIBS:AopRailToRailPG
LIBS:atmel
LIBS:audio
LIBS:battery_management
LIBS:bbd
LIBS:BJT-GeneralPurpose 
LIBS:BOR-SIL
LIBS:BridgeUSB
LIBS:brooktre
LIBS:CapAluminioSMD
LIBS:CapCeramicoHVC
LIBS:CapCeramicos
LIBS:CapCer_THT
LIBS:CapElectroliticos
LIBS:CapPoly_THT
LIBS:CapTantalio
LIBS:Ccer_SMD
LIBS:cmos4000
LIBS:cmos_ieee
LIBS:CommonModeChoke 
LIBS:CompuertasLogicas
LIBS:CON-DIL_F
LIBS:CON-DIL_M
LIBS:Conectores
LIBS:ConectoresDB
LIBS:conn
LIBS:CON-SIL_F
LIBS:CON-SIL_M
LIBS:contrib
LIBS:CON-USB
LIBS:Cristal
LIBS:cypress
LIBS:dc-dc
LIBS:device
LIBS:digital-audio
LIBS:diode
LIBS:DiodoPequeñaSeñal
LIBS:DiodoRectificador
LIBS:DiodoSchottkyRect
LIBS:DiodosSupresorTransitorios
LIBS:DiodosZener
LIBS:display
LIBS:dsp
LIBS:EEpromSerie
LIBS:EIA232
LIBS:EIA485
LIBS:elec-unifil
LIBS:ESD_Protection
LIBS: EsdProtectionDiode
LIBS:FerriteBead
LIBS:FotoDiodos
LIBS:ftdi
LIBS:Fusibles
LIBS:gennum
LIBS:graphic
LIBS:hc11
LIBS:Inductor
LIBS:intel
LIBS:interface
LIBS:ir
LIBS:IRF-MOSFET
LIBS:jumpers
LIBS:Lattice
LIBS:LDR_THT
LIBS:LEDs
LIBS:linear
LIBS:LoadGeneric
LIBS:Logic-MOSFET
LIBS:logo
LIBS:LPC17xx
LIBS:LPC43xx
LIBS:MagneticsProtection
LIBS:maxim
LIBS:memory
LIBS:microchip
LIBS:microchip_dspic33dsc
LIBS:microchip_pic10mcu
LIBS:microchip_pic12mcu
LIBS:microchip_pic16mcu
LIBS:microchip_pic18mcu
LIBS:microchip_pic32mcu
LIBS:microcontrollers
LIBS:motor_drivers
LIBS:motorola
LIBS:msp430
LIBS:nordicsemi
LIBS:NTR-MOSFET
LIBS:nxp_armmcu
LIBS:onsemi
LIBS:opto
LIBS:OptoTransistor
LIBS:OptoTriac
LIBS:Oscillators
LIBS:philips
LIBS:PicoFusePTC
LIBS:Pilas
LIBS:Potenciometro
LIBS:power
LIBS:PowerDistributionSwitch
LIBS:powerint
LIBS:Power_Management
LIBS:pspice
LIBS:Puentes
LIBS:R
LIBS:references
LIBS:RegLinealPositivos
LIBS:regul
LIBS:ReguladorLDO
LIBS:ReguladorSwitcher
LIBS:relays
LIBS:rfcom
LIBS:RMII_Ethernet
LIBS:R_SMD
LIBS:R_ThruHole
LIBS:R_THT
LIBS:SensorCurrent
LIBS:sensors
LIBS:SensorTemperatura
LIBS:ShifterLevel
LIBS:silabs
LIBS:siliconi
LIBS:SourceCurrent
LIBS:StickLPC
LIBS:stm8
LIBS:stm32
LIBS:supertex
LIBS:switches
LIBS:TactSwitch
LIBS:TestPoint
LIBS:texas
LIBS:TrafoReductor
LIBS:TransceiverCAN
LIBS:transf
LIBS:TransistorArrays
LIBS:transistors
LIBS:Triac
LIBS:ttl_ieee
LIBS:valves
LIBS:Varistor
LIBS:video
LIBS:VoltageReference
LIBS:Worldsemi
LIBS:Xicor
LIBS:xilinx
LIBS:xtal
LIBS:Zilog
LIBS:MemoryZock
LIBS:BoardMicro-cache
EELAYER 25 0
EELAYER END
$Descr A4 11693 8268
encoding utf-8
Sheet 10 21
Title "BoardWithStick1300revD"
Date "12-05-2017"
Rev "v1.10b"
Comp "J.E.L"
Comment1 "\\n Luccioni, Jesus Emanuel"
Comment2 ""
Comment3 ""
Comment4 ""
$EndDescr
Text HLabel 8700 3100 2    60   Output ~ 0
SenseCurrent
$Comp
L 1nF_25V_X7R C42
U 1 1 5903F389
P 4950 2850
F 0 "C42" H 4700 2850 50  0000 C CNN
F 1 "1nF_25V_X7R" H 4650 2750 50  0000 C CNN
F 2 "CapacitorCeramicSMD:CcSMD_0805_HandSold" H 5200 2700 50  0001 C CNN
F 3 "" H 4950 2850 60  0000 C CNN
	1    4950 2850
	-1   0    0    -1  
$EndComp
$Comp
L GNDA #PWR094
U 1 1 5903F3C6
P 4950 3100
F 0 "#PWR094" H 4950 2850 50  0001 C CNN
F 1 "GNDA" H 4950 2950 50  0000 C CNN
F 2 "" H 4950 3100 50  0000 C CNN
F 3 "" H 4950 3100 50  0000 C CNN
	1    4950 3100
	1    0    0    -1  
$EndComp
Text HLabel 3500 2250 0    60   Input ~ 0
CurrentIp+
$Comp
L 10K_125mW_1% R42
U 1 1 590431F3
P 6150 2300
F 0 "R42" V 5950 2300 50  0000 C CNN
F 1 "10K_125mW_1%" V 6050 2300 50  0000 C CNN
F 2 "ResistorChipSMD:RchipSMD_0805_HandSold" H 6400 2200 50  0001 C CNN
F 3 "" H 6300 2400 30  0000 C CNN
	1    6150 2300
	0    1    1    0   
$EndComp
$Comp
L 33.2K_125mW_1% R43
U 1 1 5904334A
P 6550 2650
F 0 "R43" H 6700 2750 50  0000 C CNN
F 1 "33.2K_125mW_1%" H 7000 2650 50  0000 C CNN
F 2 "ResistorChipSMD:RchipSMD_0805_HandSold" H 6800 2550 50  0001 C CNN
F 3 "" H 6700 2750 30  0000 C CNN
	1    6550 2650
	1    0    0    -1  
$EndComp
$Comp
L GNDA #PWR095
U 1 1 59043507
P 6550 2850
F 0 "#PWR095" H 6550 2600 50  0001 C CNN
F 1 "GNDA" H 6550 2700 50  0000 C CNN
F 2 "" H 6550 2850 50  0000 C CNN
F 3 "" H 6550 2850 50  0000 C CNN
	1    6550 2850
	1    0    0    -1  
$EndComp
$Comp
L LM2904 U?
U 2 1 59043EA0
P 6800 4300
AR Path="/579D78DC/59043EA0" Ref="U?"  Part="2" 
AR Path="/579D78DC/5903F0B9/59043EA0" Ref="U4"  Part="2" 
F 0 "U4" H 6800 4550 60  0000 C CNN
F 1 "LM2904" H 6800 4050 60  0000 C CNN
F 2 "SOIC:SOIC8_3.9x4.9mm_HandSold" H 6800 4300 60  0001 C CNN
F 3 "" H 6800 4300 60  0000 C CNN
	2    6800 4300
	1    0    0    1   
$EndComp
$Comp
L 33.2K_125mW_1% R45
U 1 1 59043F1E
P 8000 3500
F 0 "R45" V 8000 4050 50  0000 C CNN
F 1 "33.2K_125mW_1%" V 8000 4600 50  0000 C CNN
F 2 "ResistorChipSMD:RchipSMD_0805_HandSold" H 8250 3400 50  0001 C CNN
F 3 "" H 8150 3600 30  0000 C CNN
	1    8000 3500
	0    1    1    0   
$EndComp
$Comp
L 10pF_50V_COG C44
U 1 1 5904401C
P 8000 3650
F 0 "C44" V 8000 4200 50  0000 C CNN
F 1 "10pF_50V_COG" V 8000 4700 50  0000 C CNN
F 2 "CapacitorCeramicSMD:CcSMD_0603_HandSold" H 8250 3500 50  0001 C CNN
F 3 "" H 8000 3650 60  0000 C CNN
	1    8000 3650
	0    1    1    0   
$EndComp
$Comp
L 10K_125mW_1% R44
U 1 1 59044271
P 7450 3950
F 0 "R44" H 7600 3950 50  0000 C CNN
F 1 "10K_125mW_1%" H 7850 4050 50  0000 C CNN
F 2 "ResistorChipSMD:RchipSMD_0805_HandSold" H 7700 3850 50  0001 C CNN
F 3 "" H 7600 4050 30  0000 C CNN
	1    7450 3950
	1    0    0    1   
$EndComp
$Comp
L 100nF_25V_X7R C46
U 1 1 59046FBA
P 9900 5450
F 0 "C46" H 9900 4850 50  0000 C CNN
F 1 "100nF_25V_X7R" H 9900 4750 50  0000 C CNN
F 2 "CapacitorCeramicSMD:CcSMD_0805_HandSold" H 9600 5450 50  0001 C CNN
F 3 "" H 9900 5450 60  0000 C CNN
	1    9900 5450
	1    0    0    1   
$EndComp
$Comp
L LM2904 U?
U 3 1 59046FC1
P 10300 5450
AR Path="/579D78DC/57A98E98/59046FC1" Ref="U?"  Part="3" 
AR Path="/579D78DC/5903F0B9/59046FC1" Ref="U4"  Part="3" 
F 0 "U4" H 10600 5450 60  0000 C CNN
F 1 "LM2904" H 10700 5350 60  0000 C CNN
F 2 "SOIC:SOIC8_3.9x4.9mm_HandSold" H 10650 5250 60  0001 C CNN
F 3 "" H 10300 5450 60  0000 C CNN
	3    10300 5450
	1    0    0    -1  
$EndComp
$Comp
L GNDA #PWR096
U 1 1 59046FC8
P 10300 5850
F 0 "#PWR096" H 10300 5600 50  0001 C CNN
F 1 "GNDA" H 10300 5700 50  0000 C CNN
F 2 "" H 10300 5850 50  0000 C CNN
F 3 "" H 10300 5850 50  0000 C CNN
	1    10300 5850
	1    0    0    -1  
$EndComp
$Comp
L +5VA #PWR097
U 1 1 59046FCE
P 10300 5000
F 0 "#PWR097" H 10300 4850 50  0001 C CNN
F 1 "+5VA" H 10300 5140 50  0000 C CNN
F 2 "" H 10300 5000 50  0000 C CNN
F 3 "" H 10300 5000 50  0000 C CNN
	1    10300 5000
	1    0    0    -1  
$EndComp
$Comp
L LM2904 U?
U 1 1 5904DA21
P 8000 3100
AR Path="/579D78DC/5904DA21" Ref="U?"  Part="2" 
AR Path="/579D78DC/5903F0B9/5904DA21" Ref="U4"  Part="1" 
F 0 "U4" H 8000 3487 60  0000 C CNN
F 1 "LM2904" H 8000 3381 60  0000 C CNN
F 2 "SOIC:SOIC8_3.9x4.9mm_HandSold" H 8000 3100 60  0001 C CNN
F 3 "" H 8000 3100 60  0000 C CNN
	1    8000 3100
	1    0    0    -1  
$EndComp
$Comp
L 10K RV1
U 1 1 5904EB22
P 6100 4400
F 0 "RV1" H 5925 4450 50  0000 C CNN
F 1 "10K" H 5925 4325 50  0000 C CNN
F 2 "Trimpot:RV_Bourns3296W" H 6100 4100 50  0001 C CNN
F 3 "" H 5550 4700 60  0000 C CNN
	1    6100 4400
	1    0    0    -1  
$EndComp
$Comp
L 1K_125mW_5% R40
U 1 1 5904EC87
P 5700 3800
F 0 "R40" H 5400 3950 50  0000 C CNN
F 1 "1K_125mW_5%" H 5350 3800 50  0000 C CNN
F 2 "ResistorChipSMD:RchipSMD_0805_HandSold" H 5700 3550 50  0001 C CNN
F 3 "" H 5700 3800 30  0000 C CNN
	1    5700 3800
	1    0    0    -1  
$EndComp
$Comp
L GNDA #PWR098
U 1 1 5904EE89
P 6100 4750
F 0 "#PWR098" H 6100 4500 50  0001 C CNN
F 1 "GNDA" H 6100 4600 50  0000 C CNN
F 2 "" H 6100 4750 50  0000 C CNN
F 3 "" H 6100 4750 50  0000 C CNN
	1    6100 4750
	1    0    0    -1  
$EndComp
Wire Wire Line
	4950 2750 4950 2600
Wire Wire Line
	4950 2950 4950 3100
Wire Wire Line
	6350 2300 7450 2300
Wire Wire Line
	6550 2450 6550 2300
Connection ~ 6550 2300
Wire Wire Line
	7450 3200 7450 3750
Wire Wire Line
	7450 3200 7600 3200
Wire Wire Line
	7450 3500 7800 3500
Connection ~ 7450 3500
Wire Wire Line
	7900 3650 7700 3650
Wire Wire Line
	7700 3650 7700 3500
Connection ~ 7700 3500
Wire Wire Line
	8400 3100 8700 3100
Wire Wire Line
	8200 3500 8450 3500
Wire Wire Line
	8450 3500 8450 3100
Connection ~ 8450 3100
Wire Wire Line
	8100 3650 8300 3650
Wire Wire Line
	8300 3650 8300 3500
Connection ~ 8300 3500
Wire Wire Line
	10300 5750 10300 5850
Wire Wire Line
	9900 5550 9900 5800
Wire Wire Line
	9650 5800 10300 5800
Connection ~ 10300 5800
Wire Wire Line
	10300 5000 10300 5150
Wire Wire Line
	9900 5350 9900 5100
Wire Wire Line
	9650 5100 10300 5100
Connection ~ 10300 5100
Wire Wire Line
	9650 5350 9650 5100
Connection ~ 9900 5100
Wire Wire Line
	9650 5550 9650 5800
Connection ~ 9900 5800
Wire Wire Line
	7200 4300 7450 4300
Wire Wire Line
	7450 4300 7450 4150
Wire Wire Line
	6400 4200 6350 4200
Wire Wire Line
	6350 4200 6350 3900
Wire Wire Line
	7250 3900 7250 4300
Connection ~ 7250 4300
Wire Wire Line
	6100 4050 6100 4150
Wire Wire Line
	5700 4050 6100 4050
Wire Wire Line
	5700 4000 5700 4200
Connection ~ 5700 4050
Wire Wire Line
	6100 4650 6100 4750
Wire Wire Line
	6250 4400 6400 4400
Wire Wire Line
	5700 4600 5700 4700
Wire Wire Line
	5700 4700 6100 4700
Connection ~ 6100 4700
$Comp
L +5VA #PWR099
U 1 1 5904F995
P 5700 3550
F 0 "#PWR099" H 5700 3400 50  0001 C CNN
F 1 "+5VA" H 5700 3690 50  0000 C CNN
F 2 "" H 5700 3550 50  0000 C CNN
F 3 "" H 5700 3550 50  0000 C CNN
	1    5700 3550
	1    0    0    -1  
$EndComp
$Comp
L 10uF_10V_T491 C45
U 1 1 590A623D
P 9650 5450
F 0 "C45" H 10050 5550 50  0000 C CNN
F 1 "10uF_10V_T491" H 10100 5450 50  0000 C CNN
F 2 "CapacitorTantalumSMD:CtanlumSMD_Case-A_Hand" H 10050 5350 50  0001 C CNN
F 3 "" H 9850 5550 60  0000 C CNN
	1    9650 5450
	-1   0    0    -1  
$EndComp
Wire Wire Line
	5700 3550 5700 3600
Wire Wire Line
	7450 2300 7450 3000
Wire Wire Line
	7450 3000 7600 3000
$Comp
L ACS712ELCTR-20A-T U3
U 1 1 590AAF20
P 4300 2450
AR Path="/590AAF20" Ref="U3"  Part="1" 
AR Path="/579D78DC/5903F0B9/590AAF20" Ref="U3"  Part="1" 
F 0 "U3" H 4050 2900 50  0000 C CNN
F 1 "ACS712ELCTR-20A-T" H 3800 2050 50  0000 C CNB
F 2 "SOIC:SOIC8_3.9x4.9mm_HandSold" H 4300 1850 50  0001 C CIN
F 3 "" H 4250 2550 60  0000 C CNN
	1    4300 2450
	1    0    0    -1  
$EndComp
$Comp
L 100nF_25V_X7R C8
U 1 1 590AC05A
P 4750 1850
F 0 "C8" H 4750 1450 50  0000 C CNN
F 1 "100nF_25V_X7R" H 4750 1550 50  0000 C CNN
F 2 "CapacitorCeramicSMD:CcSMD_0805_HandSold" H 4450 1850 50  0001 C CNN
F 3 "" H 4750 1850 60  0000 C CNN
	1    4750 1850
	1    0    0    1   
$EndComp
$Comp
L 10uF_10V_T491 C43
U 1 1 590AC068
P 5000 1850
F 0 "C43" H 5400 1950 50  0000 C CNN
F 1 "10uF_10V_T491" H 5450 1850 50  0000 C CNN
F 2 "CapacitorTantalumSMD:CtanlumSMD_Case-A_Hand" H 5400 1750 50  0001 C CNN
F 3 "" H 5200 1950 60  0000 C CNN
	1    5000 1850
	1    0    0    -1  
$EndComp
$Comp
L +5VA #PWR0100
U 1 1 590AC12B
P 4300 1600
F 0 "#PWR0100" H 4300 1450 50  0001 C CNN
F 1 "+5VA" H 4300 1740 50  0000 C CNN
F 2 "" H 4300 1600 50  0000 C CNN
F 3 "" H 4300 1600 50  0000 C CNN
	1    4300 1600
	1    0    0    -1  
$EndComp
$Comp
L GNDA #PWR0101
U 1 1 590AC3EA
P 5000 1950
F 0 "#PWR0101" H 5000 1700 50  0001 C CNN
F 1 "GNDA" H 5000 1800 50  0000 C CNN
F 2 "" H 5000 1950 50  0000 C CNN
F 3 "" H 5000 1950 50  0000 C CNN
	1    5000 1950
	1    0    0    -1  
$EndComp
$Comp
L GNDA #PWR0102
U 1 1 590AC45E
P 4750 1950
F 0 "#PWR0102" H 4750 1700 50  0001 C CNN
F 1 "GNDA" H 4750 1800 50  0000 C CNN
F 2 "" H 4750 1950 50  0000 C CNN
F 3 "" H 4750 1950 50  0000 C CNN
	1    4750 1950
	1    0    0    -1  
$EndComp
Wire Wire Line
	4300 1600 4300 1900
Wire Wire Line
	5000 1650 5000 1750
Wire Wire Line
	4300 1650 5000 1650
Connection ~ 4300 1650
Wire Wire Line
	4750 1750 4750 1650
Connection ~ 4750 1650
Wire Wire Line
	4750 2300 5950 2300
Wire Wire Line
	4950 2600 4750 2600
$Comp
L GNDA #PWR0103
U 1 1 590AC8F2
P 4300 3000
F 0 "#PWR0103" H 4300 2750 50  0001 C CNN
F 1 "GNDA" H 4300 2850 50  0000 C CNN
F 2 "" H 4300 3000 50  0000 C CNN
F 3 "" H 4300 3000 50  0000 C CNN
	1    4300 3000
	1    0    0    -1  
$EndComp
Text HLabel 3500 2650 0    60   Output ~ 0
CurrentIp-
Wire Wire Line
	3500 2650 3850 2650
Wire Wire Line
	3500 2250 3850 2250
Wire Wire Line
	3850 2350 3750 2350
Wire Wire Line
	3750 2350 3750 2250
Connection ~ 3750 2250
Wire Wire Line
	3850 2550 3750 2550
Wire Wire Line
	3750 2550 3750 2650
Connection ~ 3750 2650
Wire Wire Line
	6350 3900 7250 3900
$Comp
L BZT52C2V7 D21
U 1 1 59C311A9
P 5700 4400
F 0 "D21" H 5900 4450 50  0000 C CNN
F 1 "BZT52C2V7" H 6050 4350 50  0000 C CNN
F 2 "DiodosSMD:SOD123-HandSold" H 5950 4250 50  0001 C CNN
F 3 "" V 5700 4400 60  0000 C CNN
	1    5700 4400
	-1   0    0    -1  
$EndComp
$EndSCHEMATC
