EESchema Schematic File Version 2
LIBS:74LVT
LIBS:74xgxx
LIBS:74xx
LIBS:ac-dc
LIBS:actel
LIBS:adc-dac
LIBS:ADC-DeltaSigma
LIBS:ADC-SAR
LIBS:Altera
LIBS:analog_devices
LIBS:AnalogMuxDemux
LIBS:analog_switches
LIBS:AopAudio
LIBS:AopComparador
LIBS:AopPrecision
LIBS:AopRailToRailPG
LIBS:atmel
LIBS:audio
LIBS:battery_management
LIBS:bbd
LIBS:BJT-GeneralPurpose 
LIBS:BOR-SIL
LIBS:BridgeUSB
LIBS:brooktre
LIBS:CapAluminioSMD
LIBS:CapCeramicoHVC
LIBS:CapCeramicos
LIBS:CapCer_THT
LIBS:CapElectroliticos
LIBS:CapPoly_THT
LIBS:CapTantalio
LIBS:Ccer_SMD
LIBS:cmos4000
LIBS:cmos_ieee
LIBS:CommonModeChoke 
LIBS:CompuertasLogicas
LIBS:CON-DIL_F
LIBS:CON-DIL_M
LIBS:Conectores
LIBS:ConectoresDB
LIBS:conn
LIBS:CON-SIL_F
LIBS:CON-SIL_M
LIBS:contrib
LIBS:CON-USB
LIBS:Cristal
LIBS:cypress
LIBS:dc-dc
LIBS:device
LIBS:digital-audio
LIBS:diode
LIBS:DiodoPequeñaSeñal
LIBS:DiodoRectificador
LIBS:DiodoSchottkyRect
LIBS:DiodosSupresorTransitorios
LIBS:DiodosZener
LIBS:display
LIBS:dsp
LIBS:EEpromSerie
LIBS:EIA232
LIBS:EIA485
LIBS:elec-unifil
LIBS:ESD_Protection
LIBS: EsdProtectionDiode
LIBS:FerriteBead
LIBS:FotoDiodos
LIBS:ftdi
LIBS:Fusibles
LIBS:gennum
LIBS:graphic
LIBS:hc11
LIBS:Inductor
LIBS:intel
LIBS:interface
LIBS:ir
LIBS:IRF-MOSFET
LIBS:jumpers
LIBS:Lattice
LIBS:LDR_THT
LIBS:LEDs
LIBS:linear
LIBS:LoadGeneric
LIBS:Logic-MOSFET
LIBS:logo
LIBS:LPC17xx
LIBS:LPC43xx
LIBS:MagneticsProtection
LIBS:maxim
LIBS:memory
LIBS:microchip
LIBS:microchip_dspic33dsc
LIBS:microchip_pic10mcu
LIBS:microchip_pic12mcu
LIBS:microchip_pic16mcu
LIBS:microchip_pic18mcu
LIBS:microchip_pic32mcu
LIBS:microcontrollers
LIBS:motor_drivers
LIBS:motorola
LIBS:msp430
LIBS:nordicsemi
LIBS:NTR-MOSFET
LIBS:nxp_armmcu
LIBS:onsemi
LIBS:opto
LIBS:OptoTransistor
LIBS:OptoTriac
LIBS:Oscillators
LIBS:philips
LIBS:PicoFusePTC
LIBS:Pilas
LIBS:Potenciometro
LIBS:power
LIBS:PowerDistributionSwitch
LIBS:powerint
LIBS:Power_Management
LIBS:pspice
LIBS:Puentes
LIBS:R
LIBS:references
LIBS:RegLinealPositivos
LIBS:regul
LIBS:ReguladorLDO
LIBS:ReguladorSwitcher
LIBS:relays
LIBS:rfcom
LIBS:RMII_Ethernet
LIBS:R_SMD
LIBS:R_ThruHole
LIBS:R_THT
LIBS:SensorCurrent
LIBS:sensors
LIBS:SensorTemperatura
LIBS:ShifterLevel
LIBS:silabs
LIBS:siliconi
LIBS:SourceCurrent
LIBS:StickLPC
LIBS:stm8
LIBS:stm32
LIBS:supertex
LIBS:switches
LIBS:TactSwitch
LIBS:TestPoint
LIBS:texas
LIBS:TrafoReductor
LIBS:TransceiverCAN
LIBS:transf
LIBS:TransistorArrays
LIBS:transistors
LIBS:Triac
LIBS:ttl_ieee
LIBS:valves
LIBS:Varistor
LIBS:video
LIBS:VoltageReference
LIBS:Worldsemi
LIBS:Xicor
LIBS:xilinx
LIBS:xtal
LIBS:Zilog
LIBS:MemoryZock
LIBS:BoardMicro-cache
EELAYER 25 0
EELAYER END
$Descr A4 11693 8268
encoding utf-8
Sheet 3 21
Title "BoardWithStick1300revD"
Date "12-05-2017"
Rev "v1.10b"
Comp "J.E.L"
Comment1 "\\n Luccioni, Jesus Emanuel"
Comment2 ""
Comment3 ""
Comment4 ""
$EndDescr
$Comp
L +3V3 #PWR01
U 1 1 578A24DF
P 9400 5550
F 0 "#PWR01" H 9400 5400 50  0001 C CNN
F 1 "+3V3" H 9400 5700 39  0000 C CNN
F 2 "" H 9400 5550 50  0000 C CNN
F 3 "" H 9400 5550 50  0000 C CNN
	1    9400 5550
	1    0    0    -1  
$EndComp
Text Notes 4600 7400 0    60   ~ 0
1N4001 <=> S1A\n1N5819 <=> MBRS140/MBRM140/RB160L\n1N5822 <=> MBRS340/MBR340/CDBC340\n
$Comp
L GND #PWR02
U 1 1 578A24DA
P 6100 4600
F 0 "#PWR02" H 6100 4350 50  0001 C CNN
F 1 "GND" H 6100 4450 50  0000 C CNN
F 2 "" H 6100 4600 50  0000 C CNN
F 3 "" H 6100 4600 50  0000 C CNN
	1    6100 4600
	1    0    0    -1  
$EndComp
$Comp
L +3V3 #PWR03
U 1 1 56FA959C
P 8350 3950
F 0 "#PWR03" H 8350 3800 50  0001 C CNN
F 1 "+3V3" H 8350 4100 39  0000 C CNN
F 2 "" H 8350 3950 50  0000 C CNN
F 3 "" H 8350 3950 50  0000 C CNN
	1    8350 3950
	1    0    0    -1  
$EndComp
$Comp
L GND #PWR04
U 1 1 578A24E6
P 2750 2300
F 0 "#PWR04" H 2750 2050 50  0001 C CNN
F 1 "GND" H 2750 2150 50  0000 C CNN
F 2 "" H 2750 2300 50  0000 C CNN
F 3 "" H 2750 2300 50  0000 C CNN
	1    2750 2300
	1    0    0    -1  
$EndComp
Text Notes 2200 1750 2    59   ~ 12
VacExt: 10 - 20 [Vac]/500[mA]
$Comp
L 100nF_25V_X7R C4
U 1 1 56FF0218
P 5300 4400
F 0 "C4" H 5300 4800 50  0000 C CNN
F 1 "100nF_25V_X7R" V 5300 5250 50  0000 C CNN
F 2 "CapacitorCeramicSMD:CcSMD_0805_HandSold" H 5338 4250 61  0001 C CNN
F 3 "" H 5300 4400 60  0000 C CNN
	1    5300 4400
	1    0    0    -1  
$EndComp
$Comp
L 1uF_25V_X7R C5
U 1 1 572B5A93
P 6950 4400
F 0 "C5" H 6900 4800 50  0000 L CNN
F 1 "1uF_25V_X7R" V 6950 4950 50  0000 L CNN
F 2 "CapacitorCeramicSMD:CcSMD_0805_HandSold" H 7250 4250 50  0001 C CNN
F 3 "" H 6950 4400 60  0000 C CNN
	1    6950 4400
	1    0    0    -1  
$EndComp
$Comp
L GND #PWR05
U 1 1 572B7748
P 6950 4600
F 0 "#PWR05" H 6950 4350 50  0001 C CNN
F 1 "GND" H 6950 4450 50  0000 C CNN
F 2 "" H 6950 4600 50  0000 C CNN
F 3 "" H 6950 4600 50  0000 C CNN
	1    6950 4600
	1    0    0    -1  
$EndComp
$Comp
L 470R_125mW_5% R3
U 1 1 578A24FD
P 5450 5800
F 0 "R3" H 5600 5850 50  0000 L CNN
F 1 "470R_125mW_5%" H 5506 5755 50  0000 L CNN
F 2 "ResistorChipSMD:RchipSMD_0805_HandSold" H 5700 5650 50  0001 C CNN
F 3 "" H 5450 5800 30  0000 C CNN
	1    5450 5800
	1    0    0    -1  
$EndComp
$Comp
L +3V3 #PWR06
U 1 1 578A24FE
P 5450 5500
F 0 "#PWR06" H 5450 5350 50  0001 C CNN
F 1 "+3V3" H 5450 5650 39  0000 C CNN
F 2 "" H 5450 5500 50  0000 C CNN
F 3 "" H 5450 5500 50  0000 C CNN
	1    5450 5500
	1    0    0    -1  
$EndComp
$Comp
L GND #PWR07
U 1 1 572B99FC
P 5450 6600
F 0 "#PWR07" H 5450 6350 50  0001 C CNN
F 1 "GND" H 5450 6450 50  0000 C CNN
F 2 "" H 5450 6600 50  0000 C CNN
F 3 "" H 5450 6600 50  0000 C CNN
	1    5450 6600
	1    0    0    -1  
$EndComp
Text GLabel 3750 4150 0    60   Input ~ 0
+5V_USB_BRIDGE
$Comp
L +3V3 #PWR08
U 1 1 578A2508
P 2000 6950
F 0 "#PWR08" H 2000 6800 50  0001 C CNN
F 1 "+3V3" H 2000 7100 39  0000 C CNN
F 2 "" H 2000 6950 50  0000 C CNN
F 3 "" H 2000 6950 50  0000 C CNN
	1    2000 6950
	1    0    0    -1  
$EndComp
$Comp
L +5V #PWR09
U 1 1 578A2509
P 2450 6950
F 0 "#PWR09" H 2450 6800 50  0001 C CNN
F 1 "+5V" H 2465 7123 50  0000 C CNN
F 2 "" H 2450 6950 50  0000 C CNN
F 3 "" H 2450 6950 50  0000 C CNN
	1    2450 6950
	1    0    0    -1  
$EndComp
$Comp
L PWR_FLAG #FLG010
U 1 1 578A250A
P 1500 7000
F 0 "#FLG010" H 1500 7095 50  0001 C CNN
F 1 "PWR_FLAG" H 1500 7180 50  0000 C CNN
F 2 "" H 1500 7000 50  0000 C CNN
F 3 "" H 1500 7000 50  0000 C CNN
	1    1500 7000
	1    0    0    -1  
$EndComp
$Comp
L PWR_FLAG #FLG011
U 1 1 573F73C8
P 2000 7050
F 0 "#FLG011" H 2000 7145 50  0001 C CNN
F 1 "PWR_FLAG" H 2000 7230 50  0000 C CNN
F 2 "" H 2000 7050 50  0000 C CNN
F 3 "" H 2000 7050 50  0000 C CNN
	1    2000 7050
	-1   0    0    1   
$EndComp
$Comp
L PWR_FLAG #FLG012
U 1 1 578A250C
P 2450 7050
F 0 "#FLG012" H 2450 7145 50  0001 C CNN
F 1 "PWR_FLAG" H 2450 7230 50  0000 C CNN
F 2 "" H 2450 7050 50  0000 C CNN
F 3 "" H 2450 7050 50  0000 C CNN
	1    2450 7050
	-1   0    0    1   
$EndComp
Text Notes 1850 6450 0    60   ~ 0
Power Flags
$Comp
L GND #PWR013
U 1 1 5738F257
P 1500 7100
F 0 "#PWR013" H 1500 6850 50  0001 C CNN
F 1 "GND" H 1505 6927 50  0000 C CNN
F 2 "" H 1500 7100 50  0000 C CNN
F 3 "" H 1500 7100 50  0000 C CNN
	1    1500 7100
	1    0    0    -1  
$EndComp
$Comp
L GND #PWR014
U 1 1 5789BB2C
P 5950 2550
F 0 "#PWR014" H 5950 2300 50  0001 C CNN
F 1 "GND" H 5950 2400 50  0000 C CNN
F 2 "" H 5950 2550 50  0000 C CNN
F 3 "" H 5950 2550 50  0000 C CNN
	1    5950 2550
	1    0    0    -1  
$EndComp
$Comp
L GND #PWR015
U 1 1 5789BB49
P 7950 2550
F 0 "#PWR015" H 7950 2300 50  0001 C CNN
F 1 "GND" H 7950 2400 50  0000 C CNN
F 2 "" H 7950 2550 50  0000 C CNN
F 3 "" H 7950 2550 50  0000 C CNN
	1    7950 2550
	1    0    0    -1  
$EndComp
$Comp
L GND #PWR016
U 1 1 5789BB58
P 6850 2650
F 0 "#PWR016" H 6850 2400 50  0001 C CNN
F 1 "GND" H 6850 2500 50  0000 C CNN
F 2 "" H 6850 2650 50  0000 C CNN
F 3 "" H 6850 2650 50  0000 C CNN
	1    6850 2650
	1    0    0    -1  
$EndComp
$Comp
L +5V #PWR017
U 1 1 5789BB5E
P 7950 1800
F 0 "#PWR017" H 7950 1650 50  0001 C CNN
F 1 "+5V" H 7950 1940 50  0000 C CNN
F 2 "" H 7950 1800 50  0000 C CNN
F 3 "" H 7950 1800 50  0000 C CNN
	1    7950 1800
	1    0    0    -1  
$EndComp
$Comp
L GND #PWR018
U 1 1 5789BB6C
P 7400 4600
F 0 "#PWR018" H 7400 4350 50  0001 C CNN
F 1 "GND" H 7400 4450 50  0000 C CNN
F 2 "" H 7400 4600 50  0000 C CNN
F 3 "" H 7400 4600 50  0000 C CNN
	1    7400 4600
	1    0    0    -1  
$EndComp
$Comp
L GND #PWR019
U 1 1 5789BB7A
P 6250 2550
F 0 "#PWR019" H 6250 2300 50  0001 C CNN
F 1 "GND" H 6250 2400 50  0000 C CNN
F 2 "" H 6250 2550 50  0000 C CNN
F 3 "" H 6250 2550 50  0000 C CNN
	1    6250 2550
	1    0    0    -1  
$EndComp
$Comp
L PWR_FLAG #FLG020
U 1 1 5789BBCC
P 4700 1800
F 0 "#FLG020" H 4700 1895 50  0001 C CNN
F 1 "PWR_FLAG" H 4700 2000 50  0000 C CNN
F 2 "" H 4700 1800 50  0000 C CNN
F 3 "" H 4700 1800 50  0000 C CNN
	1    4700 1800
	1    0    0    -1  
$EndComp
$Comp
L TP_3v3 TP4
U 1 1 5798AE8B
P 8700 4000
F 0 "TP4" H 8850 4000 60  0000 C CNN
F 1 "TP_3v3" H 8700 4200 60  0000 C CNN
F 2 "TestPoint:TEST-POINT_0.5x2mm" H 8600 3600 60  0001 C CNN
F 3 "" H 8700 3700 60  0000 C CNN
	1    8700 4000
	1    0    0    -1  
$EndComp
$Comp
L TP_5v TP3
U 1 1 5798B936
P 8300 1900
F 0 "TP3" H 8450 1900 60  0000 C CNN
F 1 "TP_5v" H 8300 2100 60  0000 C CNN
F 2 "TestPoint:TEST-POINT_0.5x2mm" H 8200 1500 60  0001 C CNN
F 3 "" H 8300 1600 60  0000 C CNN
	1    8300 1900
	1    0    0    -1  
$EndComp
$Comp
L TP_Vin TP1
U 1 1 5798C2FC
P 5150 1900
F 0 "TP1" H 5150 2200 60  0000 C CNN
F 1 "TP_Vin" H 5150 2100 60  0000 C CNN
F 2 "TestPoint:TEST-POINT_0.5x2mm" H 5050 1500 60  0001 C CNN
F 3 "" H 5150 1600 60  0000 C CNN
	1    5150 1900
	1    0    0    -1  
$EndComp
$Comp
L GND #PWR021
U 1 1 57A5D10D
P 3000 5850
F 0 "#PWR021" H 3000 5600 50  0001 C CNN
F 1 "GND" H 3000 5700 50  0000 C CNN
F 2 "" H 3000 5850 50  0000 C CNN
F 3 "" H 3000 5850 50  0000 C CNN
	1    3000 5850
	1    0    0    -1  
$EndComp
$Comp
L TP_GND TP2
U 1 1 57A5D1F5
P 3000 5750
F 0 "TP2" H 3150 5750 60  0000 C CNN
F 1 "TP_GND" H 3000 5950 60  0000 C CNN
F 2 "TestPoint:TEST-POINT_0.5x2mm" H 2900 5350 60  0001 C CNN
F 3 "" H 3000 5450 60  0000 C CNN
	1    3000 5750
	1    0    0    -1  
$EndComp
$Comp
L +5V #PWR022
U 1 1 57AB9973
P 4550 4000
F 0 "#PWR022" H 4550 3850 50  0001 C CNN
F 1 "+5V" H 4550 4140 50  0000 C CNN
F 2 "" H 4550 4000 50  0000 C CNN
F 3 "" H 4550 4000 50  0000 C CNN
	1    4550 4000
	1    0    0    -1  
$EndComp
$Comp
L OM13000 STICK1
U 1 1 57D582A5
P 8450 5900
F 0 "STICK1" H 8450 5750 60  0000 C CNN
F 1 "OM13000" H 8450 5900 79  0000 C CNB
F 2 "StickTHT:OM13000-THT" H 8290 6120 60  0001 C CNN
F 3 "" H 8290 6120 60  0000 C CNN
	1    8450 5900
	1    0    0    -1  
$EndComp
$Comp
L +BATT #PWR023
U 1 1 57D5AD8F
P 7500 5700
F 0 "#PWR023" H 7500 5550 50  0001 C CNN
F 1 "+BATT" H 7515 5873 50  0000 C CNN
F 2 "" H 7500 5700 50  0000 C CNN
F 3 "" H 7500 5700 50  0000 C CNN
	1    7500 5700
	1    0    0    -1  
$EndComp
$Comp
L GND #PWR024
U 1 1 57D5B388
P 7500 6100
F 0 "#PWR024" H 7500 5850 50  0001 C CNN
F 1 "GND" H 7500 5950 50  0000 C CNN
F 2 "" H 7500 6100 50  0000 C CNN
F 3 "" H 7500 6100 50  0000 C CNN
	1    7500 6100
	1    0    0    -1  
$EndComp
NoConn ~ 7600 5900
$Comp
L GND #PWR025
U 1 1 57D5BBDE
P 9400 6250
F 0 "#PWR025" H 9400 6000 50  0001 C CNN
F 1 "GND" H 9400 6100 50  0000 C CNN
F 2 "" H 9400 6250 50  0000 C CNN
F 3 "" H 9400 6250 50  0000 C CNN
	1    9400 6250
	1    0    0    -1  
$EndComp
$Comp
L GND #PWR026
U 1 1 57D4FD94
P 4900 4650
F 0 "#PWR026" H 4900 4400 50  0001 C CNN
F 1 "GND" H 4900 4500 50  0000 C CNN
F 2 "" H 4900 4650 50  0000 C CNN
F 3 "" H 4900 4650 50  0000 C CNN
	1    4900 4650
	1    0    0    -1  
$EndComp
$Comp
L LTST-C191KRKT D4
U 1 1 57E4117E
P 5450 6300
F 0 "D4" H 5600 6450 50  0000 C CNN
F 1 "LTST-C191KRKT" H 5850 6350 50  0000 C CNN
F 2 "LedSMD:LED_0805-HandSold" H 5750 6150 50  0001 C CNN
F 3 "" H 5650 6300 60  0001 C CNN
F 4 "RED" H 5700 6250 50  0000 C CNN "Colour"
F 5 "3v3Ok" H 5700 6150 50  0000 C CNN "name"
	1    5450 6300
	1    0    0    -1  
$EndComp
$Comp
L BORx02-PITCH5mm CN1
U 1 1 5819C024
P 1650 2100
F 0 "CN1" H 1650 1850 50  0000 C CNN
F 1 "Vinp" H 1650 1750 50  0000 C CNN
F 2 "Connectors_Phoenix:PhoenixContact_MCV-G_02x3.81mm_Vertical" H 1700 1750 50  0001 C CNN
F 3 "" H 1700 1800 60  0001 C CNN
F 4 "VccExt" H 1650 1800 60  0001 C CNN "Name"
F 5 "vca2" H 1350 2200 50  0000 C CNN "B.1"
F 6 "vca1" H 1350 2000 50  0000 C CNN "B.2"
	1    1650 2100
	1    0    0    -1  
$EndComp
$Comp
L GND #PWR027
U 1 1 581FF367
P 10050 6250
F 0 "#PWR027" H 10050 6000 50  0001 C CNN
F 1 "GND" H 10050 6100 50  0000 C CNN
F 2 "" H 10050 6250 50  0000 C CNN
F 3 "" H 10050 6250 50  0000 C CNN
	1    10050 6250
	-1   0    0    -1  
$EndComp
$Comp
L 100nF_25V_X7R C10
U 1 1 581FF36D
P 9900 5900
F 0 "C10" H 9900 6250 50  0000 C CNN
F 1 "100nF_25V_X7R" V 9900 6650 50  0000 C CNN
F 2 "CapacitorCeramicSMD:CcSMD_0805_HandSold" H 9938 5750 61  0001 C CNN
F 3 "" H 9900 5900 60  0000 C CNN
	1    9900 5900
	-1   0    0    -1  
$EndComp
Text Notes 5700 3450 0    60   ~ 0
Circuito Proteccion\nC.C de entrada
$Comp
L NCP1117ST33T3G REG2
U 1 1 5900E36D
P 6100 4150
F 0 "REG2" H 6100 4375 50  0000 C CNN
F 1 "NCP1117ST33T3G" H 6100 4300 50  0000 C CNN
F 2 "SOT_SMD:SOT223-3Lead-HandSold-Power" H 5700 3700 50  0001 L CNN
F 3 "" H 6100 4150 50  0000 C CNN
	1    6100 4150
	1    0    0    -1  
$EndComp
$Comp
L MBRS340 D6
U 1 1 59052E8D
P 6850 2450
F 0 "D6" H 7000 2450 50  0000 C CNN
F 1 "MBRS340" H 7100 2300 50  0000 C CNN
F 2 "Diodes_SMD:D_SMC_Handsoldering" H 6900 2350 60  0001 C CNN
F 3 "" V 6850 2450 60  0000 C CNN
	1    6850 2450
	1    0    0    -1  
$EndComp
$Comp
L PTS18128V200 PF11
U 1 1 59064F2B
P 3500 2000
F 0 "PF11" V 3300 2000 50  0000 C CNN
F 1 "PTS18128V200" V 3650 2000 50  0000 C CNN
F 2 "ResistorChipSMD:RchipSMD_1812_HandSold" H 3500 1700 50  0001 C CNN
F 3 "" H 3675 2100 30  0000 C CNN
	1    3500 2000
	0    1    1    0   
$EndComp
$Comp
L GND #PWR028
U 1 1 5906DB05
P 3050 2550
F 0 "#PWR028" H 3050 2300 50  0001 C CNN
F 1 "GND" H 3050 2400 50  0000 C CNN
F 2 "" H 3050 2550 50  0000 C CNN
F 3 "" H 3050 2550 50  0000 C CNN
	1    3050 2550
	1    0    0    -1  
$EndComp
$Comp
L GND #PWR029
U 1 1 5906DB73
P 4700 2450
F 0 "#PWR029" H 4700 2200 50  0001 C CNN
F 1 "GND" H 4700 2300 50  0000 C CNN
F 2 "" H 4700 2450 50  0000 C CNN
F 3 "" H 4700 2450 50  0000 C CNN
	1    4700 2450
	1    0    0    -1  
$EndComp
$Comp
L 330uF_25V_AEC C7
U 1 1 59064C0F
P 7950 2350
F 0 "C7" H 8200 2400 50  0000 L CNN
F 1 "330uF_25V_AEC" H 8100 2300 50  0000 L CNN
F 2 "CapacitorAlumTHT:CrTHT_10x13_P5mm" H 8550 2200 50  0001 C CNN
F 3 "" H 7950 2400 60  0000 C CNN
	1    7950 2350
	1    0    0    -1  
$EndComp
$Comp
L DF02S2 D1
U 1 1 5906AF5E
P 2300 2100
F 0 "D1" H 2300 2300 50  0000 C CNN
F 1 "DF02S2" H 2300 1900 50  0000 C CNN
F 2 "SDIP_SMD:SDIPL4-HandSold" H 2300 1800 50  0001 C CNN
F 3 "" H 1090 3210 60  0000 C CNN
	1    2300 2100
	1    0    0    1   
$EndComp
$Comp
L 10uF_10V_T491 C11
U 1 1 590B2B09
P 10200 5900
F 0 "C11" H 10200 6250 50  0000 C CNN
F 1 "10uF_10V_T491" V 10200 6650 50  0000 C CNN
F 2 "CapacitorTantalumSMD:CtanlumSMD_Case-A_Hand" H 10600 5800 50  0001 C CNN
F 3 "" H 10400 6000 60  0000 C CNN
	1    10200 5900
	1    0    0    -1  
$EndComp
$Comp
L 10uF_10V_T491 C6
U 1 1 590B38EE
P 7400 4400
F 0 "C6" H 7400 4800 50  0000 C CNN
F 1 "10uF_10V_T491" V 7400 5200 50  0000 C CNN
F 2 "CapacitorTantalumSMD:CtanlumSMD_Case-A_Hand" H 7800 4300 50  0001 C CNN
F 3 "" H 7600 4500 60  0000 C CNN
	1    7400 4400
	1    0    0    -1  
$EndComp
$Comp
L 10uF_10V_T491 C2
U 1 1 590B3E3F
P 4900 4350
F 0 "C2" H 4900 4750 50  0000 C CNN
F 1 "10uF_10V_T491" V 4900 5150 50  0000 C CNN
F 2 "CapacitorTantalumSMD:CtanlumSMD_Case-A_Hand" H 5300 4250 50  0001 C CNN
F 3 "" H 5100 4450 60  0000 C CNN
	1    4900 4350
	1    0    0    -1  
$EndComp
$Comp
L PMEG2010ER D7
U 1 1 590B928B
P 7950 4150
F 0 "D7" V 8050 4150 50  0000 C CNN
F 1 "PMEG2010ER" V 7850 4150 50  0000 C CNN
F 2 "DiodosSMD:SOD123-HandSold" H 8150 4050 50  0001 C CNN
F 3 "" V 7950 4150 60  0000 C CNN
	1    7950 4150
	0    1    1    0   
$EndComp
$Comp
L S1A D5
U 1 1 590BC166
P 6100 3750
F 0 "D5" H 5950 3650 50  0000 C CNN
F 1 "S1A" H 6250 3650 50  0000 C CNN
F 2 "DiodosSMD:SMA-Handsold" H 6100 3550 50  0001 C CNN
F 3 "" H 6100 3750 60  0000 C CNN
	1    6100 3750
	-1   0    0    1   
$EndComp
$Comp
L GND #PWR030
U 1 1 590E1787
P 5100 6600
F 0 "#PWR030" H 5100 6350 50  0001 C CNN
F 1 "GND" H 5100 6450 50  0000 C CNN
F 2 "" H 5100 6600 50  0000 C CNN
F 3 "" H 5100 6600 50  0000 C CNN
	1    5100 6600
	1    0    0    -1  
$EndComp
$Comp
L LTST-C191KRKT D3
U 1 1 590E1791
P 5100 6300
F 0 "D3" H 5250 6450 50  0000 C CNN
F 1 "LTST-C191KRKT" H 5500 6350 50  0000 C CNN
F 2 "LedSMD:LED_0805-HandSold" H 5400 6150 50  0001 C CNN
F 3 "" H 5300 6300 60  0001 C CNN
F 4 "RED" H 5350 6250 50  0000 C CNN "Colour"
F 5 "5vOk" H 5350 6150 50  0000 C CNN "name"
	1    5100 6300
	-1   0    0    -1  
$EndComp
$Comp
L 820R_125mW_5% R6
U 1 1 590E17B9
P 5100 5800
F 0 "R6" H 5250 5750 50  0000 C CNN
F 1 "820R_125mW_5%" H 5500 5850 50  0000 C CNN
F 2 "ResistorChipSMD:RchipSMD_0805_HandSold" H 5550 5650 50  0001 C CNN
F 3 "" H 5100 5800 30  0000 C CNN
	1    5100 5800
	-1   0    0    -1  
$EndComp
Wire Wire Line
	6950 4500 6950 4600
Wire Wire Line
	4300 4150 4550 4150
Wire Wire Line
	4550 4150 4900 4150
Wire Wire Line
	4900 4150 5300 4150
Wire Wire Line
	5300 4150 5550 4150
Wire Wire Line
	5550 4150 5650 4150
Connection ~ 5300 4150
Wire Wire Line
	2750 2200 2750 2300
Wire Wire Line
	5300 4300 5300 4150
Connection ~ 4900 4150
Wire Wire Line
	6100 4600 6100 4500
Wire Wire Line
	5450 6500 5450 6600
Wire Wire Line
	5450 6100 5450 6000
Wire Wire Line
	5450 5600 5450 5500
Wire Wire Line
	3900 4150 3750 4150
Wire Notes Line
	750  6500 3400 6500
Wire Notes Line
	3400 6300 3400 7500
Wire Notes Line
	3400 7500 750  7500
Wire Notes Line
	750  7500 750  6300
Wire Wire Line
	1500 7000 1500 7100
Wire Wire Line
	2450 6950 2450 7050
Wire Wire Line
	2000 6950 2000 7050
Wire Notes Line
	750  6300 3400 6300
Wire Wire Line
	6800 2100 6850 2100
Wire Wire Line
	6850 2100 7050 2100
Wire Wire Line
	7950 1800 7950 1900
Wire Wire Line
	7950 1900 7950 2100
Wire Wire Line
	7950 2100 7950 2150
Wire Wire Line
	6850 2250 6850 2100
Connection ~ 6850 2100
Connection ~ 4700 2000
Wire Wire Line
	4700 1800 4700 2000
Wire Wire Line
	4700 2000 4700 2050
Wire Wire Line
	7400 4500 7400 4600
Wire Wire Line
	3000 5750 3000 5850
Connection ~ 4550 4150
Connection ~ 5150 2000
Wire Wire Line
	7600 6000 7500 6000
Wire Wire Line
	7500 6000 7500 6100
Wire Wire Line
	7600 5800 7500 5800
Wire Wire Line
	7500 5800 7500 5700
Wire Wire Line
	9400 5550 9400 5650
Wire Wire Line
	9300 5650 9400 5650
Wire Wire Line
	9400 5650 9900 5650
Wire Wire Line
	9900 5650 10200 5650
Wire Wire Line
	9300 6150 9400 6150
Wire Wire Line
	9400 6150 9400 6250
Wire Wire Line
	4900 4250 4900 4150
Wire Wire Line
	4900 4450 4900 4600
Wire Wire Line
	4900 4600 4900 4650
Wire Wire Line
	5300 4500 5300 4600
Wire Wire Line
	5300 4600 4900 4600
Connection ~ 4900 4600
Wire Wire Line
	4550 4000 4550 4150
Wire Wire Line
	9900 6150 10050 6150
Wire Wire Line
	10050 6150 10200 6150
Wire Wire Line
	10200 6150 10200 6000
Wire Wire Line
	9900 6150 9900 6000
Connection ~ 10050 6150
Wire Wire Line
	10050 6250 10050 6150
Wire Wire Line
	9900 5800 9900 5650
Connection ~ 9900 5650
Connection ~ 9400 5650
Connection ~ 7950 2100
Wire Wire Line
	5900 3750 5550 3750
Wire Wire Line
	5550 3750 5550 4150
Connection ~ 5550 4150
Wire Wire Line
	6300 3750 6650 3750
Wire Wire Line
	6650 3750 6650 4150
Wire Wire Line
	6950 4150 6950 4300
Connection ~ 6650 4150
Connection ~ 6950 4150
Wire Wire Line
	7400 4150 7400 4300
Connection ~ 7400 4150
Wire Wire Line
	8350 4150 8350 3950
Wire Wire Line
	8700 4150 8700 4000
Connection ~ 8350 4150
Wire Wire Line
	10200 5650 10200 5800
Wire Wire Line
	6550 4150 6650 4150
Wire Wire Line
	6650 4150 6950 4150
Wire Wire Line
	6950 4150 7400 4150
Wire Wire Line
	7400 4150 7750 4150
Wire Wire Line
	2750 2200 2650 2200
Wire Wire Line
	2650 2000 3050 2000
Wire Wire Line
	3050 2000 3300 2000
Wire Wire Line
	8150 4150 8350 4150
Wire Wire Line
	8350 4150 8700 4150
Wire Wire Line
	5100 6500 5100 6600
Wire Wire Line
	5100 6100 5100 6000
Wire Wire Line
	5100 5600 5100 5500
$Comp
L +5V #PWR031
U 1 1 590E1330
P 5100 5500
F 0 "#PWR031" H 5100 5350 50  0001 C CNN
F 1 "+5V" H 5100 5640 50  0000 C CNN
F 2 "" H 5100 5500 50  0000 C CNN
F 3 "" H 5100 5500 50  0000 C CNN
	1    5100 5500
	1    0    0    -1  
$EndComp
$Comp
L S1A D2
U 1 1 590EA266
P 4100 4150
F 0 "D2" H 4100 4350 50  0000 C CNN
F 1 "S1A" H 4100 4250 50  0000 C CNN
F 2 "DiodosSMD:SMA-Handsold" H 4100 3950 50  0001 C CNN
F 3 "" H 4100 4150 60  0000 C CNN
	1    4100 4150
	1    0    0    -1  
$EndComp
Wire Wire Line
	3050 2500 3050 2550
$Comp
L 1000uF_35V_AEC C1
U 1 1 594B1B04
P 3050 2300
F 0 "C1" H 3250 2300 50  0000 L CNN
F 1 "1000uF_35V_AEC" H 3450 2150 50  0000 C CNN
F 2 "CapacitorAlumTHT:CrTHT_12.5x25_P5mm" H 3050 2000 50  0001 C CNN
F 3 "" H 3050 2350 60  0000 C CNN
	1    3050 2300
	1    0    0    -1  
$EndComp
$Comp
L 470uF_50V_AEC C3
U 1 1 59C2094E
P 4700 2250
F 0 "C3" H 4900 2250 50  0000 L CNN
F 1 "470uF_50V_AEC" H 4700 1800 50  0000 C CNN
F 2 "CapacitorAlumTHT:CrTHT_12.5x25_P5mm" H 4700 1950 50  0001 C CNN
F 3 "" H 4700 2300 60  0000 C CNN
	1    4700 2250
	1    0    0    -1  
$EndComp
Wire Wire Line
	3050 2100 3050 2000
Connection ~ 3050 2000
$Comp
L P6SMB43A D46
U 1 1 59C21A94
P 4000 2300
F 0 "D46" H 4150 2400 50  0000 C CNN
F 1 "P6SMB43A" H 4300 2250 50  0000 C CNN
F 2 "DiodosSMD:SMB-Handsold" H 4000 2000 50  0001 C CNN
F 3 "" V 4000 2250 60  0000 C CNN
	1    4000 2300
	1    0    0    -1  
$EndComp
$Comp
L GND #PWR032
U 1 1 59C22438
P 4000 2550
F 0 "#PWR032" H 4000 2300 50  0001 C CNN
F 1 "GND" H 4000 2400 50  0000 C CNN
F 2 "" H 4000 2550 50  0000 C CNN
F 3 "" H 4000 2550 50  0000 C CNN
	1    4000 2550
	1    0    0    -1  
$EndComp
Wire Wire Line
	4000 2050 4000 2000
Connection ~ 4000 2000
Wire Wire Line
	5150 2000 5150 1900
$Comp
L LM2596-5.0V REG1
U 1 1 59C268E7
P 6100 2000
F 0 "REG1" H 6100 2300 50  0000 C CNN
F 1 "LM2596-5.0V" H 6100 2000 59  0000 C CNB
F 2 "SOT_SMD:TO263-5Lead-HandSold-Power" H 6100 2500 50  0001 C CNN
F 3 "" H 6100 2025 60  0000 C CNN
	1    6100 2000
	1    0    0    -1  
$EndComp
Text Notes 5450 1000 0    60   ~ 0
 @ Consideraciones :\n  # B540C-FDITR {40[v]/5[A]} "Consumo Extremo"\n  # MBRS340 {40[v]/4[A]}
Text Notes 2650 1000 0    60   ~ 0
 @ Reguladores admisibles :\n  # LM2575 {1A/5V -> Inductor 330 [uHy] & 330 [uF] }\n  # LM2596 {3A/5V -> Inductor 47 [uHy] & 220 [uF] }
$Comp
L 47uH_2.71A_0.07DCR L1
U 1 1 59C27C24
P 7350 2100
F 0 "L1" V 7050 2100 50  0000 C CNN
F 1 "47uH_2.71A_0.07DCR" V 7150 2100 50  0000 C CNN
F 2 "InductoresSMD:L_DR125-HandSold" H 7350 1700 50  0001 C CNN
F 3 "" H 7350 2100 50  0000 C CNN
	1    7350 2100
	0    -1   -1   0   
$EndComp
Wire Wire Line
	3700 2000 4000 2000
Wire Wire Line
	4000 2000 4700 2000
Wire Wire Line
	4700 2000 5150 2000
Wire Wire Line
	5150 2000 5400 2000
Wire Wire Line
	6800 1900 7950 1900
Connection ~ 7950 1900
Wire Wire Line
	7650 2100 7950 2100
Wire Wire Line
	7950 2100 8300 2100
Wire Wire Line
	8300 2100 8300 1900
Wire Notes Line
	2600 650  2600 1300
Wire Notes Line
	2600 1100 7950 1100
Wire Notes Line
	7950 1300 7950 650 
Wire Notes Line
	7950 650  2600 650 
Wire Notes Line
	5400 650  5400 1100
Wire Notes Line
	5450 3200 5450 3850
Wire Notes Line
	5450 3850 6750 3850
Wire Notes Line
	6750 3850 6750 3200
Wire Notes Line
	6750 3200 5450 3200
Text Notes 7750 4600 0    60   ~ 0
Encapsulado SOD123\nNo, SOD523
Wire Notes Line
	7700 4450 7700 4400
Wire Notes Line
	7700 4400 8750 4400
Wire Notes Line
	8750 4400 8750 4450
Wire Notes Line
	7950 4400 7950 4300
Wire Notes Line
	4500 6900 4500 7500
Wire Notes Line
	4500 7500 6650 7500
Wire Notes Line
	6650 7500 6650 6900
Wire Notes Line
	6650 6900 4500 6900
Wire Notes Line
	4500 7050 6650 7050
Text Notes 4550 7000 0    60   ~ 0
@ note :
Wire Notes Line
	7900 4350 7950 4400
Wire Notes Line
	7950 4400 8000 4350
Wire Notes Line
	2600 1300 7950 1300
Text Notes 4850 1250 0    60   Italic 12
  FootPrint Equivalentes
$EndSCHEMATC
