EESchema Schematic File Version 2
LIBS:74LVT
LIBS:74xgxx
LIBS:74xx
LIBS:ac-dc
LIBS:actel
LIBS:adc-dac
LIBS:ADC-DeltaSigma
LIBS:ADC-SAR
LIBS:Altera
LIBS:analog_devices
LIBS:AnalogMuxDemux
LIBS:analog_switches
LIBS:AopAudio
LIBS:AopComparador
LIBS:AopPrecision
LIBS:AopRailToRailPG
LIBS:atmel
LIBS:audio
LIBS:battery_management
LIBS:bbd
LIBS:BJT-GeneralPurpose 
LIBS:BOR-SIL
LIBS:BridgeUSB
LIBS:brooktre
LIBS:CapAluminioSMD
LIBS:CapCeramicoHVC
LIBS:CapCeramicos
LIBS:CapCer_THT
LIBS:CapElectroliticos
LIBS:CapPoly_THT
LIBS:CapTantalio
LIBS:Ccer_SMD
LIBS:cmos4000
LIBS:cmos_ieee
LIBS:CommonModeChoke 
LIBS:CompuertasLogicas
LIBS:CON-DIL_F
LIBS:CON-DIL_M
LIBS:Conectores
LIBS:ConectoresDB
LIBS:conn
LIBS:CON-SIL_F
LIBS:CON-SIL_M
LIBS:contrib
LIBS:CON-USB
LIBS:Cristal
LIBS:cypress
LIBS:dc-dc
LIBS:device
LIBS:digital-audio
LIBS:diode
LIBS:DiodoPequeñaSeñal
LIBS:DiodoRectificador
LIBS:DiodoSchottkyRect
LIBS:DiodosSupresorTransitorios
LIBS:DiodosZener
LIBS:display
LIBS:dsp
LIBS:EEpromSerie
LIBS:EIA232
LIBS:EIA485
LIBS:elec-unifil
LIBS:ESD_Protection
LIBS: EsdProtectionDiode
LIBS:FerriteBead
LIBS:FotoDiodos
LIBS:ftdi
LIBS:Fusibles
LIBS:gennum
LIBS:graphic
LIBS:hc11
LIBS:Inductor
LIBS:intel
LIBS:interface
LIBS:ir
LIBS:IRF-MOSFET
LIBS:jumpers
LIBS:Lattice
LIBS:LDR_THT
LIBS:LEDs
LIBS:linear
LIBS:LoadGeneric
LIBS:Logic-MOSFET
LIBS:logo
LIBS:LPC17xx
LIBS:LPC43xx
LIBS:MagneticsProtection
LIBS:maxim
LIBS:memory
LIBS:microchip
LIBS:microchip_dspic33dsc
LIBS:microchip_pic10mcu
LIBS:microchip_pic12mcu
LIBS:microchip_pic16mcu
LIBS:microchip_pic18mcu
LIBS:microchip_pic32mcu
LIBS:microcontrollers
LIBS:motor_drivers
LIBS:motorola
LIBS:msp430
LIBS:nordicsemi
LIBS:NTR-MOSFET
LIBS:nxp_armmcu
LIBS:onsemi
LIBS:opto
LIBS:OptoTransistor
LIBS:OptoTriac
LIBS:Oscillators
LIBS:philips
LIBS:PicoFusePTC
LIBS:Pilas
LIBS:Potenciometro
LIBS:power
LIBS:PowerDistributionSwitch
LIBS:powerint
LIBS:Power_Management
LIBS:pspice
LIBS:Puentes
LIBS:R
LIBS:references
LIBS:RegLinealPositivos
LIBS:regul
LIBS:ReguladorLDO
LIBS:ReguladorSwitcher
LIBS:relays
LIBS:rfcom
LIBS:RMII_Ethernet
LIBS:R_SMD
LIBS:R_ThruHole
LIBS:R_THT
LIBS:SensorCurrent
LIBS:sensors
LIBS:SensorTemperatura
LIBS:ShifterLevel
LIBS:silabs
LIBS:siliconi
LIBS:SourceCurrent
LIBS:StickLPC
LIBS:stm8
LIBS:stm32
LIBS:supertex
LIBS:switches
LIBS:TactSwitch
LIBS:TestPoint
LIBS:texas
LIBS:TrafoReductor
LIBS:TransceiverCAN
LIBS:transf
LIBS:TransistorArrays
LIBS:transistors
LIBS:Triac
LIBS:ttl_ieee
LIBS:valves
LIBS:Varistor
LIBS:video
LIBS:VoltageReference
LIBS:Worldsemi
LIBS:Xicor
LIBS:xilinx
LIBS:xtal
LIBS:Zilog
LIBS:BoardMicro-cache
EELAYER 25 0
EELAYER END
$Descr A4 11693 8268
encoding utf-8
Sheet 17 21
Title "BoardWithStick1300revD"
Date "12-05-2017"
Rev "1.09"
Comp "Metrovias-SCP"
Comment1 "\\n Luccioni, Jesus Emanuel"
Comment2 ""
Comment3 ""
Comment4 ""
$EndDescr
$Comp
L USB-A1HSW6 CN20
U 1 1 579CF9B6
P 2500 3550
F 0 "CN20" V 2350 4100 60  0000 C CNN
F 1 "USB-Host" V 2450 4100 60  0000 C CNN
F 2 "Conectores:USB-A1HSW6" V 2550 4150 60  0001 C CNN
F 3 "" H 2075 3650 60  0001 C CNN
F 4 "USB-Host" V 2650 4100 60  0001 C CNN "Name"
	1    2500 3550
	0    -1   1    0   
$EndComp
$Comp
L GND #PWR0136
U 1 1 579CF9BD
P 2500 4100
F 0 "#PWR0136" H 2500 3850 50  0001 C CNN
F 1 "GND" H 2500 3950 50  0000 C CNN
F 2 "" H 2500 4100 50  0000 C CNN
F 3 "" H 2500 4100 50  0000 C CNN
	1    2500 4100
	1    0    0    -1  
$EndComp
$Comp
L GND #PWR0137
U 1 1 579CF9C3
P 2500 3000
F 0 "#PWR0137" H 2500 2750 50  0001 C CNN
F 1 "GND" H 2500 2850 50  0000 C CNN
F 2 "" H 2500 3000 50  0000 C CNN
F 3 "" H 2500 3000 50  0000 C CNN
	1    2500 3000
	-1   0    0    1   
$EndComp
$Comp
L GND #PWR0138
U 1 1 579CF9C9
P 2900 4250
F 0 "#PWR0138" H 2900 4000 50  0001 C CNN
F 1 "GND" H 2900 4100 50  0000 C CNN
F 2 "" H 2900 4250 50  0000 C CNN
F 3 "" H 2900 4250 50  0000 C CNN
	1    2900 4250
	1    0    0    -1  
$EndComp
$Comp
L GND #PWR0139
U 1 1 579CFA0D
P 4650 4950
F 0 "#PWR0139" H 4650 4700 50  0001 C CNN
F 1 "GND" H 4655 4777 50  0000 C CNN
F 2 "" H 4650 4950 50  0000 C CNN
F 3 "" H 4650 4950 50  0000 C CNN
	1    4650 4950
	-1   0    0    -1  
$EndComp
Text Notes 6700 5200 0    60   ~ 0
R Pull-Up -> Device 1K5  Una por Linea [D+ o D-]\nR Pull-Down -> Hub 15K, Amabas Lineas
Text HLabel 5050 3600 2    60   BiDi ~ 0
USB_D+
Text HLabel 5050 3500 2    60   BiDi ~ 0
USB_D-
$Comp
L GND #PWR0140
U 1 1 57A1EA81
P 6200 3100
F 0 "#PWR0140" H 6200 2850 50  0001 C CNN
F 1 "GND" H 6200 2950 50  0000 C CNN
F 2 "" H 6200 3100 50  0000 C CNN
F 3 "" H 6200 3100 50  0000 C CNN
	1    6200 3100
	-1   0    0    -1  
$EndComp
$Comp
L GND #PWR0141
U 1 1 57A1EA9C
P 6500 3100
F 0 "#PWR0141" H 6500 2850 50  0001 C CNN
F 1 "GND" H 6500 2950 50  0000 C CNN
F 2 "" H 6500 3100 50  0000 C CNN
F 3 "" H 6500 3100 50  0000 C CNN
	1    6500 3100
	-1   0    0    -1  
$EndComp
$Comp
L BLM18KG221SN1B FB16
U 1 1 57A1F1A5
P 2900 4000
F 0 "FB16" H 3050 4100 50  0000 C CNN
F 1 "BLM18KG221SN1B" H 3350 4000 50  0000 C CNN
F 2 "FerriteBeadSMD:FbSMD_0603_HandSold" H 3150 3900 50  0001 C CNN
F 3 "" H 2900 4000 30  0000 C CNN
	1    2900 4000
	1    0    0    -1  
$EndComp
$Comp
L BLM18KG221SN1B FB15
U 1 1 57A1F3F2
P 2900 3100
F 0 "FB15" H 3050 3200 50  0000 C CNN
F 1 "BLM18KG221SN1B" H 3350 3100 50  0000 C CNN
F 2 "FerriteBeadSMD:FbSMD_0603_HandSold" H 3150 3000 50  0001 C CNN
F 3 "" H 2900 3100 30  0000 C CNN
	1    2900 3100
	1    0    0    -1  
$EndComp
$Comp
L 100nF_25V_X7R C67
U 1 1 57A2CEE0
P 7500 3300
F 0 "C67" H 7700 3300 50  0000 C CNN
F 1 "100nF_25V_X7R" H 7900 3200 50  0000 C CNN
F 2 "CapacitorCeramicSMD:CcSMD_0805_HandSold" H 7800 3100 61  0001 C CNN
F 3 "" H 7500 3300 60  0000 C CNN
	1    7500 3300
	1    0    0    -1  
$EndComp
$Comp
L GND #PWR0142
U 1 1 57A2CEE6
P 7500 3400
F 0 "#PWR0142" H 7500 3150 50  0001 C CNN
F 1 "GND" H 7500 3250 50  0000 C CNN
F 2 "" H 7500 3400 50  0000 C CNN
F 3 "" H 7500 3400 50  0000 C CNN
	1    7500 3400
	-1   0    0    -1  
$EndComp
$Comp
L +5V #PWR0143
U 1 1 57A2DC39
P 7500 2650
F 0 "#PWR0143" H 7500 2500 50  0001 C CNN
F 1 "+5V" H 7500 2790 50  0000 C CNN
F 2 "" H 7500 2650 50  0000 C CNN
F 3 "" H 7500 2650 50  0000 C CNN
	1    7500 2650
	1    0    0    -1  
$EndComp
$Comp
L GND #PWR0144
U 1 1 57A2ED8E
P 8750 3450
F 0 "#PWR0144" H 8750 3200 50  0001 C CNN
F 1 "GND" H 8750 3300 50  0000 C CNN
F 2 "" H 8750 3450 50  0000 C CNN
F 3 "" H 8750 3450 50  0000 C CNN
	1    8750 3450
	-1   0    0    -1  
$EndComp
$Comp
L PWR_FLAG #FLG0145
U 1 1 57A31969
P 2900 2750
F 0 "#FLG0145" H 2900 2845 50  0001 C CNN
F 1 "PWR_FLAG" H 2900 2930 50  0000 C CNN
F 2 "" H 2900 2750 50  0000 C CNN
F 3 "" H 2900 2750 50  0000 C CNN
	1    2900 2750
	1    0    0    -1  
$EndComp
Text HLabel 9400 3000 2    60   Output ~ 0
FlgFaultPowerUSB
Text HLabel 9400 3100 2    60   Input ~ 0
EnablePowerUSB
$Comp
L 33K_125mW_5% R114
U 1 1 57A42B8E
P 9150 3400
F 0 "R114" H 9300 3400 50  0000 C CNN
F 1 "33K_125mW_5%" H 9500 3300 50  0000 C CNN
F 2 "ResistorChipSMD:RchipSMD_0805_HandSold" H 9350 3200 50  0001 C CNN
F 3 "" H 9150 3400 30  0000 C CNN
	1    9150 3400
	1    0    0    -1  
$EndComp
$Comp
L 33K_125mW_5% R113
U 1 1 57A42C9E
P 9150 2600
F 0 "R113" H 9300 2600 50  0000 C CNN
F 1 "33K_125mW_5%" H 9500 2500 50  0000 C CNN
F 2 "ResistorChipSMD:RchipSMD_0805_HandSold" H 9350 2400 50  0001 C CNN
F 3 "" H 9150 2600 30  0000 C CNN
	1    9150 2600
	1    0    0    -1  
$EndComp
$Comp
L GND #PWR0146
U 1 1 57A42EDD
P 9150 3700
F 0 "#PWR0146" H 9150 3450 50  0001 C CNN
F 1 "GND" H 9150 3550 50  0000 C CNN
F 2 "" H 9150 3700 50  0000 C CNN
F 3 "" H 9150 3700 50  0000 C CNN
	1    9150 3700
	-1   0    0    -1  
$EndComp
$Comp
L +3V3 #PWR0147
U 1 1 57A436B7
P 9150 2300
F 0 "#PWR0147" H 9150 2150 50  0001 C CNN
F 1 "+3V3" H 9150 2440 50  0000 C CNN
F 2 "" H 9150 2300 50  0000 C CNN
F 3 "" H 9150 2300 50  0000 C CNN
	1    9150 2300
	1    0    0    -1  
$EndComp
$Comp
L DLW21HN121HQ2 CMC1
U 1 1 5821EBC7
P 4000 3550
F 0 "CMC1" H 4000 3700 61  0000 C CNN
F 1 "DLW21HN121HQ2" H 4000 3350 61  0000 C CNN
F 2 "ChoqueModoComun:CMC_0805-HandSold" H 4000 3250 61  0001 C CNN
F 3 "" V 4075 3550 50  0000 C CNN
	1    4000 3550
	1    0    0    -1  
$EndComp
$Comp
L 15K_125mW_5% R107
U 1 1 590268F5
P 4550 4050
F 0 "R107" H 4750 4100 50  0000 C CNN
F 1 "15K_125mW_5%" H 4900 4000 50  0000 C CNN
F 2 "ResistorChipSMD:RchipSMD_0805_HandSold" H 4550 3800 50  0001 C CNN
F 3 "" H 4550 4050 30  0000 C CNN
	1    4550 4050
	-1   0    0    -1  
$EndComp
$Comp
L 15K_125mW_5% R110
U 1 1 59026A23
P 4750 4050
F 0 "R110" H 4950 4100 50  0000 C CNN
F 1 "15K_125mW_5%" H 5100 4000 50  0000 C CNN
F 2 "ResistorChipSMD:RchipSMD_0805_HandSold" H 4750 3800 50  0001 C CNN
F 3 "" H 4750 4050 30  0000 C CNN
	1    4750 4050
	1    0    0    -1  
$EndComp
$Comp
L J_1x1 J13
U 1 1 59026B92
P 4650 4700
F 0 "J13" V 4700 4450 50  0000 C CNN
F 1 "J_1x1" V 4600 4500 50  0000 C CNN
F 2 "Jumper:J-1x1-THT" H 4650 4500 50  0001 C CNN
F 3 "" V 4650 4600 60  0000 C CNN
	1    4650 4700
	0    -1   1    0   
$EndComp
$Comp
L MIC2025-2YM U17
U 1 1 5902C215
P 8200 2950
F 0 "U17" H 8200 3250 50  0000 C CNN
F 1 "MIC2025-2YM" H 8200 2650 50  0000 C CNN
F 2 "SOIC:SOIC8_3.9x4.9mm_HandSold" H 8200 2550 50  0001 C CNN
F 3 "" H 8675 3300 60  0000 C CNN
	1    8200 2950
	-1   0    0    1   
$EndComp
Text Notes 5800 4600 2    60   ~ 0
USB pull-down for USB \nHost operation
$Comp
L 10uF_10V_T491 C66
U 1 1 590B090E
P 6500 3000
F 0 "C66" H 6700 3100 50  0000 C CNN
F 1 "10uF_10V_T491" H 6950 3000 50  0000 C CNN
F 2 "CapacitorTantalumSMD:CtanlumSMD_Case-A_Hand" H 6900 2900 50  0001 C CNN
F 3 "" H 6700 3100 60  0000 C CNN
	1    6500 3000
	1    0    0    -1  
$EndComp
Wire Wire Line
	2800 3700 2900 3700
Wire Wire Line
	2900 3700 2900 3800
Wire Wire Line
	2500 4000 2500 4100
Wire Wire Line
	2500 3100 2500 3000
Wire Wire Line
	4750 4350 4750 4250
Wire Wire Line
	4550 4250 4550 4350
Wire Wire Line
	4300 3500 5050 3500
Wire Wire Line
	4300 3600 5050 3600
Wire Wire Line
	4750 3850 4750 3600
Wire Wire Line
	4550 3850 4550 3500
Wire Wire Line
	4650 4950 4650 4850
Wire Wire Line
	2900 4200 2900 4250
Wire Wire Line
	2800 3400 2900 3400
Wire Wire Line
	2900 3400 2900 3300
Wire Wire Line
	2800 3500 3700 3500
Wire Wire Line
	2800 3600 3700 3600
Wire Wire Line
	4550 4350 4750 4350
Connection ~ 4650 4350
Wire Wire Line
	4650 4350 4650 4550
Connection ~ 4750 3600
Connection ~ 4550 3500
Wire Wire Line
	8650 3000 9400 3000
Wire Wire Line
	8650 3100 9400 3100
Wire Wire Line
	9150 3600 9150 3700
Connection ~ 9150 3100
Connection ~ 9150 3000
Wire Wire Line
	9150 2800 9150 3000
Wire Wire Line
	9150 3200 9150 3100
Wire Wire Line
	9150 2300 9150 2400
Wire Wire Line
	2900 2750 2900 2900
Wire Wire Line
	8650 2800 8750 2800
Wire Wire Line
	8750 2800 8750 3450
Wire Notes Line
	4400 3100 4400 5200
Wire Notes Line
	4400 5200 5900 5200
Wire Notes Line
	5900 5200 5900 3100
Wire Notes Line
	5900 3100 4400 3100
Wire Wire Line
	2900 2800 7750 2800
Connection ~ 2900 2800
$Comp
L 100nF_25V_X7R C65
U 1 1 57A1EA7B
P 6200 3000
F 0 "C65" H 6400 3000 50  0000 C CNN
F 1 "100nF_25V_X7R" H 6850 3000 50  0000 C CNN
F 2 "CapacitorCeramicSMD:CcSMD_0805_HandSold" H 6500 2800 61  0001 C CNN
F 3 "" H 6200 3000 60  0000 C CNN
	1    6200 3000
	-1   0    0    -1  
$EndComp
Wire Wire Line
	6200 2900 6200 2800
Connection ~ 6200 2800
Wire Wire Line
	6500 2900 6500 2800
Connection ~ 6500 2800
Wire Wire Line
	7750 2900 7700 2900
Wire Wire Line
	7700 2900 7700 2800
Connection ~ 7700 2800
Wire Wire Line
	7200 3100 7750 3100
Wire Wire Line
	7500 2650 7500 3200
Connection ~ 7500 3100
Text Notes 2100 4750 0    60   ~ 0
Choque Modo Comun (box)\nACM2012-900-2P
$Comp
L 10uF_10V_T491 C12
U 1 1 594C8DAD
P 7200 3300
F 0 "C12" H 7500 3300 50  0000 C CNN
F 1 "10uF_10V_T491" H 7650 3150 50  0000 C CNN
F 2 "CapacitorTantalumSMD:CtanlumSMD_Case-A_Hand" H 7600 3200 50  0001 C CNN
F 3 "" H 7400 3400 60  0000 C CNN
	1    7200 3300
	-1   0    0    -1  
$EndComp
$Comp
L GND #PWR0148
U 1 1 594C8EB1
P 7200 3400
F 0 "#PWR0148" H 7200 3150 50  0001 C CNN
F 1 "GND" H 7200 3250 50  0000 C CNN
F 2 "" H 7200 3400 50  0000 C CNN
F 3 "" H 7200 3400 50  0000 C CNN
	1    7200 3400
	-1   0    0    -1  
$EndComp
Wire Wire Line
	7200 3200 7200 3100
$EndSCHEMATC
