EESchema Schematic File Version 2
LIBS:74LVT
LIBS:74xgxx
LIBS:74xx
LIBS:ac-dc
LIBS:actel
LIBS:adc-dac
LIBS:ADC-DeltaSigma
LIBS:ADC-SAR
LIBS:Altera
LIBS:analog_devices
LIBS:AnalogMuxDemux
LIBS:analog_switches
LIBS:AopAudio
LIBS:AopComparador
LIBS:AopPrecision
LIBS:AopRailToRailPG
LIBS:atmel
LIBS:audio
LIBS:battery_management
LIBS:bbd
LIBS:BJT-GeneralPurpose 
LIBS:BOR-SIL
LIBS:BridgeUSB
LIBS:brooktre
LIBS:CapAluminioSMD
LIBS:CapCeramicoHVC
LIBS:CapCeramicos
LIBS:CapCer_THT
LIBS:CapElectroliticos
LIBS:CapPoly_THT
LIBS:CapTantalio
LIBS:Ccer_SMD
LIBS:cmos4000
LIBS:cmos_ieee
LIBS:CommonModeChoke 
LIBS:CompuertasLogicas
LIBS:CON-DIL_F
LIBS:CON-DIL_M
LIBS:Conectores
LIBS:ConectoresDB
LIBS:conn
LIBS:CON-SIL_F
LIBS:CON-SIL_M
LIBS:contrib
LIBS:CON-USB
LIBS:Cristal
LIBS:cypress
LIBS:dc-dc
LIBS:device
LIBS:digital-audio
LIBS:diode
LIBS:DiodoPequeñaSeñal
LIBS:DiodoRectificador
LIBS:DiodoSchottkyRect
LIBS:DiodosSupresorTransitorios
LIBS:DiodosZener
LIBS:display
LIBS:dsp
LIBS:EEpromSerie
LIBS:EIA232
LIBS:EIA485
LIBS:elec-unifil
LIBS:ESD_Protection
LIBS: EsdProtectionDiode
LIBS:FerriteBead
LIBS:FotoDiodos
LIBS:ftdi
LIBS:Fusibles
LIBS:gennum
LIBS:graphic
LIBS:hc11
LIBS:Inductor
LIBS:intel
LIBS:interface
LIBS:ir
LIBS:IRF-MOSFET
LIBS:jumpers
LIBS:Lattice
LIBS:LDR_THT
LIBS:LEDs
LIBS:linear
LIBS:LoadGeneric
LIBS:Logic-MOSFET
LIBS:logo
LIBS:LPC17xx
LIBS:LPC43xx
LIBS:MagneticsProtection
LIBS:maxim
LIBS:memory
LIBS:microchip
LIBS:microchip_dspic33dsc
LIBS:microchip_pic10mcu
LIBS:microchip_pic12mcu
LIBS:microchip_pic16mcu
LIBS:microchip_pic18mcu
LIBS:microchip_pic32mcu
LIBS:microcontrollers
LIBS:motor_drivers
LIBS:motorola
LIBS:msp430
LIBS:nordicsemi
LIBS:NTR-MOSFET
LIBS:nxp_armmcu
LIBS:onsemi
LIBS:opto
LIBS:OptoTransistor
LIBS:OptoTriac
LIBS:Oscillators
LIBS:philips
LIBS:PicoFusePTC
LIBS:Pilas
LIBS:Potenciometro
LIBS:power
LIBS:PowerDistributionSwitch
LIBS:powerint
LIBS:Power_Management
LIBS:pspice
LIBS:Puentes
LIBS:R
LIBS:references
LIBS:RegLinealPositivos
LIBS:regul
LIBS:ReguladorLDO
LIBS:ReguladorSwitcher
LIBS:relays
LIBS:rfcom
LIBS:RMII_Ethernet
LIBS:R_SMD
LIBS:R_ThruHole
LIBS:R_THT
LIBS:SensorCurrent
LIBS:sensors
LIBS:SensorTemperatura
LIBS:ShifterLevel
LIBS:silabs
LIBS:siliconi
LIBS:SourceCurrent
LIBS:StickLPC
LIBS:stm8
LIBS:stm32
LIBS:supertex
LIBS:switches
LIBS:TactSwitch
LIBS:TestPoint
LIBS:texas
LIBS:TrafoReductor
LIBS:TransceiverCAN
LIBS:transf
LIBS:TransistorArrays
LIBS:transistors
LIBS:Triac
LIBS:ttl_ieee
LIBS:valves
LIBS:Varistor
LIBS:video
LIBS:VoltageReference
LIBS:Worldsemi
LIBS:Xicor
LIBS:xilinx
LIBS:xtal
LIBS:Zilog
LIBS:MemoryZock
LIBS:BoardMicro-cache
EELAYER 25 0
EELAYER END
$Descr A4 11693 8268
encoding utf-8
Sheet 17 21
Title "BoardWithStick1300revD"
Date "12-05-2017"
Rev "v1.10b"
Comp "J.E.L"
Comment1 "\\n Luccioni, Jesus Emanuel"
Comment2 ""
Comment3 ""
Comment4 ""
$EndDescr
$Comp
L USB-A1HSW6 CN20
U 1 1 579CF9B6
P 2250 3550
F 0 "CN20" V 2150 4200 60  0000 C CNN
F 1 "USB-Host" V 2300 4200 60  0000 C CNN
F 2 "Conectores:USB-A1HSW6" V 2300 4150 60  0001 C CNN
F 3 "" H 1825 3650 60  0001 C CNN
F 4 "USB-Host" V 2400 4100 60  0001 C CNN "Name"
	1    2250 3550
	0    -1   1    0   
$EndComp
$Comp
L GND #PWR0137
U 1 1 579CF9BD
P 2250 4500
F 0 "#PWR0137" H 2250 4250 50  0001 C CNN
F 1 "GND" H 2250 4350 50  0000 C CNN
F 2 "" H 2250 4500 50  0000 C CNN
F 3 "" H 2250 4500 50  0000 C CNN
	1    2250 4500
	1    0    0    -1  
$EndComp
$Comp
L GND #PWR0138
U 1 1 579CF9C9
P 2650 3800
F 0 "#PWR0138" H 2650 3550 50  0001 C CNN
F 1 "GND" H 2650 3650 50  0000 C CNN
F 2 "" H 2650 3800 50  0000 C CNN
F 3 "" H 2650 3800 50  0000 C CNN
	1    2650 3800
	1    0    0    -1  
$EndComp
$Comp
L GND #PWR0139
U 1 1 579CFA0D
P 4200 4950
F 0 "#PWR0139" H 4200 4700 50  0001 C CNN
F 1 "GND" H 4205 4777 50  0000 C CNN
F 2 "" H 4200 4950 50  0000 C CNN
F 3 "" H 4200 4950 50  0000 C CNN
	1    4200 4950
	-1   0    0    -1  
$EndComp
Text HLabel 4600 3600 2    60   BiDi ~ 0
USB_D+
Text HLabel 4600 3500 2    60   BiDi ~ 0
USB_D-
$Comp
L GND #PWR0140
U 1 1 57A1EA81
P 5950 3100
F 0 "#PWR0140" H 5950 2850 50  0001 C CNN
F 1 "GND" H 5950 2950 50  0000 C CNN
F 2 "" H 5950 3100 50  0000 C CNN
F 3 "" H 5950 3100 50  0000 C CNN
	1    5950 3100
	-1   0    0    -1  
$EndComp
$Comp
L GND #PWR0141
U 1 1 57A1EA9C
P 6250 3100
F 0 "#PWR0141" H 6250 2850 50  0001 C CNN
F 1 "GND" H 6250 2950 50  0000 C CNN
F 2 "" H 6250 3100 50  0000 C CNN
F 3 "" H 6250 3100 50  0000 C CNN
	1    6250 3100
	-1   0    0    -1  
$EndComp
$Comp
L BLM18KG221SN1B FB16
U 1 1 57A1F1A5
P 2250 4300
F 0 "FB16" H 2400 4300 50  0000 C CNN
F 1 "BLM18KG221SN1B" H 2650 4200 50  0000 C CNN
F 2 "FerriteBeadSMD:FbSMD_0603_HandSold" H 2500 4200 50  0001 C CNN
F 3 "" H 2250 4300 30  0000 C CNN
	1    2250 4300
	1    0    0    -1  
$EndComp
$Comp
L BLM18KG221SN1B FB15
U 1 1 57A1F3F2
P 2650 3100
F 0 "FB15" H 2800 3200 50  0000 C CNN
F 1 "BLM18KG221SN1B" H 3050 3100 50  0000 C CNN
F 2 "FerriteBeadSMD:FbSMD_0603_HandSold" H 2900 3000 50  0001 C CNN
F 3 "" H 2650 3100 30  0000 C CNN
	1    2650 3100
	1    0    0    -1  
$EndComp
$Comp
L 100nF_25V_X7R C67
U 1 1 57A2CEE0
P 7250 3300
F 0 "C67" H 7450 3300 50  0000 C CNN
F 1 "100nF_25V_X7R" H 7650 3200 50  0000 C CNN
F 2 "CapacitorCeramicSMD:CcSMD_0805_HandSold" H 7550 3100 61  0001 C CNN
F 3 "" H 7250 3300 60  0000 C CNN
	1    7250 3300
	1    0    0    -1  
$EndComp
$Comp
L GND #PWR0142
U 1 1 57A2CEE6
P 7250 3400
F 0 "#PWR0142" H 7250 3150 50  0001 C CNN
F 1 "GND" H 7250 3250 50  0000 C CNN
F 2 "" H 7250 3400 50  0000 C CNN
F 3 "" H 7250 3400 50  0000 C CNN
	1    7250 3400
	-1   0    0    -1  
$EndComp
$Comp
L +5V #PWR0143
U 1 1 57A2DC39
P 7250 2650
F 0 "#PWR0143" H 7250 2500 50  0001 C CNN
F 1 "+5V" H 7250 2790 50  0000 C CNN
F 2 "" H 7250 2650 50  0000 C CNN
F 3 "" H 7250 2650 50  0000 C CNN
	1    7250 2650
	1    0    0    -1  
$EndComp
$Comp
L GND #PWR0144
U 1 1 57A2ED8E
P 8500 3450
F 0 "#PWR0144" H 8500 3200 50  0001 C CNN
F 1 "GND" H 8500 3300 50  0000 C CNN
F 2 "" H 8500 3450 50  0000 C CNN
F 3 "" H 8500 3450 50  0000 C CNN
	1    8500 3450
	-1   0    0    -1  
$EndComp
$Comp
L PWR_FLAG #FLG0145
U 1 1 57A31969
P 2650 2750
F 0 "#FLG0145" H 2650 2845 50  0001 C CNN
F 1 "PWR_FLAG" H 2650 2930 50  0000 C CNN
F 2 "" H 2650 2750 50  0000 C CNN
F 3 "" H 2650 2750 50  0000 C CNN
	1    2650 2750
	1    0    0    -1  
$EndComp
Text HLabel 9150 3000 2    60   Output ~ 0
FlgFaultPowerUSB
Text HLabel 9150 3100 2    60   Input ~ 0
EnablePowerUSB
$Comp
L 33K_125mW_5% R114
U 1 1 57A42B8E
P 8900 3400
F 0 "R114" H 9050 3400 50  0000 C CNN
F 1 "33K_125mW_5%" H 9250 3300 50  0000 C CNN
F 2 "ResistorChipSMD:RchipSMD_0805_HandSold" H 9100 3200 50  0001 C CNN
F 3 "" H 8900 3400 30  0000 C CNN
	1    8900 3400
	1    0    0    -1  
$EndComp
$Comp
L 33K_125mW_5% R113
U 1 1 57A42C9E
P 8900 2600
F 0 "R113" H 9050 2600 50  0000 C CNN
F 1 "33K_125mW_5%" H 9250 2500 50  0000 C CNN
F 2 "ResistorChipSMD:RchipSMD_0805_HandSold" H 9100 2400 50  0001 C CNN
F 3 "" H 8900 2600 30  0000 C CNN
	1    8900 2600
	1    0    0    -1  
$EndComp
$Comp
L GND #PWR0146
U 1 1 57A42EDD
P 8900 3700
F 0 "#PWR0146" H 8900 3450 50  0001 C CNN
F 1 "GND" H 8900 3550 50  0000 C CNN
F 2 "" H 8900 3700 50  0000 C CNN
F 3 "" H 8900 3700 50  0000 C CNN
	1    8900 3700
	-1   0    0    -1  
$EndComp
$Comp
L +3V3 #PWR0147
U 1 1 57A436B7
P 8900 2300
F 0 "#PWR0147" H 8900 2150 50  0001 C CNN
F 1 "+3V3" H 8900 2440 50  0000 C CNN
F 2 "" H 8900 2300 50  0000 C CNN
F 3 "" H 8900 2300 50  0000 C CNN
	1    8900 2300
	1    0    0    -1  
$EndComp
$Comp
L 15K_125mW_5% R107
U 1 1 590268F5
P 4100 4050
F 0 "R107" H 4300 4100 50  0000 C CNN
F 1 "15K_125mW_5%" H 4450 4000 50  0000 C CNN
F 2 "ResistorChipSMD:RchipSMD_0805_HandSold" H 4100 3800 50  0001 C CNN
F 3 "" H 4100 4050 30  0000 C CNN
	1    4100 4050
	-1   0    0    -1  
$EndComp
$Comp
L 15K_125mW_5% R110
U 1 1 59026A23
P 4300 4050
F 0 "R110" H 4500 4100 50  0000 C CNN
F 1 "15K_125mW_5%" H 4650 4000 50  0000 C CNN
F 2 "ResistorChipSMD:RchipSMD_0805_HandSold" H 4300 3800 50  0001 C CNN
F 3 "" H 4300 4050 30  0000 C CNN
	1    4300 4050
	1    0    0    -1  
$EndComp
$Comp
L J_1x1 J13
U 1 1 59026B92
P 4200 4700
F 0 "J13" V 4250 4450 50  0000 C CNN
F 1 "J_1x1" V 4150 4500 50  0000 C CNN
F 2 "Jumper:J-1x1-THT" H 4200 4500 50  0001 C CNN
F 3 "" V 4200 4600 60  0000 C CNN
	1    4200 4700
	0    -1   1    0   
$EndComp
$Comp
L MIC2025-2YM U17
U 1 1 5902C215
P 7950 2950
F 0 "U17" H 7950 3250 50  0000 C CNN
F 1 "MIC2025-2YM" H 7950 2650 50  0000 C CNN
F 2 "SOIC:SOIC8_3.9x4.9mm_HandSold" H 7950 2550 50  0001 C CNN
F 3 "" H 8425 3300 60  0000 C CNN
	1    7950 2950
	-1   0    0    1   
$EndComp
Text Notes 5150 5500 2    60   ~ 0
USB pull-down for USB \nHost operation
$Comp
L 10uF_10V_T491 C66
U 1 1 590B090E
P 6250 3000
F 0 "C66" H 6450 3100 50  0000 C CNN
F 1 "10uF_10V_T491" H 6700 3000 50  0000 C CNN
F 2 "CapacitorTantalumSMD:CtanlumSMD_Case-A_Hand" H 6650 2900 50  0001 C CNN
F 3 "" H 6450 3100 60  0000 C CNN
	1    6250 3000
	1    0    0    -1  
$EndComp
Wire Wire Line
	2550 3700 2650 3700
Wire Wire Line
	2650 3700 2650 3800
Wire Wire Line
	2250 4000 2250 4100
Wire Wire Line
	2250 3100 2250 3000
Wire Wire Line
	4300 4350 4300 4250
Wire Wire Line
	4100 4250 4100 4350
Wire Wire Line
	3600 3500 4600 3500
Wire Wire Line
	3600 3600 4600 3600
Wire Wire Line
	4300 3850 4300 3600
Wire Wire Line
	4100 3850 4100 3500
Wire Wire Line
	4200 4950 4200 4850
Wire Wire Line
	2550 3400 2650 3400
Wire Wire Line
	2650 3400 2650 3300
Wire Wire Line
	2550 3500 3000 3500
Wire Wire Line
	2550 3600 3000 3600
Wire Wire Line
	4100 4350 4300 4350
Connection ~ 4200 4350
Wire Wire Line
	4200 4350 4200 4550
Connection ~ 4300 3600
Connection ~ 4100 3500
Wire Wire Line
	8400 3000 9150 3000
Wire Wire Line
	8400 3100 9150 3100
Wire Wire Line
	8900 3600 8900 3700
Connection ~ 8900 3100
Connection ~ 8900 3000
Wire Wire Line
	8900 2800 8900 3000
Wire Wire Line
	8900 3200 8900 3100
Wire Wire Line
	8900 2300 8900 2400
Wire Wire Line
	2650 2750 2650 2900
Wire Wire Line
	8400 2800 8500 2800
Wire Wire Line
	8500 2800 8500 3450
Wire Notes Line
	3800 3300 3800 5550
Wire Notes Line
	3800 5550 5500 5550
Wire Notes Line
	5500 5550 5500 3300
Wire Notes Line
	5500 3300 3800 3300
Wire Wire Line
	2650 2800 7500 2800
Connection ~ 2650 2800
$Comp
L 100nF_25V_X7R C65
U 1 1 57A1EA7B
P 5950 3000
F 0 "C65" H 6150 3000 50  0000 C CNN
F 1 "100nF_25V_X7R" H 6600 3000 50  0000 C CNN
F 2 "CapacitorCeramicSMD:CcSMD_0805_HandSold" H 6250 2800 61  0001 C CNN
F 3 "" H 5950 3000 60  0000 C CNN
	1    5950 3000
	-1   0    0    -1  
$EndComp
Wire Wire Line
	5950 2900 5950 2800
Connection ~ 5950 2800
Wire Wire Line
	6250 2900 6250 2800
Connection ~ 6250 2800
Wire Wire Line
	7500 2900 7450 2900
Wire Wire Line
	7450 2900 7450 2800
Connection ~ 7450 2800
Wire Wire Line
	6950 3100 7500 3100
Wire Wire Line
	7250 2650 7250 3200
Connection ~ 7250 3100
Text Notes 3000 2600 0    60   ~ 0
Choque Modo Comun\n  # ACM2012-900-2P (actual)\n  # DLW21HN121HQ2 (Upgrade)\n Footprint Equivalente <=> 0805
$Comp
L 10uF_10V_T491 C14
U 1 1 594C8DAD
P 6950 3300
F 0 "C14" H 7250 3300 50  0000 C CNN
F 1 "10uF_10V_T491" H 7400 3150 50  0000 C CNN
F 2 "CapacitorTantalumSMD:CtanlumSMD_Case-A_Hand" H 7350 3200 50  0001 C CNN
F 3 "" H 7150 3400 60  0000 C CNN
	1    6950 3300
	-1   0    0    -1  
$EndComp
$Comp
L GND #PWR0148
U 1 1 594C8EB1
P 6950 3400
F 0 "#PWR0148" H 6950 3150 50  0001 C CNN
F 1 "GND" H 6950 3250 50  0000 C CNN
F 2 "" H 6950 3400 50  0000 C CNN
F 3 "" H 6950 3400 50  0000 C CNN
	1    6950 3400
	-1   0    0    -1  
$EndComp
Wire Wire Line
	6950 3200 6950 3100
Wire Wire Line
	2250 3000 1900 3000
Wire Wire Line
	1900 3000 1900 4050
Wire Wire Line
	1900 4050 2250 4050
Connection ~ 2250 4050
Wire Notes Line
	3800 5250 5500 5250
Wire Notes Line
	2800 3200 2800 3700
Wire Notes Line
	2800 3700 3750 3700
Wire Notes Line
	3750 3700 3750 3200
Wire Notes Line
	3750 3200 2800 3200
Wire Notes Line
	3550 2650 3550 3200
Wire Notes Line
	2950 2650 4600 2650
Wire Notes Line
	3500 2700 3550 2650
Wire Notes Line
	3550 2650 3600 2700
Wire Notes Line
	4600 2650 4600 2550
Wire Notes Line
	2950 2650 2950 2550
$Comp
L ACM2012-900-2P CMC1
U 1 1 59D89E1F
P 3300 3550
F 0 "CMC1" H 3300 3850 61  0000 C CNN
F 1 "ACM2012-900-2P" H 3300 3750 61  0000 C CNN
F 2 "ChoqueModoComun:CMC_0805-HandSold" H 3300 3250 61  0001 C CNN
F 3 "" V 3375 3550 50  0000 C CNN
	1    3300 3550
	1    0    0    -1  
$EndComp
$EndSCHEMATC
