G04 #@! TF.FileFunction,Other,Fab,Top*
%FSLAX46Y46*%
G04 Gerber Fmt 4.6, Leading zero omitted, Abs format (unit mm)*
G04 Created by KiCad (PCBNEW 4.0.7-e2-6376~58~ubuntu16.04.1) date Wed Oct  4 23:00:02 2017*
%MOMM*%
%LPD*%
G01*
G04 APERTURE LIST*
%ADD10C,0.100000*%
%ADD11C,0.200000*%
%ADD12C,0.150000*%
%ADD13C,0.300000*%
G04 APERTURE END LIST*
D10*
D11*
X130000000Y-37500000D02*
X132500000Y-40000000D01*
X128000000Y-170000000D02*
X128000000Y-179500000D01*
X158000000Y-179500000D02*
X128000000Y-179500000D01*
X95000000Y-175500000D02*
X102500000Y-175500000D01*
X102500000Y-170000000D02*
X102500000Y-175500000D01*
X84000000Y-30500000D02*
X99000000Y-30500000D01*
X83000000Y-47500000D02*
X83000000Y-30500000D01*
X100000000Y-47500000D02*
X100000000Y-30500000D01*
X83000000Y-47500000D02*
X100000000Y-47500000D01*
X130000000Y-30500000D02*
X100000000Y-30500000D01*
X99000000Y-46500000D02*
X99000000Y-30500000D01*
X84000000Y-46500000D02*
X99000000Y-46500000D01*
X84000000Y-46500000D02*
X84000000Y-30500000D01*
X17500000Y-119000000D02*
X17500000Y-123500000D01*
X37000000Y-123500000D02*
X17500000Y-123500000D01*
X37000000Y-123500000D02*
X37000000Y-135500000D01*
X17500000Y-135500000D02*
X37000000Y-135500000D01*
X136500000Y-67500000D02*
X153000000Y-67500000D01*
X95000000Y-173500000D02*
X95000000Y-175500000D01*
X92500000Y-171000000D02*
X95000000Y-173500000D01*
X153000000Y-88000000D02*
X140000000Y-88000000D01*
X141000000Y-89000000D02*
X141000000Y-110500000D01*
X141000000Y-110500000D02*
X166500000Y-110500000D01*
X157500000Y-89000000D02*
X157500000Y-92000000D01*
X160000000Y-94500000D02*
X166500000Y-94500000D01*
X157500000Y-92000000D02*
X160000000Y-94500000D01*
X17500000Y-68000000D02*
X17500000Y-86500000D01*
X32500000Y-86500000D02*
X17500000Y-86500000D01*
X33500000Y-86500000D02*
X33500000Y-67000000D01*
X32500000Y-86500000D02*
X32500000Y-68000000D01*
X17500000Y-68000000D02*
X32500000Y-68000000D01*
X17500000Y-67000000D02*
X33500000Y-67000000D01*
X156500000Y-163000000D02*
X156500000Y-133500000D01*
X151500000Y-133500000D02*
X156500000Y-133500000D01*
X166500000Y-132000000D02*
X166500000Y-112000000D01*
X152500000Y-132000000D02*
X166500000Y-132000000D01*
X152500000Y-132000000D02*
X152500000Y-112000000D01*
X152500000Y-112000000D02*
X166500000Y-112000000D01*
X166500000Y-170000000D02*
X166500000Y-163000000D01*
X156500000Y-163000000D02*
X166500000Y-163000000D01*
X136500000Y-67500000D02*
X136500000Y-40000000D01*
X136500000Y-40000000D02*
X132500000Y-40000000D01*
X141000000Y-89000000D02*
X157500000Y-89000000D01*
X166500000Y-94500000D02*
X166500000Y-110500000D01*
X30500000Y-173000000D02*
X34000000Y-169500000D01*
X17500000Y-170500000D02*
X24000000Y-170500000D01*
X24000000Y-170500000D02*
X26500000Y-173000000D01*
D12*
X18666666Y-30000000D02*
G75*
G03X18666666Y-30000000I-1666666J0D01*
G01*
X14500000Y-30000000D02*
X19500000Y-30000000D01*
X17000000Y-27500000D02*
X17000000Y-32500000D01*
D13*
X208071429Y-106128571D02*
X207357143Y-106128571D01*
X207357143Y-104628571D01*
X209214286Y-106128571D02*
X209214286Y-105342857D01*
X209142857Y-105200000D01*
X209000000Y-105128571D01*
X208714286Y-105128571D01*
X208571429Y-105200000D01*
X209214286Y-106057143D02*
X209071429Y-106128571D01*
X208714286Y-106128571D01*
X208571429Y-106057143D01*
X208500000Y-105914286D01*
X208500000Y-105771429D01*
X208571429Y-105628571D01*
X208714286Y-105557143D01*
X209071429Y-105557143D01*
X209214286Y-105485714D01*
X209785715Y-105128571D02*
X210142858Y-106128571D01*
X210500000Y-105128571D02*
X210142858Y-106128571D01*
X210000000Y-106485714D01*
X209928572Y-106557143D01*
X209785715Y-106628571D01*
X211642857Y-106057143D02*
X211500000Y-106128571D01*
X211214286Y-106128571D01*
X211071429Y-106057143D01*
X211000000Y-105914286D01*
X211000000Y-105342857D01*
X211071429Y-105200000D01*
X211214286Y-105128571D01*
X211500000Y-105128571D01*
X211642857Y-105200000D01*
X211714286Y-105342857D01*
X211714286Y-105485714D01*
X211000000Y-105628571D01*
X212357143Y-106128571D02*
X212357143Y-105128571D01*
X212357143Y-105414286D02*
X212428571Y-105271429D01*
X212500000Y-105200000D01*
X212642857Y-105128571D01*
X212785714Y-105128571D01*
X213214285Y-106057143D02*
X213357142Y-106128571D01*
X213642857Y-106128571D01*
X213785714Y-106057143D01*
X213857142Y-105914286D01*
X213857142Y-105842857D01*
X213785714Y-105700000D01*
X213642857Y-105628571D01*
X213428571Y-105628571D01*
X213285714Y-105557143D01*
X213214285Y-105414286D01*
X213214285Y-105342857D01*
X213285714Y-105200000D01*
X213428571Y-105128571D01*
X213642857Y-105128571D01*
X213785714Y-105200000D01*
X214500000Y-105985714D02*
X214571428Y-106057143D01*
X214500000Y-106128571D01*
X214428571Y-106057143D01*
X214500000Y-105985714D01*
X214500000Y-106128571D01*
X214500000Y-105200000D02*
X214571428Y-105271429D01*
X214500000Y-105342857D01*
X214428571Y-105271429D01*
X214500000Y-105200000D01*
X214500000Y-105342857D01*
X208142857Y-107250000D02*
X208000000Y-107178571D01*
X207785714Y-107178571D01*
X207571429Y-107250000D01*
X207428571Y-107392857D01*
X207357143Y-107535714D01*
X207285714Y-107821429D01*
X207285714Y-108035714D01*
X207357143Y-108321429D01*
X207428571Y-108464286D01*
X207571429Y-108607143D01*
X207785714Y-108678571D01*
X207928571Y-108678571D01*
X208142857Y-108607143D01*
X208214286Y-108535714D01*
X208214286Y-108035714D01*
X207928571Y-108035714D01*
X209428571Y-108607143D02*
X209285714Y-108678571D01*
X209000000Y-108678571D01*
X208857143Y-108607143D01*
X208785714Y-108464286D01*
X208785714Y-107892857D01*
X208857143Y-107750000D01*
X209000000Y-107678571D01*
X209285714Y-107678571D01*
X209428571Y-107750000D01*
X209500000Y-107892857D01*
X209500000Y-108035714D01*
X208785714Y-108178571D01*
X210142857Y-108678571D02*
X210142857Y-107678571D01*
X210142857Y-107964286D02*
X210214285Y-107821429D01*
X210285714Y-107750000D01*
X210428571Y-107678571D01*
X210571428Y-107678571D01*
X211071428Y-108678571D02*
X211071428Y-107178571D01*
X211071428Y-107750000D02*
X211214285Y-107678571D01*
X211499999Y-107678571D01*
X211642856Y-107750000D01*
X211714285Y-107821429D01*
X211785714Y-107964286D01*
X211785714Y-108392857D01*
X211714285Y-108535714D01*
X211642856Y-108607143D01*
X211499999Y-108678571D01*
X211214285Y-108678571D01*
X211071428Y-108607143D01*
X212999999Y-108607143D02*
X212857142Y-108678571D01*
X212571428Y-108678571D01*
X212428571Y-108607143D01*
X212357142Y-108464286D01*
X212357142Y-107892857D01*
X212428571Y-107750000D01*
X212571428Y-107678571D01*
X212857142Y-107678571D01*
X212999999Y-107750000D01*
X213071428Y-107892857D01*
X213071428Y-108035714D01*
X212357142Y-108178571D01*
X213714285Y-108678571D02*
X213714285Y-107678571D01*
X213714285Y-107964286D02*
X213785713Y-107821429D01*
X213857142Y-107750000D01*
X213999999Y-107678571D01*
X214142856Y-107678571D01*
X214571427Y-108607143D02*
X214714284Y-108678571D01*
X214999999Y-108678571D01*
X215142856Y-108607143D01*
X215214284Y-108464286D01*
X215214284Y-108392857D01*
X215142856Y-108250000D01*
X214999999Y-108178571D01*
X214785713Y-108178571D01*
X214642856Y-108107143D01*
X214571427Y-107964286D01*
X214571427Y-107892857D01*
X214642856Y-107750000D01*
X214785713Y-107678571D01*
X214999999Y-107678571D01*
X215142856Y-107750000D01*
X217071428Y-108678571D02*
X216999999Y-108678571D01*
X216857142Y-108607143D01*
X216642856Y-108392857D01*
X216285713Y-107964286D01*
X216142856Y-107750000D01*
X216071428Y-107535714D01*
X216071428Y-107392857D01*
X216142856Y-107250000D01*
X216285713Y-107178571D01*
X216357142Y-107178571D01*
X216499999Y-107250000D01*
X216571428Y-107392857D01*
X216571428Y-107464286D01*
X216499999Y-107607143D01*
X216428570Y-107678571D01*
X215999999Y-107964286D01*
X215928570Y-108035714D01*
X215857142Y-108178571D01*
X215857142Y-108392857D01*
X215928570Y-108535714D01*
X215999999Y-108607143D01*
X216142856Y-108678571D01*
X216357142Y-108678571D01*
X216499999Y-108607143D01*
X216571428Y-108535714D01*
X216785713Y-108250000D01*
X216857142Y-108035714D01*
X216857142Y-107892857D01*
X218214285Y-107892857D02*
X217714285Y-107892857D01*
X217714285Y-108678571D02*
X217714285Y-107178571D01*
X218428571Y-107178571D01*
X219642856Y-108678571D02*
X219642856Y-107892857D01*
X219571427Y-107750000D01*
X219428570Y-107678571D01*
X219142856Y-107678571D01*
X218999999Y-107750000D01*
X219642856Y-108607143D02*
X219499999Y-108678571D01*
X219142856Y-108678571D01*
X218999999Y-108607143D01*
X218928570Y-108464286D01*
X218928570Y-108321429D01*
X218999999Y-108178571D01*
X219142856Y-108107143D01*
X219499999Y-108107143D01*
X219642856Y-108035714D01*
X220357142Y-108678571D02*
X220357142Y-107178571D01*
X220357142Y-107750000D02*
X220499999Y-107678571D01*
X220785713Y-107678571D01*
X220928570Y-107750000D01*
X220999999Y-107821429D01*
X221071428Y-107964286D01*
X221071428Y-108392857D01*
X220999999Y-108535714D01*
X220928570Y-108607143D01*
X220785713Y-108678571D01*
X220499999Y-108678571D01*
X220357142Y-108607143D01*
X221714285Y-108535714D02*
X221785713Y-108607143D01*
X221714285Y-108678571D01*
X221642856Y-108607143D01*
X221714285Y-108535714D01*
X221714285Y-108678571D01*
X221714285Y-107750000D02*
X221785713Y-107821429D01*
X221714285Y-107892857D01*
X221642856Y-107821429D01*
X221714285Y-107750000D01*
X221714285Y-107892857D01*
X209000000Y-110442857D02*
X208500000Y-110442857D01*
X208500000Y-111228571D02*
X208500000Y-109728571D01*
X209214286Y-109728571D01*
X209785714Y-111085714D02*
X209857142Y-111157143D01*
X209785714Y-111228571D01*
X209714285Y-111157143D01*
X209785714Y-111085714D01*
X209785714Y-111228571D01*
X211357143Y-111085714D02*
X211285714Y-111157143D01*
X211071428Y-111228571D01*
X210928571Y-111228571D01*
X210714286Y-111157143D01*
X210571428Y-111014286D01*
X210500000Y-110871429D01*
X210428571Y-110585714D01*
X210428571Y-110371429D01*
X210500000Y-110085714D01*
X210571428Y-109942857D01*
X210714286Y-109800000D01*
X210928571Y-109728571D01*
X211071428Y-109728571D01*
X211285714Y-109800000D01*
X211357143Y-109871429D01*
X212642857Y-110228571D02*
X212642857Y-111228571D01*
X212000000Y-110228571D02*
X212000000Y-111014286D01*
X212071428Y-111157143D01*
X212214286Y-111228571D01*
X212428571Y-111228571D01*
X212571428Y-111157143D01*
X212642857Y-111085714D01*
X209000000Y-112992857D02*
X209214286Y-113064286D01*
X209285714Y-113135714D01*
X209357143Y-113278571D01*
X209357143Y-113492857D01*
X209285714Y-113635714D01*
X209214286Y-113707143D01*
X209071428Y-113778571D01*
X208500000Y-113778571D01*
X208500000Y-112278571D01*
X209000000Y-112278571D01*
X209142857Y-112350000D01*
X209214286Y-112421429D01*
X209285714Y-112564286D01*
X209285714Y-112707143D01*
X209214286Y-112850000D01*
X209142857Y-112921429D01*
X209000000Y-112992857D01*
X208500000Y-112992857D01*
X210000000Y-113635714D02*
X210071428Y-113707143D01*
X210000000Y-113778571D01*
X209928571Y-113707143D01*
X210000000Y-113635714D01*
X210000000Y-113778571D01*
X211571429Y-113635714D02*
X211500000Y-113707143D01*
X211285714Y-113778571D01*
X211142857Y-113778571D01*
X210928572Y-113707143D01*
X210785714Y-113564286D01*
X210714286Y-113421429D01*
X210642857Y-113135714D01*
X210642857Y-112921429D01*
X210714286Y-112635714D01*
X210785714Y-112492857D01*
X210928572Y-112350000D01*
X211142857Y-112278571D01*
X211285714Y-112278571D01*
X211500000Y-112350000D01*
X211571429Y-112421429D01*
X212857143Y-112778571D02*
X212857143Y-113778571D01*
X212214286Y-112778571D02*
X212214286Y-113564286D01*
X212285714Y-113707143D01*
X212428572Y-113778571D01*
X212642857Y-113778571D01*
X212785714Y-113707143D01*
X212857143Y-113635714D01*
X209000000Y-115542857D02*
X208500000Y-115542857D01*
X208500000Y-116328571D02*
X208500000Y-114828571D01*
X209214286Y-114828571D01*
X209785714Y-116185714D02*
X209857142Y-116257143D01*
X209785714Y-116328571D01*
X209714285Y-116257143D01*
X209785714Y-116185714D01*
X209785714Y-116328571D01*
X210428571Y-116257143D02*
X210642857Y-116328571D01*
X211000000Y-116328571D01*
X211142857Y-116257143D01*
X211214286Y-116185714D01*
X211285714Y-116042857D01*
X211285714Y-115900000D01*
X211214286Y-115757143D01*
X211142857Y-115685714D01*
X211000000Y-115614286D01*
X210714286Y-115542857D01*
X210571428Y-115471429D01*
X210500000Y-115400000D01*
X210428571Y-115257143D01*
X210428571Y-115114286D01*
X210500000Y-114971429D01*
X210571428Y-114900000D01*
X210714286Y-114828571D01*
X211071428Y-114828571D01*
X211285714Y-114900000D01*
X211928571Y-116328571D02*
X211928571Y-115328571D01*
X211928571Y-114828571D02*
X211857142Y-114900000D01*
X211928571Y-114971429D01*
X211999999Y-114900000D01*
X211928571Y-114828571D01*
X211928571Y-114971429D01*
X212857143Y-116328571D02*
X212714285Y-116257143D01*
X212642857Y-116114286D01*
X212642857Y-114828571D01*
X213428571Y-116328571D02*
X213428571Y-114828571D01*
X213571428Y-115757143D02*
X213999999Y-116328571D01*
X213999999Y-115328571D02*
X213428571Y-115900000D01*
X214571428Y-116257143D02*
X214714285Y-116328571D01*
X215000000Y-116328571D01*
X215142857Y-116257143D01*
X215214285Y-116114286D01*
X215214285Y-116042857D01*
X215142857Y-115900000D01*
X215000000Y-115828571D01*
X214785714Y-115828571D01*
X214642857Y-115757143D01*
X214571428Y-115614286D01*
X214571428Y-115542857D01*
X214642857Y-115400000D01*
X214785714Y-115328571D01*
X215000000Y-115328571D01*
X215142857Y-115400000D01*
X208500000Y-118878571D02*
X208500000Y-117378571D01*
X208857143Y-117378571D01*
X209071428Y-117450000D01*
X209214286Y-117592857D01*
X209285714Y-117735714D01*
X209357143Y-118021429D01*
X209357143Y-118235714D01*
X209285714Y-118521429D01*
X209214286Y-118664286D01*
X209071428Y-118807143D01*
X208857143Y-118878571D01*
X208500000Y-118878571D01*
X210000000Y-118878571D02*
X210000000Y-117878571D01*
X210000000Y-118164286D02*
X210071428Y-118021429D01*
X210142857Y-117950000D01*
X210285714Y-117878571D01*
X210428571Y-117878571D01*
X210928571Y-118878571D02*
X210928571Y-117878571D01*
X210928571Y-117378571D02*
X210857142Y-117450000D01*
X210928571Y-117521429D01*
X210999999Y-117450000D01*
X210928571Y-117378571D01*
X210928571Y-117521429D01*
X211857143Y-118878571D02*
X211714285Y-118807143D01*
X211642857Y-118664286D01*
X211642857Y-117378571D01*
X212642857Y-118878571D02*
X212499999Y-118807143D01*
X212428571Y-118664286D01*
X212428571Y-117378571D01*
X208500000Y-121428571D02*
X208500000Y-119928571D01*
X208857143Y-119928571D01*
X209071428Y-120000000D01*
X209214286Y-120142857D01*
X209285714Y-120285714D01*
X209357143Y-120571429D01*
X209357143Y-120785714D01*
X209285714Y-121071429D01*
X209214286Y-121214286D01*
X209071428Y-121357143D01*
X208857143Y-121428571D01*
X208500000Y-121428571D01*
X210000000Y-121428571D02*
X210000000Y-120428571D01*
X210000000Y-120714286D02*
X210071428Y-120571429D01*
X210142857Y-120500000D01*
X210285714Y-120428571D01*
X210428571Y-120428571D01*
X210928571Y-121428571D02*
X210928571Y-120428571D01*
X210928571Y-119928571D02*
X210857142Y-120000000D01*
X210928571Y-120071429D01*
X210999999Y-120000000D01*
X210928571Y-119928571D01*
X210928571Y-120071429D01*
X211857143Y-121428571D02*
X211714285Y-121357143D01*
X211642857Y-121214286D01*
X211642857Y-119928571D01*
X212642857Y-121428571D02*
X212499999Y-121357143D01*
X212428571Y-121214286D01*
X212428571Y-119928571D01*
X214357142Y-121428571D02*
X214357142Y-119928571D01*
X214857142Y-121000000D01*
X215357142Y-119928571D01*
X215357142Y-121428571D01*
X216714285Y-121428571D02*
X216714285Y-120642857D01*
X216642856Y-120500000D01*
X216499999Y-120428571D01*
X216214285Y-120428571D01*
X216071428Y-120500000D01*
X216714285Y-121357143D02*
X216571428Y-121428571D01*
X216214285Y-121428571D01*
X216071428Y-121357143D01*
X215999999Y-121214286D01*
X215999999Y-121071429D01*
X216071428Y-120928571D01*
X216214285Y-120857143D01*
X216571428Y-120857143D01*
X216714285Y-120785714D01*
X217428571Y-120428571D02*
X217428571Y-121928571D01*
X217428571Y-120500000D02*
X217571428Y-120428571D01*
X217857142Y-120428571D01*
X217999999Y-120500000D01*
X218071428Y-120571429D01*
X218142857Y-120714286D01*
X218142857Y-121142857D01*
X218071428Y-121285714D01*
X217999999Y-121357143D01*
X217857142Y-121428571D01*
X217571428Y-121428571D01*
X217428571Y-121357143D01*
X207357143Y-126528571D02*
X207357143Y-125028571D01*
X207714286Y-125028571D01*
X207928571Y-125100000D01*
X208071429Y-125242857D01*
X208142857Y-125385714D01*
X208214286Y-125671429D01*
X208214286Y-125885714D01*
X208142857Y-126171429D01*
X208071429Y-126314286D01*
X207928571Y-126457143D01*
X207714286Y-126528571D01*
X207357143Y-126528571D01*
X209071429Y-126528571D02*
X208928571Y-126457143D01*
X208857143Y-126385714D01*
X208785714Y-126242857D01*
X208785714Y-125814286D01*
X208857143Y-125671429D01*
X208928571Y-125600000D01*
X209071429Y-125528571D01*
X209285714Y-125528571D01*
X209428571Y-125600000D01*
X209500000Y-125671429D01*
X209571429Y-125814286D01*
X209571429Y-126242857D01*
X209500000Y-126385714D01*
X209428571Y-126457143D01*
X209285714Y-126528571D01*
X209071429Y-126528571D01*
X210857143Y-126457143D02*
X210714286Y-126528571D01*
X210428572Y-126528571D01*
X210285714Y-126457143D01*
X210214286Y-126385714D01*
X210142857Y-126242857D01*
X210142857Y-125814286D01*
X210214286Y-125671429D01*
X210285714Y-125600000D01*
X210428572Y-125528571D01*
X210714286Y-125528571D01*
X210857143Y-125600000D01*
X212642857Y-126528571D02*
X212642857Y-125028571D01*
X213214285Y-125028571D01*
X213357143Y-125100000D01*
X213428571Y-125171429D01*
X213500000Y-125314286D01*
X213500000Y-125528571D01*
X213428571Y-125671429D01*
X213357143Y-125742857D01*
X213214285Y-125814286D01*
X212642857Y-125814286D01*
X214142857Y-126528571D02*
X214142857Y-125028571D01*
X214500000Y-125028571D01*
X214714285Y-125100000D01*
X214857143Y-125242857D01*
X214928571Y-125385714D01*
X215000000Y-125671429D01*
X215000000Y-125885714D01*
X214928571Y-126171429D01*
X214857143Y-126314286D01*
X214714285Y-126457143D01*
X214500000Y-126528571D01*
X214142857Y-126528571D01*
X216142857Y-125742857D02*
X215642857Y-125742857D01*
X215642857Y-126528571D02*
X215642857Y-125028571D01*
X216357143Y-125028571D01*
X216928571Y-126385714D02*
X216999999Y-126457143D01*
X216928571Y-126528571D01*
X216857142Y-126457143D01*
X216928571Y-126385714D01*
X216928571Y-126528571D01*
X216928571Y-125600000D02*
X216999999Y-125671429D01*
X216928571Y-125742857D01*
X216857142Y-125671429D01*
X216928571Y-125600000D01*
X216928571Y-125742857D01*
X209000000Y-128292857D02*
X208500000Y-128292857D01*
X208500000Y-129078571D02*
X208500000Y-127578571D01*
X209214286Y-127578571D01*
X209785714Y-128935714D02*
X209857142Y-129007143D01*
X209785714Y-129078571D01*
X209714285Y-129007143D01*
X209785714Y-128935714D01*
X209785714Y-129078571D01*
X211357143Y-128935714D02*
X211285714Y-129007143D01*
X211071428Y-129078571D01*
X210928571Y-129078571D01*
X210714286Y-129007143D01*
X210571428Y-128864286D01*
X210500000Y-128721429D01*
X210428571Y-128435714D01*
X210428571Y-128221429D01*
X210500000Y-127935714D01*
X210571428Y-127792857D01*
X210714286Y-127650000D01*
X210928571Y-127578571D01*
X211071428Y-127578571D01*
X211285714Y-127650000D01*
X211357143Y-127721429D01*
X212642857Y-128078571D02*
X212642857Y-129078571D01*
X212000000Y-128078571D02*
X212000000Y-128864286D01*
X212071428Y-129007143D01*
X212214286Y-129078571D01*
X212428571Y-129078571D01*
X212571428Y-129007143D01*
X212642857Y-128935714D01*
X209000000Y-130842857D02*
X209214286Y-130914286D01*
X209285714Y-130985714D01*
X209357143Y-131128571D01*
X209357143Y-131342857D01*
X209285714Y-131485714D01*
X209214286Y-131557143D01*
X209071428Y-131628571D01*
X208500000Y-131628571D01*
X208500000Y-130128571D01*
X209000000Y-130128571D01*
X209142857Y-130200000D01*
X209214286Y-130271429D01*
X209285714Y-130414286D01*
X209285714Y-130557143D01*
X209214286Y-130700000D01*
X209142857Y-130771429D01*
X209000000Y-130842857D01*
X208500000Y-130842857D01*
X210000000Y-131485714D02*
X210071428Y-131557143D01*
X210000000Y-131628571D01*
X209928571Y-131557143D01*
X210000000Y-131485714D01*
X210000000Y-131628571D01*
X211571429Y-131485714D02*
X211500000Y-131557143D01*
X211285714Y-131628571D01*
X211142857Y-131628571D01*
X210928572Y-131557143D01*
X210785714Y-131414286D01*
X210714286Y-131271429D01*
X210642857Y-130985714D01*
X210642857Y-130771429D01*
X210714286Y-130485714D01*
X210785714Y-130342857D01*
X210928572Y-130200000D01*
X211142857Y-130128571D01*
X211285714Y-130128571D01*
X211500000Y-130200000D01*
X211571429Y-130271429D01*
X212857143Y-130628571D02*
X212857143Y-131628571D01*
X212214286Y-130628571D02*
X212214286Y-131414286D01*
X212285714Y-131557143D01*
X212428572Y-131628571D01*
X212642857Y-131628571D01*
X212785714Y-131557143D01*
X212857143Y-131485714D01*
X209000000Y-133392857D02*
X208500000Y-133392857D01*
X208500000Y-134178571D02*
X208500000Y-132678571D01*
X209214286Y-132678571D01*
X209785714Y-134035714D02*
X209857142Y-134107143D01*
X209785714Y-134178571D01*
X209714285Y-134107143D01*
X209785714Y-134035714D01*
X209785714Y-134178571D01*
X210428571Y-134107143D02*
X210642857Y-134178571D01*
X211000000Y-134178571D01*
X211142857Y-134107143D01*
X211214286Y-134035714D01*
X211285714Y-133892857D01*
X211285714Y-133750000D01*
X211214286Y-133607143D01*
X211142857Y-133535714D01*
X211000000Y-133464286D01*
X210714286Y-133392857D01*
X210571428Y-133321429D01*
X210500000Y-133250000D01*
X210428571Y-133107143D01*
X210428571Y-132964286D01*
X210500000Y-132821429D01*
X210571428Y-132750000D01*
X210714286Y-132678571D01*
X211071428Y-132678571D01*
X211285714Y-132750000D01*
X211928571Y-134178571D02*
X211928571Y-133178571D01*
X211928571Y-132678571D02*
X211857142Y-132750000D01*
X211928571Y-132821429D01*
X211999999Y-132750000D01*
X211928571Y-132678571D01*
X211928571Y-132821429D01*
X212857143Y-134178571D02*
X212714285Y-134107143D01*
X212642857Y-133964286D01*
X212642857Y-132678571D01*
X213428571Y-134178571D02*
X213428571Y-132678571D01*
X213571428Y-133607143D02*
X213999999Y-134178571D01*
X213999999Y-133178571D02*
X213428571Y-133750000D01*
X214571428Y-134107143D02*
X214714285Y-134178571D01*
X215000000Y-134178571D01*
X215142857Y-134107143D01*
X215214285Y-133964286D01*
X215214285Y-133892857D01*
X215142857Y-133750000D01*
X215000000Y-133678571D01*
X214785714Y-133678571D01*
X214642857Y-133607143D01*
X214571428Y-133464286D01*
X214571428Y-133392857D01*
X214642857Y-133250000D01*
X214785714Y-133178571D01*
X215000000Y-133178571D01*
X215142857Y-133250000D01*
X209000000Y-135942857D02*
X208500000Y-135942857D01*
X208500000Y-136728571D02*
X208500000Y-135228571D01*
X209214286Y-135228571D01*
X209785714Y-136585714D02*
X209857142Y-136657143D01*
X209785714Y-136728571D01*
X209714285Y-136657143D01*
X209785714Y-136585714D01*
X209785714Y-136728571D01*
X211000000Y-135942857D02*
X210500000Y-135942857D01*
X210500000Y-136728571D02*
X210500000Y-135228571D01*
X211214286Y-135228571D01*
X212428571Y-136728571D02*
X212428571Y-135942857D01*
X212357142Y-135800000D01*
X212214285Y-135728571D01*
X211928571Y-135728571D01*
X211785714Y-135800000D01*
X212428571Y-136657143D02*
X212285714Y-136728571D01*
X211928571Y-136728571D01*
X211785714Y-136657143D01*
X211714285Y-136514286D01*
X211714285Y-136371429D01*
X211785714Y-136228571D01*
X211928571Y-136157143D01*
X212285714Y-136157143D01*
X212428571Y-136085714D01*
X213142857Y-136728571D02*
X213142857Y-135228571D01*
X213142857Y-135800000D02*
X213285714Y-135728571D01*
X213571428Y-135728571D01*
X213714285Y-135800000D01*
X213785714Y-135871429D01*
X213857143Y-136014286D01*
X213857143Y-136442857D01*
X213785714Y-136585714D01*
X213714285Y-136657143D01*
X213571428Y-136728571D01*
X213285714Y-136728571D01*
X213142857Y-136657143D01*
X85928573Y-24328571D02*
X85071430Y-24328571D01*
X85500002Y-24328571D02*
X85500002Y-22828571D01*
X85357145Y-23042857D01*
X85214287Y-23185714D01*
X85071430Y-23257143D01*
X87285716Y-22828571D02*
X86571430Y-22828571D01*
X86500001Y-23542857D01*
X86571430Y-23471429D01*
X86714287Y-23400000D01*
X87071430Y-23400000D01*
X87214287Y-23471429D01*
X87285716Y-23542857D01*
X87357144Y-23685714D01*
X87357144Y-24042857D01*
X87285716Y-24185714D01*
X87214287Y-24257143D01*
X87071430Y-24328571D01*
X86714287Y-24328571D01*
X86571430Y-24257143D01*
X86500001Y-24185714D01*
X88285715Y-22828571D02*
X88428572Y-22828571D01*
X88571429Y-22900000D01*
X88642858Y-22971429D01*
X88714287Y-23114286D01*
X88785715Y-23400000D01*
X88785715Y-23757143D01*
X88714287Y-24042857D01*
X88642858Y-24185714D01*
X88571429Y-24257143D01*
X88428572Y-24328571D01*
X88285715Y-24328571D01*
X88142858Y-24257143D01*
X88071429Y-24185714D01*
X88000001Y-24042857D01*
X87928572Y-23757143D01*
X87928572Y-23400000D01*
X88000001Y-23114286D01*
X88071429Y-22971429D01*
X88142858Y-22900000D01*
X88285715Y-22828571D01*
X89500000Y-24257143D02*
X89500000Y-24328571D01*
X89428572Y-24471429D01*
X89357143Y-24542857D01*
X90428572Y-22828571D02*
X90571429Y-22828571D01*
X90714286Y-22900000D01*
X90785715Y-22971429D01*
X90857144Y-23114286D01*
X90928572Y-23400000D01*
X90928572Y-23757143D01*
X90857144Y-24042857D01*
X90785715Y-24185714D01*
X90714286Y-24257143D01*
X90571429Y-24328571D01*
X90428572Y-24328571D01*
X90285715Y-24257143D01*
X90214286Y-24185714D01*
X90142858Y-24042857D01*
X90071429Y-23757143D01*
X90071429Y-23400000D01*
X90142858Y-23114286D01*
X90214286Y-22971429D01*
X90285715Y-22900000D01*
X90428572Y-22828571D01*
X91857143Y-22828571D02*
X92000000Y-22828571D01*
X92142857Y-22900000D01*
X92214286Y-22971429D01*
X92285715Y-23114286D01*
X92357143Y-23400000D01*
X92357143Y-23757143D01*
X92285715Y-24042857D01*
X92214286Y-24185714D01*
X92142857Y-24257143D01*
X92000000Y-24328571D01*
X91857143Y-24328571D01*
X91714286Y-24257143D01*
X91642857Y-24185714D01*
X91571429Y-24042857D01*
X91500000Y-23757143D01*
X91500000Y-23400000D01*
X91571429Y-23114286D01*
X91642857Y-22971429D01*
X91714286Y-22900000D01*
X91857143Y-22828571D01*
X93285714Y-22828571D02*
X93428571Y-22828571D01*
X93571428Y-22900000D01*
X93642857Y-22971429D01*
X93714286Y-23114286D01*
X93785714Y-23400000D01*
X93785714Y-23757143D01*
X93714286Y-24042857D01*
X93642857Y-24185714D01*
X93571428Y-24257143D01*
X93428571Y-24328571D01*
X93285714Y-24328571D01*
X93142857Y-24257143D01*
X93071428Y-24185714D01*
X93000000Y-24042857D01*
X92928571Y-23757143D01*
X92928571Y-23400000D01*
X93000000Y-23114286D01*
X93071428Y-22971429D01*
X93142857Y-22900000D01*
X93285714Y-22828571D01*
X95571428Y-24328571D02*
X95571428Y-23328571D01*
X95571428Y-23471429D02*
X95642856Y-23400000D01*
X95785714Y-23328571D01*
X95999999Y-23328571D01*
X96142856Y-23400000D01*
X96214285Y-23542857D01*
X96214285Y-24328571D01*
X96214285Y-23542857D02*
X96285714Y-23400000D01*
X96428571Y-23328571D01*
X96642856Y-23328571D01*
X96785714Y-23400000D01*
X96857142Y-23542857D01*
X96857142Y-24328571D01*
X97571428Y-24328571D02*
X97571428Y-23328571D01*
X97571428Y-23471429D02*
X97642856Y-23400000D01*
X97785714Y-23328571D01*
X97999999Y-23328571D01*
X98142856Y-23400000D01*
X98214285Y-23542857D01*
X98214285Y-24328571D01*
X98214285Y-23542857D02*
X98285714Y-23400000D01*
X98428571Y-23328571D01*
X98642856Y-23328571D01*
X98785714Y-23400000D01*
X98857142Y-23542857D01*
X98857142Y-24328571D01*
X167000000Y-25000000D02*
X17000000Y-25000000D01*
X167000000Y-30000000D02*
X167000000Y-22300000D01*
X17000000Y-30000000D02*
X17000000Y-22300000D01*
X17000000Y-25000000D02*
X18126504Y-24413579D01*
X17000000Y-25000000D02*
X18126504Y-25586421D01*
X167000000Y-25000000D02*
X165873496Y-24413579D01*
X167000000Y-25000000D02*
X165873496Y-25586421D01*
D11*
X26500000Y-44500000D02*
X26500000Y-46500000D01*
X26500000Y-46500000D02*
X24000000Y-49000000D01*
X24000000Y-49000000D02*
X17500000Y-49000000D01*
X35000000Y-44500000D02*
X35000000Y-30500000D01*
X26500000Y-44500000D02*
X35000000Y-44500000D01*
X153000000Y-67500000D02*
X153000000Y-88000000D01*
X92500000Y-157000000D02*
X92500000Y-171000000D01*
X140000000Y-111500000D02*
X151500000Y-111500000D01*
X140000000Y-88000000D02*
X140000000Y-111500000D01*
X17500000Y-49000000D02*
X17500000Y-67000000D01*
X83000000Y-30500000D02*
X35000000Y-30500000D01*
X130000000Y-37500000D02*
X130000000Y-30500000D01*
X151500000Y-133500000D02*
X151500000Y-111500000D01*
X160500000Y-170000000D02*
X166500000Y-170000000D01*
X158000000Y-179500000D02*
X158000000Y-172500000D01*
X34000000Y-157000000D02*
X92500000Y-157000000D01*
X34000000Y-157000000D02*
X34000000Y-169500000D01*
X26500000Y-173000000D02*
X30500000Y-173000000D01*
X17500000Y-135500000D02*
X17500000Y-170500000D01*
X68000000Y-119000000D02*
X17500000Y-119000000D01*
X68000000Y-114000000D02*
X68000000Y-119000000D01*
X91000000Y-114000000D02*
X68000000Y-114000000D01*
X91000000Y-119500000D02*
X91000000Y-114000000D01*
X119000000Y-119500000D02*
X91000000Y-119500000D01*
X119000000Y-86500000D02*
X119000000Y-119500000D01*
X33500000Y-86500000D02*
X119000000Y-86500000D01*
X27000000Y-117000000D02*
X27000000Y-88000000D01*
X65500000Y-117000000D02*
X27000000Y-117000000D01*
X65500000Y-112000000D02*
X65500000Y-117000000D01*
X93000000Y-112000000D02*
X65500000Y-112000000D01*
X93000000Y-117500000D02*
X93000000Y-112000000D01*
X117000000Y-117500000D02*
X93000000Y-117500000D01*
X117000000Y-88000000D02*
X117000000Y-117500000D01*
X27000000Y-88000000D02*
X117000000Y-88000000D01*
X102500000Y-170000000D02*
X128000000Y-170000000D01*
X158000000Y-172500000D02*
X160500000Y-170000000D01*
D13*
X174028571Y-111071427D02*
X174028571Y-111928570D01*
X174028571Y-111499998D02*
X172528571Y-111499998D01*
X172742857Y-111642855D01*
X172885714Y-111785713D01*
X172957143Y-111928570D01*
X172528571Y-109714284D02*
X172528571Y-110428570D01*
X173242857Y-110499999D01*
X173171429Y-110428570D01*
X173100000Y-110285713D01*
X173100000Y-109928570D01*
X173171429Y-109785713D01*
X173242857Y-109714284D01*
X173385714Y-109642856D01*
X173742857Y-109642856D01*
X173885714Y-109714284D01*
X173957143Y-109785713D01*
X174028571Y-109928570D01*
X174028571Y-110285713D01*
X173957143Y-110428570D01*
X173885714Y-110499999D01*
X172528571Y-108714285D02*
X172528571Y-108571428D01*
X172600000Y-108428571D01*
X172671429Y-108357142D01*
X172814286Y-108285713D01*
X173100000Y-108214285D01*
X173457143Y-108214285D01*
X173742857Y-108285713D01*
X173885714Y-108357142D01*
X173957143Y-108428571D01*
X174028571Y-108571428D01*
X174028571Y-108714285D01*
X173957143Y-108857142D01*
X173885714Y-108928571D01*
X173742857Y-108999999D01*
X173457143Y-109071428D01*
X173100000Y-109071428D01*
X172814286Y-108999999D01*
X172671429Y-108928571D01*
X172600000Y-108857142D01*
X172528571Y-108714285D01*
X173957143Y-107500000D02*
X174028571Y-107500000D01*
X174171429Y-107571428D01*
X174242857Y-107642857D01*
X172528571Y-106571428D02*
X172528571Y-106428571D01*
X172600000Y-106285714D01*
X172671429Y-106214285D01*
X172814286Y-106142856D01*
X173100000Y-106071428D01*
X173457143Y-106071428D01*
X173742857Y-106142856D01*
X173885714Y-106214285D01*
X173957143Y-106285714D01*
X174028571Y-106428571D01*
X174028571Y-106571428D01*
X173957143Y-106714285D01*
X173885714Y-106785714D01*
X173742857Y-106857142D01*
X173457143Y-106928571D01*
X173100000Y-106928571D01*
X172814286Y-106857142D01*
X172671429Y-106785714D01*
X172600000Y-106714285D01*
X172528571Y-106571428D01*
X172528571Y-105142857D02*
X172528571Y-105000000D01*
X172600000Y-104857143D01*
X172671429Y-104785714D01*
X172814286Y-104714285D01*
X173100000Y-104642857D01*
X173457143Y-104642857D01*
X173742857Y-104714285D01*
X173885714Y-104785714D01*
X173957143Y-104857143D01*
X174028571Y-105000000D01*
X174028571Y-105142857D01*
X173957143Y-105285714D01*
X173885714Y-105357143D01*
X173742857Y-105428571D01*
X173457143Y-105500000D01*
X173100000Y-105500000D01*
X172814286Y-105428571D01*
X172671429Y-105357143D01*
X172600000Y-105285714D01*
X172528571Y-105142857D01*
X172528571Y-103714286D02*
X172528571Y-103571429D01*
X172600000Y-103428572D01*
X172671429Y-103357143D01*
X172814286Y-103285714D01*
X173100000Y-103214286D01*
X173457143Y-103214286D01*
X173742857Y-103285714D01*
X173885714Y-103357143D01*
X173957143Y-103428572D01*
X174028571Y-103571429D01*
X174028571Y-103714286D01*
X173957143Y-103857143D01*
X173885714Y-103928572D01*
X173742857Y-104000000D01*
X173457143Y-104071429D01*
X173100000Y-104071429D01*
X172814286Y-104000000D01*
X172671429Y-103928572D01*
X172600000Y-103857143D01*
X172528571Y-103714286D01*
X174028571Y-101428572D02*
X173028571Y-101428572D01*
X173171429Y-101428572D02*
X173100000Y-101357144D01*
X173028571Y-101214286D01*
X173028571Y-101000001D01*
X173100000Y-100857144D01*
X173242857Y-100785715D01*
X174028571Y-100785715D01*
X173242857Y-100785715D02*
X173100000Y-100714286D01*
X173028571Y-100571429D01*
X173028571Y-100357144D01*
X173100000Y-100214286D01*
X173242857Y-100142858D01*
X174028571Y-100142858D01*
X174028571Y-99428572D02*
X173028571Y-99428572D01*
X173171429Y-99428572D02*
X173100000Y-99357144D01*
X173028571Y-99214286D01*
X173028571Y-99000001D01*
X173100000Y-98857144D01*
X173242857Y-98785715D01*
X174028571Y-98785715D01*
X173242857Y-98785715D02*
X173100000Y-98714286D01*
X173028571Y-98571429D01*
X173028571Y-98357144D01*
X173100000Y-98214286D01*
X173242857Y-98142858D01*
X174028571Y-98142858D01*
X172000000Y-180000000D02*
X172000000Y-30000000D01*
X167000000Y-180000000D02*
X174700000Y-180000000D01*
X167000000Y-30000000D02*
X174700000Y-30000000D01*
X172000000Y-30000000D02*
X172586421Y-31126504D01*
X172000000Y-30000000D02*
X171413579Y-31126504D01*
X172000000Y-180000000D02*
X172586421Y-178873496D01*
X172000000Y-180000000D02*
X171413579Y-178873496D01*
D12*
X17000000Y-180000000D02*
X17000000Y-30000000D01*
X167000000Y-180000000D02*
X17000000Y-180000000D01*
X167000000Y-30000000D02*
X167000000Y-180000000D01*
X17000000Y-30000000D02*
X167000000Y-30000000D01*
D10*
X61750000Y-121400000D02*
X61750000Y-124600000D01*
X57250000Y-121400000D02*
X61750000Y-121400000D01*
X57250000Y-124600000D02*
X57250000Y-121400000D01*
X61750000Y-124600000D02*
X57250000Y-124600000D01*
X59600000Y-84300000D02*
X59600000Y-82700000D01*
X59600000Y-82700000D02*
X56400000Y-82700000D01*
X56400000Y-82700000D02*
X56400000Y-84300000D01*
X56400000Y-84300000D02*
X59600000Y-84300000D01*
X59280000Y-84300000D02*
X59280000Y-82700000D01*
X59120000Y-84300000D02*
X59120000Y-82700000D01*
X140700000Y-90900000D02*
X142300000Y-90900000D01*
X140700000Y-94100000D02*
X140700000Y-90900000D01*
X142300000Y-94100000D02*
X140700000Y-94100000D01*
X142300000Y-90900000D02*
X142300000Y-94100000D01*
D12*
X32750000Y-105500000D02*
G75*
G03X32750000Y-105500000I-250000J0D01*
G01*
X32050000Y-105050000D02*
X32050000Y-109950000D01*
X35950000Y-105050000D02*
X32050000Y-105050000D01*
X35950000Y-109950000D02*
X35950000Y-105050000D01*
X32050000Y-109950000D02*
X35950000Y-109950000D01*
D10*
X45050000Y-100700000D02*
X47500000Y-100700000D01*
X44480000Y-100150000D02*
X44480000Y-99300000D01*
X45050000Y-100700000D02*
X44480000Y-100150000D01*
X44480000Y-99300000D02*
X47520000Y-99300000D01*
X47520000Y-100700000D02*
X47520000Y-99300000D01*
D12*
X110750000Y-147000000D02*
G75*
G03X110750000Y-147000000I-250000J0D01*
G01*
X110050000Y-146550000D02*
X110050000Y-151450000D01*
X113950000Y-146550000D02*
X110050000Y-146550000D01*
X113950000Y-151450000D02*
X113950000Y-146550000D01*
X110050000Y-151450000D02*
X113950000Y-151450000D01*
X136250000Y-126665000D02*
G75*
G03X136250000Y-126665000I-250000J0D01*
G01*
X135550000Y-127115000D02*
X140450000Y-127115000D01*
X135550000Y-123215000D02*
X135550000Y-127115000D01*
X140450000Y-123215000D02*
X135550000Y-123215000D01*
X140450000Y-127115000D02*
X140450000Y-123215000D01*
X75500000Y-93095000D02*
G75*
G03X75500000Y-93095000I-250000J0D01*
G01*
X74800000Y-101355000D02*
X74800000Y-92645000D01*
X78700000Y-92645000D02*
X74800000Y-92645000D01*
X78700000Y-101355000D02*
X78700000Y-92645000D01*
X74800000Y-101355000D02*
X78700000Y-101355000D01*
X67345000Y-137000000D02*
G75*
G03X67345000Y-137000000I-250000J0D01*
G01*
X75355000Y-137450000D02*
X66645000Y-137450000D01*
X66645000Y-133550000D02*
X66645000Y-137450000D01*
X75355000Y-133550000D02*
X66645000Y-133550000D01*
X75355000Y-137450000D02*
X75355000Y-133550000D01*
X138322281Y-74244895D02*
G75*
G03X138322281Y-74244895I-250000J0D01*
G01*
X137622281Y-83774895D02*
X137622281Y-73794895D01*
X141522281Y-73794895D02*
X137622281Y-73794895D01*
X141522281Y-83774895D02*
X141522281Y-73794895D01*
X137622281Y-83774895D02*
X141522281Y-83774895D01*
D10*
X105125000Y-39000000D02*
X103875000Y-39000000D01*
X105125000Y-37000000D02*
X105125000Y-39000000D01*
X103875000Y-37000000D02*
X105125000Y-37000000D01*
X103875000Y-39000000D02*
X103875000Y-37000000D01*
X85625000Y-35500000D02*
X84375000Y-35500000D01*
X85625000Y-33500000D02*
X85625000Y-35500000D01*
X84375000Y-33500000D02*
X85625000Y-33500000D01*
X84375000Y-35500000D02*
X84375000Y-33500000D01*
X113875000Y-77000000D02*
X115125000Y-77000000D01*
X113875000Y-79000000D02*
X113875000Y-77000000D01*
X115125000Y-79000000D02*
X113875000Y-79000000D01*
X115125000Y-77000000D02*
X115125000Y-79000000D01*
X131800000Y-99600000D02*
X131800000Y-100400000D01*
X130200000Y-99600000D02*
X131800000Y-99600000D01*
X130200000Y-100400000D02*
X130200000Y-99600000D01*
X131800000Y-100400000D02*
X130200000Y-100400000D01*
X131800000Y-105600000D02*
X131800000Y-106400000D01*
X130200000Y-105600000D02*
X131800000Y-105600000D01*
X130200000Y-106400000D02*
X130200000Y-105600000D01*
X131800000Y-106400000D02*
X130200000Y-106400000D01*
X42375000Y-83000000D02*
X43625000Y-83000000D01*
X42375000Y-85000000D02*
X42375000Y-83000000D01*
X43625000Y-85000000D02*
X42375000Y-85000000D01*
X43625000Y-83000000D02*
X43625000Y-85000000D01*
X38625000Y-85000000D02*
X37375000Y-85000000D01*
X38625000Y-83000000D02*
X38625000Y-85000000D01*
X37375000Y-83000000D02*
X38625000Y-83000000D01*
X37375000Y-85000000D02*
X37375000Y-83000000D01*
X39875000Y-83000000D02*
X41125000Y-83000000D01*
X39875000Y-85000000D02*
X39875000Y-83000000D01*
X41125000Y-85000000D02*
X39875000Y-85000000D01*
X41125000Y-83000000D02*
X41125000Y-85000000D01*
X66500000Y-70625000D02*
X66500000Y-69375000D01*
X68500000Y-70625000D02*
X66500000Y-70625000D01*
X68500000Y-69375000D02*
X68500000Y-70625000D01*
X66500000Y-69375000D02*
X68500000Y-69375000D01*
X33550000Y-72100000D02*
X33550000Y-72900000D01*
X31950000Y-72100000D02*
X33550000Y-72100000D01*
X31950000Y-72900000D02*
X31950000Y-72100000D01*
X33550000Y-72900000D02*
X31950000Y-72900000D01*
X33600000Y-79100000D02*
X33600000Y-79900000D01*
X32000000Y-79100000D02*
X33600000Y-79100000D01*
X32000000Y-79900000D02*
X32000000Y-79100000D01*
X33600000Y-79900000D02*
X32000000Y-79900000D01*
X112750000Y-66625000D02*
X112750000Y-65375000D01*
X114750000Y-66625000D02*
X112750000Y-66625000D01*
X114750000Y-65375000D02*
X114750000Y-66625000D01*
X112750000Y-65375000D02*
X114750000Y-65375000D01*
X31375000Y-153500000D02*
X32625000Y-153500000D01*
X31375000Y-155500000D02*
X31375000Y-153500000D01*
X32625000Y-155500000D02*
X31375000Y-155500000D01*
X32625000Y-153500000D02*
X32625000Y-155500000D01*
X32625000Y-163000000D02*
X31375000Y-163000000D01*
X32625000Y-161000000D02*
X32625000Y-163000000D01*
X31375000Y-161000000D02*
X32625000Y-161000000D01*
X31375000Y-163000000D02*
X31375000Y-161000000D01*
X28500000Y-94125000D02*
X28500000Y-92875000D01*
X30500000Y-94125000D02*
X28500000Y-94125000D01*
X30500000Y-92875000D02*
X30500000Y-94125000D01*
X28500000Y-92875000D02*
X30500000Y-92875000D01*
X65500000Y-94625000D02*
X65500000Y-93375000D01*
X67500000Y-94625000D02*
X65500000Y-94625000D01*
X67500000Y-93375000D02*
X67500000Y-94625000D01*
X65500000Y-93375000D02*
X67500000Y-93375000D01*
X101125000Y-104000000D02*
X99875000Y-104000000D01*
X101125000Y-102000000D02*
X101125000Y-104000000D01*
X99875000Y-102000000D02*
X101125000Y-102000000D01*
X99875000Y-104000000D02*
X99875000Y-102000000D01*
X109625000Y-104000000D02*
X108375000Y-104000000D01*
X109625000Y-102000000D02*
X109625000Y-104000000D01*
X108375000Y-102000000D02*
X109625000Y-102000000D01*
X108375000Y-104000000D02*
X108375000Y-102000000D01*
X101125000Y-111000000D02*
X99875000Y-111000000D01*
X101125000Y-109000000D02*
X101125000Y-111000000D01*
X99875000Y-109000000D02*
X101125000Y-109000000D01*
X99875000Y-111000000D02*
X99875000Y-109000000D01*
X109625000Y-111000000D02*
X108375000Y-111000000D01*
X109625000Y-109000000D02*
X109625000Y-111000000D01*
X108375000Y-109000000D02*
X109625000Y-109000000D01*
X108375000Y-111000000D02*
X108375000Y-109000000D01*
X77750000Y-105375000D02*
X77750000Y-106625000D01*
X75750000Y-105375000D02*
X77750000Y-105375000D01*
X75750000Y-106625000D02*
X75750000Y-105375000D01*
X77750000Y-106625000D02*
X75750000Y-106625000D01*
X140572281Y-71159895D02*
X140572281Y-72409895D01*
X138572281Y-71159895D02*
X140572281Y-71159895D01*
X138572281Y-72409895D02*
X138572281Y-71159895D01*
X140572281Y-72409895D02*
X138572281Y-72409895D01*
X99875000Y-77000000D02*
X101125000Y-77000000D01*
X99875000Y-79000000D02*
X99875000Y-77000000D01*
X101125000Y-79000000D02*
X99875000Y-79000000D01*
X101125000Y-77000000D02*
X101125000Y-79000000D01*
X39750000Y-113625000D02*
X39750000Y-112375000D01*
X41750000Y-113625000D02*
X39750000Y-113625000D01*
X41750000Y-112375000D02*
X41750000Y-113625000D01*
X39750000Y-112375000D02*
X41750000Y-112375000D01*
X47100000Y-107700000D02*
X47900000Y-107700000D01*
X47100000Y-109300000D02*
X47100000Y-107700000D01*
X47900000Y-109300000D02*
X47100000Y-109300000D01*
X47900000Y-107700000D02*
X47900000Y-109300000D01*
X58500000Y-99625000D02*
X58500000Y-98375000D01*
X60500000Y-99625000D02*
X58500000Y-99625000D01*
X60500000Y-98375000D02*
X60500000Y-99625000D01*
X58500000Y-98375000D02*
X60500000Y-98375000D01*
X28500000Y-99625000D02*
X28500000Y-98375000D01*
X30500000Y-99625000D02*
X28500000Y-99625000D01*
X30500000Y-98375000D02*
X30500000Y-99625000D01*
X28500000Y-98375000D02*
X30500000Y-98375000D01*
X67625000Y-99000000D02*
X68875000Y-99000000D01*
X67625000Y-101000000D02*
X67625000Y-99000000D01*
X68875000Y-101000000D02*
X67625000Y-101000000D01*
X68875000Y-99000000D02*
X68875000Y-101000000D01*
X63875000Y-134500000D02*
X65125000Y-134500000D01*
X63875000Y-136500000D02*
X63875000Y-134500000D01*
X65125000Y-136500000D02*
X63875000Y-136500000D01*
X65125000Y-134500000D02*
X65125000Y-136500000D01*
X43000000Y-135625000D02*
X43000000Y-134375000D01*
X45000000Y-135625000D02*
X43000000Y-135625000D01*
X45000000Y-134375000D02*
X45000000Y-135625000D01*
X43000000Y-134375000D02*
X45000000Y-134375000D01*
X128500000Y-163125000D02*
X128500000Y-161875000D01*
X130500000Y-163125000D02*
X128500000Y-163125000D01*
X130500000Y-161875000D02*
X130500000Y-163125000D01*
X128500000Y-161875000D02*
X130500000Y-161875000D01*
X138000000Y-161875000D02*
X138000000Y-163125000D01*
X136000000Y-161875000D02*
X138000000Y-161875000D01*
X136000000Y-163125000D02*
X136000000Y-161875000D01*
X138000000Y-163125000D02*
X136000000Y-163125000D01*
X113000000Y-155875000D02*
X113000000Y-157125000D01*
X111000000Y-155875000D02*
X113000000Y-155875000D01*
X111000000Y-157125000D02*
X111000000Y-155875000D01*
X113000000Y-157125000D02*
X111000000Y-157125000D01*
X148000000Y-130625000D02*
X148000000Y-129375000D01*
X150000000Y-130625000D02*
X148000000Y-130625000D01*
X150000000Y-129375000D02*
X150000000Y-130625000D01*
X148000000Y-129375000D02*
X150000000Y-129375000D01*
X132875000Y-124000000D02*
X134125000Y-124000000D01*
X132875000Y-126000000D02*
X132875000Y-124000000D01*
X134125000Y-126000000D02*
X132875000Y-126000000D01*
X134125000Y-124000000D02*
X134125000Y-126000000D01*
X130200000Y-97400000D02*
X130200000Y-96600000D01*
X131800000Y-97400000D02*
X130200000Y-97400000D01*
X131800000Y-96600000D02*
X131800000Y-97400000D01*
X130200000Y-96600000D02*
X131800000Y-96600000D01*
X33550000Y-70100000D02*
X33550000Y-70900000D01*
X31950000Y-70100000D02*
X33550000Y-70100000D01*
X31950000Y-70900000D02*
X31950000Y-70100000D01*
X33550000Y-70900000D02*
X31950000Y-70900000D01*
X22200000Y-83900000D02*
X22200000Y-83100000D01*
X23800000Y-83900000D02*
X22200000Y-83900000D01*
X23800000Y-83100000D02*
X23800000Y-83900000D01*
X22200000Y-83100000D02*
X23800000Y-83100000D01*
X60700000Y-94400000D02*
X60700000Y-93600000D01*
X62300000Y-94400000D02*
X60700000Y-94400000D01*
X62300000Y-93600000D02*
X62300000Y-94400000D01*
X60700000Y-93600000D02*
X62300000Y-93600000D01*
X148200000Y-128400000D02*
X148200000Y-127600000D01*
X149800000Y-128400000D02*
X148200000Y-128400000D01*
X149800000Y-127600000D02*
X149800000Y-128400000D01*
X148200000Y-127600000D02*
X149800000Y-127600000D01*
X149800000Y-116600000D02*
X149800000Y-117400000D01*
X148200000Y-116600000D02*
X149800000Y-116600000D01*
X148200000Y-117400000D02*
X148200000Y-116600000D01*
X149800000Y-117400000D02*
X148200000Y-117400000D01*
X152900000Y-154825000D02*
X152900000Y-155675000D01*
X153400000Y-156175000D02*
X155100000Y-156175000D01*
X152900000Y-154825000D02*
X155100000Y-154825000D01*
X155100000Y-154825000D02*
X155100000Y-156175000D01*
X152900000Y-155675000D02*
X153400000Y-156175000D01*
X112800000Y-76400000D02*
X111200000Y-76400000D01*
X111200000Y-76400000D02*
X111200000Y-79600000D01*
X111200000Y-79600000D02*
X112800000Y-79600000D01*
X112800000Y-79600000D02*
X112800000Y-76400000D01*
X112800000Y-76720000D02*
X111200000Y-76720000D01*
X112800000Y-76880000D02*
X111200000Y-76880000D01*
X45600000Y-138300000D02*
X45600000Y-136700000D01*
X45600000Y-136700000D02*
X42400000Y-136700000D01*
X42400000Y-136700000D02*
X42400000Y-138300000D01*
X42400000Y-138300000D02*
X45600000Y-138300000D01*
X45280000Y-138300000D02*
X45280000Y-136700000D01*
X45120000Y-138300000D02*
X45120000Y-136700000D01*
X104300000Y-76400000D02*
X102700000Y-76400000D01*
X102700000Y-76400000D02*
X102700000Y-79600000D01*
X102700000Y-79600000D02*
X104300000Y-79600000D01*
X104300000Y-79600000D02*
X104300000Y-76400000D01*
X104300000Y-76720000D02*
X102700000Y-76720000D01*
X104300000Y-76880000D02*
X102700000Y-76880000D01*
X113600000Y-154300000D02*
X113600000Y-152700000D01*
X113600000Y-152700000D02*
X110400000Y-152700000D01*
X110400000Y-152700000D02*
X110400000Y-154300000D01*
X110400000Y-154300000D02*
X113600000Y-154300000D01*
X113280000Y-154300000D02*
X113280000Y-152700000D01*
X113120000Y-154300000D02*
X113120000Y-152700000D01*
X147400000Y-131700000D02*
X147400000Y-133300000D01*
X147400000Y-133300000D02*
X150600000Y-133300000D01*
X150600000Y-133300000D02*
X150600000Y-131700000D01*
X150600000Y-131700000D02*
X147400000Y-131700000D01*
X147720000Y-131700000D02*
X147720000Y-133300000D01*
X147880000Y-131700000D02*
X147880000Y-133300000D01*
D12*
X58250000Y-104405000D02*
G75*
G03X58250000Y-104405000I-250000J0D01*
G01*
X57550000Y-103955000D02*
X57550000Y-108855000D01*
X61450000Y-103955000D02*
X57550000Y-103955000D01*
X61450000Y-108855000D02*
X61450000Y-103955000D01*
X57550000Y-108855000D02*
X61450000Y-108855000D01*
D10*
X75150000Y-102950000D02*
X75150000Y-104550000D01*
X75150000Y-104550000D02*
X78350000Y-104550000D01*
X78350000Y-104550000D02*
X78350000Y-102950000D01*
X78350000Y-102950000D02*
X75150000Y-102950000D01*
X75470000Y-102950000D02*
X75470000Y-104550000D01*
X75630000Y-102950000D02*
X75630000Y-104550000D01*
X35000000Y-114875000D02*
X35000000Y-116125000D01*
X33000000Y-114875000D02*
X35000000Y-114875000D01*
X33000000Y-116125000D02*
X33000000Y-114875000D01*
X35000000Y-116125000D02*
X33000000Y-116125000D01*
X32400000Y-112200000D02*
X32400000Y-113800000D01*
X32400000Y-113800000D02*
X35600000Y-113800000D01*
X35600000Y-113800000D02*
X35600000Y-112200000D01*
X35600000Y-112200000D02*
X32400000Y-112200000D01*
X32720000Y-112200000D02*
X32720000Y-113800000D01*
X32880000Y-112200000D02*
X32880000Y-113800000D01*
X61100000Y-102300000D02*
X61100000Y-100700000D01*
X61100000Y-100700000D02*
X57900000Y-100700000D01*
X57900000Y-100700000D02*
X57900000Y-102300000D01*
X57900000Y-102300000D02*
X61100000Y-102300000D01*
X60780000Y-102300000D02*
X60780000Y-100700000D01*
X60620000Y-102300000D02*
X60620000Y-100700000D01*
X127900000Y-159200000D02*
X127900000Y-160800000D01*
X127900000Y-160800000D02*
X131100000Y-160800000D01*
X131100000Y-160800000D02*
X131100000Y-159200000D01*
X131100000Y-159200000D02*
X127900000Y-159200000D01*
X128220000Y-159200000D02*
X128220000Y-160800000D01*
X128380000Y-159200000D02*
X128380000Y-160800000D01*
X92600000Y-46800000D02*
X92600000Y-45200000D01*
X92600000Y-45200000D02*
X89400000Y-45200000D01*
X89400000Y-45200000D02*
X89400000Y-46800000D01*
X89400000Y-46800000D02*
X92600000Y-46800000D01*
X92280000Y-46800000D02*
X92280000Y-45200000D01*
X92120000Y-46800000D02*
X92120000Y-45200000D01*
X100700000Y-39600000D02*
X102300000Y-39600000D01*
X102300000Y-39600000D02*
X102300000Y-36400000D01*
X102300000Y-36400000D02*
X100700000Y-36400000D01*
X100700000Y-36400000D02*
X100700000Y-39600000D01*
X100700000Y-39280000D02*
X102300000Y-39280000D01*
X100700000Y-39120000D02*
X102300000Y-39120000D01*
D12*
X128250000Y-153500000D02*
G75*
G03X128250000Y-153500000I-250000J0D01*
G01*
X127550000Y-153050000D02*
X127550000Y-157950000D01*
X131450000Y-153050000D02*
X127550000Y-153050000D01*
X131450000Y-157950000D02*
X131450000Y-153050000D01*
X127550000Y-157950000D02*
X131450000Y-157950000D01*
D10*
X87625000Y-63000000D02*
X86375000Y-63000000D01*
X87625000Y-61000000D02*
X87625000Y-63000000D01*
X86375000Y-61000000D02*
X87625000Y-61000000D01*
X86375000Y-63000000D02*
X86375000Y-61000000D01*
X131800000Y-123400000D02*
X130200000Y-123400000D01*
X130200000Y-123400000D02*
X130200000Y-126600000D01*
X130200000Y-126600000D02*
X131800000Y-126600000D01*
X131800000Y-126600000D02*
X131800000Y-123400000D01*
X131800000Y-123720000D02*
X130200000Y-123720000D01*
X131800000Y-123880000D02*
X130200000Y-123880000D01*
X66500000Y-66125000D02*
X66500000Y-64875000D01*
X68500000Y-66125000D02*
X66500000Y-66125000D01*
X68500000Y-64875000D02*
X68500000Y-66125000D01*
X66500000Y-64875000D02*
X68500000Y-64875000D01*
X121300000Y-60050000D02*
X121300000Y-62500000D01*
X121850000Y-59480000D02*
X122700000Y-59480000D01*
X121300000Y-60050000D02*
X121850000Y-59480000D01*
X122700000Y-59480000D02*
X122700000Y-62520000D01*
X121300000Y-62520000D02*
X122700000Y-62520000D01*
X69700000Y-123950000D02*
X69700000Y-121500000D01*
X69150000Y-124520000D02*
X68300000Y-124520000D01*
X69700000Y-123950000D02*
X69150000Y-124520000D01*
X68300000Y-124520000D02*
X68300000Y-121480000D01*
X69700000Y-121480000D02*
X68300000Y-121480000D01*
X116400000Y-175800000D02*
X115600000Y-175800000D01*
X116400000Y-174200000D02*
X116400000Y-175800000D01*
X115600000Y-174200000D02*
X116400000Y-174200000D01*
X115600000Y-175800000D02*
X115600000Y-174200000D01*
X104400000Y-175800000D02*
X103600000Y-175800000D01*
X104400000Y-174200000D02*
X104400000Y-175800000D01*
X103600000Y-174200000D02*
X104400000Y-174200000D01*
X103600000Y-175800000D02*
X103600000Y-174200000D01*
X108950000Y-76800000D02*
X106500000Y-76800000D01*
X109520000Y-77350000D02*
X109520000Y-78200000D01*
X108950000Y-76800000D02*
X109520000Y-77350000D01*
X109520000Y-78200000D02*
X106480000Y-78200000D01*
X106480000Y-76800000D02*
X106480000Y-78200000D01*
X122450000Y-165800000D02*
X120000000Y-165800000D01*
X123020000Y-166350000D02*
X123020000Y-167200000D01*
X122450000Y-165800000D02*
X123020000Y-166350000D01*
X123020000Y-167200000D02*
X119980000Y-167200000D01*
X119980000Y-165800000D02*
X119980000Y-167200000D01*
X111950000Y-165800000D02*
X109500000Y-165800000D01*
X112520000Y-166350000D02*
X112520000Y-167200000D01*
X111950000Y-165800000D02*
X112520000Y-166350000D01*
X112520000Y-167200000D02*
X109480000Y-167200000D01*
X109480000Y-165800000D02*
X109480000Y-167200000D01*
M02*
